===== Simulator configuration =====
  BLOCKSIZE:                  32
  L1_SIZE:                  2048
  L1_ASSOC:                    1
  VC_NUM_BLOCKS:               0
  L2_SIZE:                 65536
  L2_ASSOC:                    8
  trace_file:      gcc_trace.txt

===== L1 contents =====
  set   0:   80066 D  
  set   1:   80066 D  
  set   2:   80066 D  
  set   3:   8006b D  
  set   4:   800a3 D  
  set   5:   800a3 D  
  set   6:   8006b D  
  set   7:   8006b    
  set   8:   f6067 D  
  set   9:   f6067 D  
  set  10:   80085 D  
  set  11:   80085 D  
  set  12:   800a3 D  
  set  13:   800a3 D  
  set  14:   800a3 D  
  set  15:   8007e D  
  set  16:   800a3 D  
  set  17:   80070 D  
  set  18:   800a3    
  set  19:   800a3 D  
  set  20:   8003e    
  set  21:   80002    
  set  22:   80002    
  set  23:   80002    
  set  24:   80002    
  set  25:   80002    
  set  26:   80002    
  set  27:   80002    
  set  28:   800a3 D  
  set  29:   800a3 D  
  set  30:   80063 D  
  set  31:   80063 D  
  set  32:   80062    
  set  33:   800a3 D  
  set  34:   80062    
  set  35:   80062    
  set  36:   8005e D  
  set  37:   8005e    
  set  38:   80062    
  set  39:   8003e    
  set  40:   8003e    
  set  41:   8003e    
  set  42:   8003e    
  set  43:   8004e    
  set  44:   8007c    
  set  45:   8004e    
  set  46:   8004e    
  set  47:   8004e    
  set  48:   8006a    
  set  49:   80054 D  
  set  50:   80088 D  
  set  51:   800a2 D  
  set  52:   80063 D  
  set  53:   8008f    
  set  54:   8008f    
  set  55:   8008f    
  set  56:   8005e D  
  set  57:   8008f    
  set  58:   8008f    
  set  59:   8006a    
  set  60:   80063 D  
  set  61:   8006c D  
  set  62:   80069 D  
  set  63:   80065 D  

===== L2 contents =====
  set   0:   2002b D  2002a D  20018 D  20022 D  2001a D  2001f D  20028 D  6fc    
  set   1:   2002b D  2002a D  20018 D  20022 D  2001a D  2001f D  20028 D  20027 D  
  set   2:   2002b D  2002a D  20018 D  20022 D  2001a D  2001f D  20028 D  211d7    
  set   3:   2001b D  2002b D  2002a D  20018 D  20022 D  2001a D  2001f D  20028 D  
  set   4:   2002b D  2002a D  20018 D  20022 D  2001a D  2001f D  20028 D  20027 D  
  set   5:   2002b D  2002a D  20018 D  20022 D  2001a D  2001f D  20028 D  20027 D  
  set   6:   2002b D  2002a D  20018 D  20022 D  2001a D  2001f D  20019 D  20028 D  
  set   7:   2002b D  2002a D  20018 D  20022 D  2001a D  2001f D  20028 D  20027 D  
  set   8:   2002b D  2002a D  20018 D  20022 D  2001a D  2001f D  20028 D  20027 D  
  set   9:   2002b D  2002a D  20018 D  20022 D  2001a D  2001f D  20028 D  20027 D  
  set  10:   2002b D  2002a D  20018 D  20022 D  2001a D  2001f D  20028 D  20027 D  
  set  11:   2002b D  2002a D  20018 D  20022 D  2001a D  2001f D  20028 D  20019 D  
  set  12:   2002b D  2002a D  20018 D  20022 D  2001a D  2001f D  20028 D  20027 D  
  set  13:   2002b D  2002a D  20018 D  20022 D  2001a D  2001f D  20028 D  20027 D  
  set  14:   2001d D  2002b D  2002a D  20018 D  20022 D  2001a D  2001f D  20028 D  
  set  15:   2002b D  2002a D  20018 D  20022 D  2001a D  2001f D  20028 D  2001d D  
  set  16:   2001d D  2002b D  2002a D  20018 D  20022 D  2001a D  2001f D  20028 D  
  set  17:   2001c    2001d D  2002b D  2002a D  20018 D  20022 D  2001a D  2001f D  
  set  18:   20024    2001c D  2002b D  2002a D  20018 D  20022 D  2001a D  2001f D  
  set  19:   2001c D  2002b D  2002a D  20018 D  20022 D  2001a D  2001f D  2001d D  
  set  20:   2002b D  2002a D  20018 D  20022 D  2001a D  2001f D  20019 D  2001c    
  set  21:   2001c D  2002a D  20018 D  20022 D  2001a D  2001f D  20028 D  20024    
  set  22:   2002a D  20018 D  20022 D  2001a D  2001f D  20027 D  20028 D  20024 D  
  set  23:   20018 D  2002a D  20022 D  2001a D  2001f D  20028 D  20027 D  20024    
  set  24:   2002a D  20018 D  20022 D  2001a D  2001f D  20019 D  20028 D  20024    
  set  25:   2002a D  20018 D  20022 D  2001a D  2001f D  20019 D  20028 D  20027 D  
  set  26:   2002a D  20018 D  20022 D  2001a D  2001f D  20019 D  20028 D  20024    
  set  27:   2002a D  20018 D  20022 D  2001a D  2001f D  20019 D  20028 D  20027 D  
  set  28:   2002a D  20018 D  20022 D  2001a D  2001f D  20028 D  20027 D  20001 D  
  set  29:   2001d D  2002a D  20018 D  20022 D  2001a D  2001f D  20019 D  20028 D  
  set  30:   2001c    2002a D  20018 D  20022 D  2001a D  2001f D  20028 D  20027 D  
  set  31:   2001d D  2002a D  20018 D  20022 D  2001a D  2001f D  20024 D  20028 D  
  set  32:   2002a D  20018 D  20022 D  2001a D  2001f D  20028 D  20019 D  20027 D  
  set  33:   2002a D  20018 D  20022 D  2001a D  2001f D  20024    20028 D  20027 D  
  set  34:   2002a D  20018 D  20022 D  2001a D  2001f D  20028 D  20019 D  20027 D  
  set  35:   2002a D  20018 D  20022 D  2001a D  2001f D  20028 D  20027 D  20001    
  set  36:   2002a D  20018 D  20022 D  2001a D  2001f D  20019 D  20028 D  20027 D  
  set  37:   2001b D  2002a D  20018 D  20022 D  2001a D  2001f D  20028 D  20019 D  
  set  38:   2001b D  20018 D  2002a D  20022 D  2001a D  2001f D  20028 D  20027 D  
  set  39:   2001b D  20018 D  2002a D  20022 D  2001a D  2001f D  20028 D  20027 D  
  set  40:   2001b D  2002a D  20018 D  20022 D  2001a D  2001f D  20019 D  20028 D  
  set  41:   2001b D  2002a D  20018 D  20022 D  2001a D  2001f D  20019 D  20028 D  
  set  42:   2001b D  2002a D  20018 D  20022 D  2001a D  2001f D  20028 D  20027 D  
  set  43:   2002a D  20018 D  20022 D  2001a D  20028 D  2001b D  20027 D  210a6    
  set  44:   2001f D  2002a D  20018 D  20022 D  2001a D  20015 D  20028 D  20027 D  
  set  45:   2001b D  20022 D  2002a D  20018 D  2001a D  20015    20028 D  20027 D  
  set  46:   2001b D  2002a D  20018 D  2001a D  20028 D  20027 D  3d81a    20001    
  set  47:   20022 D  2002a D  20018 D  2001a D  2001b D  20028 D  20027 D  2001f D  
  set  48:   20022 D  2001f D  2002a D  20018 D  2001a D  20028 D  20027 D  
  set  49:   20015 D  2002a D  2001f D  20018 D  2001a D  20019 D  20028 D  20027 D  
  set  50:   20022    2002a D  2001f D  20018 D  2001a D  20028 D  20027 D  20021    
  set  51:   2001f D  2002a D  20018 D  2001a D  20028 D  20027 D  6fc    
  set  52:   2001f D  2002a D  20018 D  2001a D  20026    20028 D  20027 D  6fc    
  set  53:   2002a D  20018 D  2001a D  20019 D  20028 D  20026    20021 D  20027 D  
  set  54:   20022 D  2002a D  20018 D  2001a D  20028 D  20027 D  20026    
  set  55:   2002a D  20018 D  2001a D  20027 D  20023 D  20026    20028 D  6fd    
  set  56:   2002a D  20018 D  2001a D  20023 D  20026    20028 D  20027 D  
  set  57:   2002a D  20018 D  2001a D  20027 D  20028 D  20019 D  6fc    
  set  58:   2002a D  20018 D  2001a D  20028 D  20027 D  6fc    
  set  59:   2002a D  20018 D  2001a D  20027 D  20028 D  6fc    
  set  60:   2002a D  20018 D  2001a D  20015 D  20019 D  20028 D  20027 D  210a6 D  
  set  61:   2001b D  2002a D  20018 D  2001a D  20028 D  20027 D  
  set  62:   2001b D  2002a D  20018 D  2001a D  20028 D  20015    20027 D  2009b    
  set  63:   2002a D  20018 D  2001a D  2001d D  20028 D  20027 D  
  set  64:   2001f D  2002a D  20018 D  2001a D  20028 D  20015 D  20027 D  2009b D  
  set  65:   2001b D  2001f D  2002a D  20018 D  2001a D  20028 D  20027 D  20026    
  set  66:   2002a D  20018 D  2001a D  20028 D  20027 D  211d8    210a6 D  2009c D  
  set  67:   2002a D  20018 D  2001a D  20028 D  20027 D  211d8 D  
  set  68:   2002a D  20018 D  2001a D  20026    20021    20028 D  20027 D  
  set  69:   2002a D  20018 D  2001a D  20028 D  20027 D  210a6 D  
  set  70:   2001e D  2002a D  20018 D  2001a D  20028 D  20027 D  
  set  71:   2002a D  20018 D  2001a D  2001e    20026    20028 D  20027 D  6fc    
  set  72:   2002a D  20018 D  2001a D  20028 D  20027 D  210a6    
  set  73:   2002a D  20018 D  2001a D  20028 D  20027 D  2009c D  210a6    
  set  74:   20021 D  2002a D  20018 D  2001a D  2001e D  20028 D  20019 D  20027 D  
  set  75:   20021    2002a D  20018 D  2001a D  2001e D  20028 D  20019 D  20027 D  
  set  76:   2001f D  2002a D  20018 D  20021 D  2001a D  2001e D  20019 D  20028 D  
  set  77:   2002a D  20018 D  20021 D  2001a D  2001e D  20028 D  20027 D  210a6    
  set  78:   2002a D  20018 D  20021 D  2001a D  2001e D  20028 D  20019 D  20027 D  
  set  79:   2002a D  20018 D  20021 D  2001a D  2001e D  20028 D  20027 D  211d8 D  
  set  80:   2002a D  20018 D  20021 D  2001a D  2001e D  20028 D  20027 D  211d8 D  
  set  81:   2002a D  20018 D  20021 D  2001a D  2001e D  20028 D  20027 D  3d81a    
  set  82:   2002a D  20018 D  20021 D  2001a D  2001e D  20028 D  20027 D  211d8 D  
  set  83:   2002a D  20018 D  20021 D  2001a D  2001e D  20028 D  20019 D  20027 D  
  set  84:   2002a D  20018 D  20021 D  2001a D  2001e D  20027 D  20028 D  
  set  85:   2002a D  20018 D  20021 D  2001a D  2001e D  20028 D  20027 D  
  set  86:   2002a D  20018 D  20021 D  2001a D  2001e D  20028 D  20027 D  
  set  87:   2002a D  20018 D  20021 D  2001a D  2001e D  20028 D  20027 D  211aa    
  set  88:   2002a D  20018 D  20021 D  2001a D  2001e D  20027 D  20028 D  
  set  89:   2001b D  2002a D  20018 D  20021 D  2001a D  2001e D  20028 D  20019 D  
  set  90:   2002a D  2001b D  20018 D  20021 D  2001a D  2001e D  20028 D  20027 D  
  set  91:   2001b D  2002a D  20018 D  20021 D  2001a D  2001e D  20019 D  20028 D  
  set  92:   2001b D  2002a D  20018 D  20021 D  2001a D  2001e D  20028 D  20027 D  
  set  93:   2001f D  2001b D  2002a D  20018 D  20021 D  2001a D  2001e D  20028 D  
  set  94:   2001f D  2002a D  20018 D  20021 D  2001a D  2001e D  20028 D  20027 D  
  set  95:   2002a D  20018 D  20021 D  2001a D  2001e D  20028 D  2001f D  20027 D  
  set  96:   2002a D  20018 D  20021 D  2001a D  2001e D  20028 D  20027 D  2001f D  
  set  97:   2002a D  20018 D  20021 D  2001a D  2001e D  20028 D  20027 D  2001f D  
  set  98:   2002a D  20018 D  20021 D  2001a D  2001e D  20028 D  2001f D  20027 D  
  set  99:   2002a D  20018 D  20021 D  2001a D  2001e D  20028 D  20027 D  2001f D  
  set 100:   2002a D  20018 D  20021 D  2001a D  2001e D  20028 D  2001f D  20027 D  
  set 101:   2002a D  20018 D  20021 D  2001a D  2001e D  20028 D  20019 D  20027 D  
  set 102:   2002a D  20018 D  20021 D  2001a D  2001e D  20028 D  2001f D  20027 D  
  set 103:   2001f D  2002a D  20018 D  20021 D  2001a D  2001e D  20027 D  211d6    
  set 104:   2002a D  20018 D  20021 D  2001a D  2001e D  20028 D  20019 D  20027 D  
  set 105:   2002a D  20018 D  20021 D  2001a D  2001e D  20026 D  20028 D  20019 D  
  set 106:   2002a D  20018 D  20021 D  2001a D  2001e D  20028 D  20027 D  20026 D  
  set 107:   2002a D  20018 D  20021 D  2001a D  2001e D  20028 D  20027 D  211d6    
  set 108:   2002a D  20018 D  20021 D  2001a D  2001e D  20028 D  20019 D  20027 D  
  set 109:   2002a D  20018 D  20021 D  2001a D  2001e D  20028 D  20026    20027 D  
  set 110:   2001b D  2002a D  20018 D  20021 D  2001a D  2001e D  20028 D  20019 D  
  set 111:   2001b D  2002a D  20018 D  20021 D  2001e D  20028 D  20027 D  20026    
  set 112:   2002a D  20029 D  20018 D  20021 D  2001e D  20028 D  20027 D  211d6    
  set 113:   2001b D  20029 D  2002a D  20018 D  20021 D  2001e D  20026    20028 D  
  set 114:   2001f D  20029 D  2002a D  20018 D  20021 D  2001e D  20026    20028 D  
  set 115:   20029 D  2002a D  20018 D  20021 D  2001e D  20028 D  20027 D  20002    
  set 116:   2002a D  20029 D  20018 D  20021 D  2001e D  20028 D  20019 D  20002    
  set 117:   2002a D  20029 D  20018 D  20021 D  2001e D  20028 D  20002    20027 D  
  set 118:   2002a D  20029 D  20018 D  20021 D  2001e D  20028 D  20002    20027 D  
  set 119:   2002a D  20029 D  20018 D  20021 D  2001e D  20028 D  20002    20027 D  
  set 120:   2001f D  2002a D  20029 D  20018 D  20021 D  2001e D  20028 D  20019 D  
  set 121:   2000f    2002a D  2000e    20029 D  20018 D  20021 D  2001e D  20028 D  
  set 122:   2000f    2002a D  2000e    20029 D  20018 D  20021 D  2001e D  20028 D  
  set 123:   2000e    20029 D  2002a D  20018 D  20021 D  2001e D  20028 D  20027 D  
  set 124:   2000e    20029 D  2002a D  20018 D  20021 D  2001e D  2001a D  20028 D  
  set 125:   2000f    2000e    2002a D  20029 D  20018 D  20021 D  2001e D  2001a D  
  set 126:   2001a    2000f    2000e    2002a D  20029 D  20018 D  20021 D  2001e D  
  set 127:   20019    2001a D  2000e    2002a D  20029 D  20018 D  20021 D  2001e D  
  set 128:   20019    2002a D  20029 D  20018 D  20021 D  2001e D  20028 D  20027 D  
  set 129:   20019    2001f D  2002a D  20029 D  20018 D  20021 D  2001e D  20028 D  
  set 130:   20019    2002a D  20029 D  20018 D  20021 D  2001e D  20028 D  20002    
  set 131:   20029 D  2002a D  20018 D  20021 D  2001e D  20028 D  20002    20027 D  
  set 132:   2000f    20029 D  2002a D  20018 D  20021 D  2001e D  20028 D  20002    
  set 133:   2002a D  20029 D  20018 D  20021 D  2001e D  20028 D  20002    2000f    
  set 134:   2002a D  20029 D  20018 D  20021 D  2001e D  20028 D  20002    20027 D  
  set 135:   2002a D  20029 D  20018 D  20021 D  2001e D  20028 D  20027 D  2000f    
  set 136:   2002a D  20029 D  20018 D  20021 D  2001e D  20028 D  2000f    20027 D  
  set 137:   2002a D  20029 D  20018 D  20021 D  2001e D  20028 D  20027 D  6fe    
  set 138:   2002a D  20029 D  20018 D  20021 D  2001e D  20028 D  20027 D  2000f    
  set 139:   2002a D  20029 D  20018 D  20021 D  2001e D  20019 D  20028 D  20027 D  
  set 140:   2000f    2002a D  20029 D  20018 D  20021 D  2001e D  20028 D  20027 D  
  set 141:   2002a D  20029 D  20018 D  20021 D  2001e D  20019    20028 D  20027 D  
  set 142:   2001a D  2002a D  20029 D  20018 D  20021 D  20019 D  2001e D  20028 D  
  set 143:   2001f D  2002a D  20029 D  20018 D  20021 D  20019 D  2001e D  20028 D  
  set 144:   2002a D  20029 D  20018 D  20021 D  20019 D  2001e D  20028 D  20027 D  
  set 145:   2002a D  20029 D  20018 D  20021 D  20019 D  2001e D  20028 D  20027 D  
  set 146:   20014    2002a D  20029 D  20018 D  20021 D  20019 D  2001e D  20028 D  
  set 147:   2002a D  20029 D  20018 D  20021 D  20019 D  2001e D  20028 D  2001a    
  set 148:   2000f    20014    20016 D  2002a D  20029 D  20018 D  20021 D  20019 D  
  set 149:   20000    2002a D  20029 D  20018 D  20021 D  20019 D  2001e D  20028 D  
  set 150:   20000    2000f    20028 D  2002a D  20029 D  20018 D  20021 D  20019 D  
  set 151:   20000    20014    2000f    20028 D  2002a D  20029 D  20018 D  20021 D  
  set 152:   20000    2000f    20014    20017 D  20028 D  2002a D  20029 D  20018 D  
  set 153:   20000    2000f    20029 D  20028 D  2002a D  20018 D  20021 D  20019 D  
  set 154:   20000    20029 D  20028 D  2002a D  20018 D  20021 D  20019 D  2001e D  
  set 155:   20000    20028 D  2002a D  20029 D  20018 D  20021 D  20019 D  2001e D  
  set 156:   20018 D  20017 D  20028 D  2002a D  20029 D  20021 D  20019 D  2001e D  
  set 157:   20028 D  2002a D  20029 D  20021 D  20019 D  2001e D  20027 D  211aa    
  set 158:   20028 D  2002a D  20029 D  20021 D  20019 D  2001e D  2001c D  20027 D  
  set 159:   2001a D  20028 D  20021 D  2002a D  20029 D  20019 D  2001e D  20001    
  set 160:   20018    20017 D  20028 D  2002a D  20029 D  20021 D  20019 D  2001e D  
  set 161:   20028 D  20029 D  2002a D  20021 D  20019 D  2001e D  20027 D  
  set 162:   20018    20028 D  20029 D  2002a D  20021 D  20019 D  2001e D  20027 D  
  set 163:   20018    20017 D  20028 D  2002a D  20029 D  20021 D  20019 D  2001e D  
  set 164:   20017 D  20018    20028 D  2002a D  2001c D  20029 D  20021 D  20019 D  
  set 165:   20017    2000f    20018    20028 D  2002a D  20029 D  20021 D  20019 D  
  set 166:   20018    20028 D  2002a D  20029 D  20021 D  20019 D  2001e D  20027 D  
  set 167:   2000f    20017 D  20028 D  20021 D  2002a D  20029 D  20019 D  2001e D  
  set 168:   2000f    2001a    20028 D  2002a D  20029 D  20021 D  20019 D  2001e D  
  set 169:   2000f    2001a    20029 D  20028 D  2002a D  20021 D  20019 D  2001e D  
  set 170:   2000f    2001a    20028 D  20029 D  2002a D  20021 D  20019 D  2001e D  
  set 171:   20013    2001a    20028 D  2002a D  20029 D  20021 D  20019 D  2001e D  
  set 172:   2001a    20018 D  20013    20028 D  2002a D  20029 D  20021 D  20019 D  
  set 173:   20013    20028 D  2002a D  20029 D  20021 D  20019 D  2001e D  20027 D  
  set 174:   20013    20028 D  2002a D  20029 D  20021 D  20019 D  2001e D  20027 D  
  set 175:   20013    20028 D  2002a D  20029 D  20021 D  20019 D  2001e D  20017    
  set 176:   2001a    20028 D  2002a D  20029 D  20021 D  20019 D  2001e D  20027 D  
  set 177:   20013    2000f    20028 D  20029 D  2002a D  20021 D  20019 D  2001e D  
  set 178:   20013    20028 D  20029 D  2002a D  20021 D  20019 D  2001e D  20027 D  
  set 179:   20028    2002a D  20029 D  20021 D  20019 D  2001e D  20027 D  211aa    
  set 180:   20028 D  2002a D  20029 D  20018 D  20021 D  20019 D  2001e D  20027 D  
  set 181:   20028 D  2002a D  20029 D  20018 D  20021 D  20019 D  2001e D  20027 D  
  set 182:   20028 D  2002a D  20021 D  20029 D  20018 D  20019 D  2001e D  20027 D  
  set 183:   2001b D  20017 D  20028 D  2002a D  20029 D  20018 D  20021 D  20019 D  
  set 184:   20017 D  2001b D  20028 D  2002a D  20029 D  20018 D  20021 D  20019 D  
  set 185:   20017 D  20029 D  20028 D  2002a D  20018 D  20021 D  20019 D  2001e D  
  set 186:   2001a D  20028 D  20029 D  2002a D  20018 D  20021 D  20019 D  2001e D  
  set 187:   2001a D  20028 D  2002a D  20029 D  20018 D  20017 D  20021 D  20019 D  
  set 188:   2001a    20028 D  2002a D  20029 D  20018 D  20017 D  20021 D  20019 D  
  set 189:   2001a D  20028 D  2002a D  20029 D  20018 D  20017 D  20021 D  20019 D  
  set 190:   20028 D  2002a D  20029 D  20018 D  20017 D  20021 D  20019 D  2001e D  
  set 191:   20028 D  2002a D  20018 D  20029 D  20017 D  20021 D  20019 D  2001e D  
  set 192:   20028 D  2002a D  20018 D  20029 D  20017 D  20021 D  20019 D  2001e D  
  set 193:   20028 D  20029 D  2002a D  20018 D  20017 D  20021 D  20019 D  2001e D  
  set 194:   20028 D  20018 D  20029 D  2002a D  20017 D  20021 D  20019 D  2001e D  
  set 195:   2001a    20028 D  2002a D  2001b D  20029 D  20017 D  20021 D  20019 D  
  set 196:   20028    2001a D  2002a D  20029 D  20017 D  20021 D  20019 D  2001e D  
  set 197:   20028    2002a D  20029 D  20017 D  20021 D  20019 D  2001e D  20027 D  
  set 198:   2001a D  20028 D  2001b D  2002a D  20029 D  20017 D  20021 D  20019 D  
  set 199:   2001a    20028 D  2002a D  20029 D  20017 D  20021 D  20019 D  2001e D  
  set 200:   3d819 D  20028 D  2001f D  2002a D  20029 D  20017 D  20021 D  20019 D  
  set 201:   3d819    20028 D  2002a D  20029 D  20017 D  20021 D  20019 D  2001e D  
  set 202:   2001f D  20028 D  2002a D  20017 D  20029 D  20021 D  20019 D  2001e D  
  set 203:   20028 D  3d819 D  20029 D  2002a D  20017 D  20021 D  20019 D  2001e D  
  set 204:   20028    20029 D  2002a D  20017 D  20021 D  20019 D  2001e D  20023    
  set 205:   20028    2002a D  20029 D  20017 D  20021 D  20019 D  2001e D  20027 D  
  set 206:   20028    2001f D  2002a D  20029 D  20017 D  20021 D  20019 D  2001e D  
  set 207:   20028 D  2002a D  2001f D  20029 D  20017 D  20021 D  20019 D  2001e D  
  set 208:   20028    3d819 D  2002a D  2001f D  20029 D  20017 D  20021 D  20019 D  
  set 209:   20028 D  2002a D  2001f D  20029 D  20017 D  20021 D  20019 D  2001e D  
  set 210:   20028 D  2001f D  2002a D  20029 D  20017 D  20021 D  20019 D  2001e D  
  set 211:   20028    2001b D  2001f D  2002a D  20029 D  20017 D  20021 D  20019 D  
  set 212:   20028 D  2001a D  2002a D  20029 D  2001f D  20017 D  20021 D  20019 D  
  set 213:   20028 D  2001a D  2002a D  20029 D  20017 D  20021 D  20019 D  2001e D  
  set 214:   20028 D  2001a D  2002a D  20029 D  20017 D  20021 D  20019 D  2001e D  
  set 215:   20028 D  2002a D  20029 D  20017 D  20021 D  20019 D  2001e D  20027 D  
  set 216:   20028 D  2002a D  20029 D  20017 D  20021 D  20019 D  2001e D  20027 D  
  set 217:   20028 D  2001f D  2002a D  20029 D  20017 D  20021 D  20019 D  2001e D  
  set 218:   20028 D  2002a D  20029 D  20017 D  20021 D  20019 D  2001e D  20027 D  
  set 219:   20028 D  20018 D  2002a D  20029 D  20017 D  20021 D  20019 D  2001e D  
  set 220:   20028    20018 D  2001a D  2002a D  2001b D  20029 D  2001f D  20017 D  
  set 221:   20028    20018 D  2001b D  2002a D  20029 D  20017 D  20021 D  20019 D  
  set 222:   20018 D  20028 D  2001a D  2001f D  2002a D  20029 D  20017 D  20021 D  
  set 223:   20018    20028 D  2001a D  2002a D  20029 D  20017 D  20021 D  20019 D  
  set 224:   20028 D  2002a D  20029 D  20017 D  20021 D  20019 D  2001e D  20010    
  set 225:   20028    2002a D  20029 D  20019 D  2001a D  20017 D  20021 D  2001e D  
  set 226:   20028 D  2002a D  20029 D  20017 D  20021 D  20019 D  2001e D  20027 D  
  set 227:   20028 D  2002a D  20029 D  20017 D  20021 D  20019 D  2001e D  20027 D  
  set 228:   20028 D  2002a D  20029 D  20017 D  20021 D  20019 D  2001e D  20027 D  
  set 229:   20028 D  2002a D  20029 D  20017 D  20021 D  20019 D  2001e D  20027 D  
  set 230:   2002a D  2001f D  20029 D  20017 D  20021 D  20019 D  2001e D  20027 D  
  set 231:   2002a D  2001f D  20029 D  20017 D  20021 D  20019 D  2001e D  20027 D  
  set 232:   2002a D  2001f D  20029 D  20017 D  20021 D  20019 D  2001e D  20028 D  
  set 233:   2002a D  20029 D  20019 D  2001f D  20017 D  20021 D  2001e D  20028 D  
  set 234:   2001a D  2002a D  20029 D  20017 D  20021 D  20019 D  2001e D  20028 D  
  set 235:   2002a D  20029 D  20017 D  20021 D  20019 D  2001e D  20028 D  20027 D  
  set 236:   2002a D  2001f D  20029 D  20017 D  20021 D  20019 D  2001e D  20028 D  
  set 237:   2001f D  2002a D  20029 D  20017 D  20021 D  20019 D  2001e D  20028 D  
  set 238:   2002a D  20029 D  20017 D  20021 D  20019 D  2001e D  20028 D  20027 D  
  set 239:   2002a D  20029 D  20017 D  20021 D  20019 D  2001e D  20028 D  20027 D  
  set 240:   2001c    2002a D  20029 D  20017 D  20021 D  20019 D  2001e D  20028 D  
  set 241:   2002a D  20029 D  20017 D  20021 D  20019 D  2001e D  20028 D  20027 D  
  set 242:   2002a D  20029 D  20017 D  20021 D  20019 D  2001e D  20027 D  211a8    
  set 243:   2002a D  20029 D  20017 D  20021 D  20019 D  2001e D  20027 D  6fb    
  set 244:   20018 D  20023    2002a D  20029 D  20017 D  20021 D  20019 D  2001e D  
  set 245:   20023    20018 D  2002a D  20029 D  20017 D  20021 D  20019 D  2001e D  
  set 246:   20023    2001f D  2002a D  2001c D  20029 D  20017 D  20021 D  20019 D  
  set 247:   20023    2001a D  2002a D  20029 D  20017 D  20021 D  20019 D  2001e D  
  set 248:   20023    2002a D  20019 D  20029 D  20017 D  20021 D  2001e D  20027 D  
  set 249:   20023    2002a D  20029 D  20017 D  20021 D  20019 D  2001e D  20027 D  
  set 250:   20023    20018 D  2002a D  20029 D  20017 D  20021 D  20019 D  2001e D  
  set 251:   20023    2002a D  20029 D  20017 D  20021 D  20019 D  2001e D  20027 D  
  set 252:   20018    20023    2001a D  2002a D  20029 D  20017 D  20021 D  20019 D  
  set 253:   2001a D  2002a D  20029 D  20017 D  20021 D  20019 D  2001e D  20018 D  
  set 254:   2002a D  20029 D  20017 D  20021 D  20019 D  2001e D  20018 D  2001b D  
  set 255:   2002a D  20029 D  20017 D  20021 D  20019 D  2001e D  20027 D  20026    

===== Simulation results =====
  a. number of L1 reads:                       63640
  b. number of L1 read misses:                  8905
  c. number of L1 writes:                      36360
  d. number of L1 write misses:                 5869
  e. number of swap requests:                      0
  f. swap request rate:                       0.0000
  g. number of swaps:                              0
  h. combined L1+VC miss rate:                0.1477
  i. number writebacks from L1/VC:              6713
  j. number of L2 reads:                       14774
  k. number of L2 read misses:                  2589
  l. number of L2 writes:                       6713
  m. number of L2 write misses:                    0
  n. L2 miss rate:                            0.1752
  o. number of writebacks from L2:               290
  p. total memory traffic:                      2879
