===== Simulator configuration =====
  BLOCKSIZE:                  32
  L1_SIZE:                  8192
  L1_ASSOC:                    2
  VC_NUM_BLOCKS:               0
  L2_SIZE:                 65536
  L2_ASSOC:                    8
  trace_file:      gcc_trace.txt

===== L1 contents =====
  set   0:   40033 D  40056 D  
  set   1:   40033 D  4003f D  
  set   2:   40033 D  40055 D  
  set   3:   40036 D  40056 D  
  set   4:   4001f    40056 D  
  set   5:   40056 D  40055 D  
  set   6:   40056 D  40055 D  
  set   7:   40056 D  40055 D  
  set   8:   40056 D  40055 D  
  set   9:   40056 D  40054 D  
  set  10:   40056 D  40054 D  
  set  11:   40056 D  40055 D  
  set  12:   4001f    40056 D  
  set  13:   40056 D  40055 D  
  set  14:   40035 D  4003a    
  set  15:   4003f D  40056 D  
  set  16:   4003a D  40056 D  
  set  17:   40038 D  4003a D  
  set  18:   40048    40038 D  
  set  19:   40038 D  40056 D  
  set  20:   4001f    40029    
  set  21:   40001    40038    
  set  22:   40001    4001f    
  set  23:   40001    40029    
  set  24:   40001    4001f    
  set  25:   40001    4001f    
  set  26:   40001    40054 D  
  set  27:   40001    40051 D  
  set  28:   40031 D  4002f    
  set  29:   4003a D  40051 D  
  set  30:   40038    40051 D  
  set  31:   40035 D  4003a D  
  set  32:   40031    4002f D  
  set  33:   40054 D  40051 D  
  set  34:   40031    40054 D  
  set  35:   40031    4002f D  
  set  36:   4002f D  40031    
  set  37:   4002f    4001f    
  set  38:   40031    40036 D  
  set  39:   4001f    40036 D  
  set  40:   4001f    40036 D  
  set  41:   4001f    40036 D  
  set  42:   4001f    40035    
  set  43:   40027    40035    
  set  44:   4003e    40035    
  set  45:   40027    40036 D  
  set  46:   40027    40036 D  
  set  47:   40027    40044 D  
  set  48:   40035    40044 D  
  set  49:   4002a D  40027    
  set  50:   40044 D  40027    
  set  51:   40051 D  40055 D  
  set  52:   4003e D  40051 D  
  set  53:   40051 D  40055 D  
  set  54:   40044 D  40051 D  
  set  55:   40037 D  4002f D  
  set  56:   4002f D  40037 D  
  set  57:   4002f D  40053 D  
  set  58:   40035 D  40051 D  
  set  59:   40035 D  40051 D  
  set  60:   40035    40051 D  
  set  61:   40036 D  40035 D  
  set  62:   40051 D  40036 D  
  set  63:   40051 D  40055 D  
  set  64:   4003e D  40051 D  
  set  65:   40036 D  40051 D  
  set  66:   40051 D  40031    
  set  67:   40035 D  40051 D  
  set  68:   40051 D  40035 D  
  set  69:   40051 D  40055 D  
  set  70:   40035 D  40051 D  
  set  71:   40035    40051 D  
  set  72:   7b033 D  40051 D  
  set  73:   7b033 D  40051 D  
  set  74:   40042 D  4003f D  
  set  75:   40042 D  40051 D  
  set  76:   40051 D  4003e D  
  set  77:   40051 D  40055 D  
  set  78:   40051 D  4003f    
  set  79:   40051 D  40055 D  
  set  80:   40051 D  7b033 D  
  set  81:   40051 D  40054 D  
  set  82:   40051 D  4003f D  
  set  83:   40051 D  40037 D  
  set  84:   40051 D  40035 D  
  set  85:   40051 D  40035    
  set  86:   40051 D  40035 D  
  set  87:   40051 D  40055 D  
  set  88:   40051 D  40055 D  
  set  89:   40051 D  4003f D  
  set  90:   40051 D  40054 D  
  set  91:   40051 D  40031 D  
  set  92:   40051 D  40031 D  
  set  93:   40051 D  40031 D  
  set  94:   40031 D  40051 D  
  set  95:   40031 D  40051 D  
  set  96:   40051 D  40055 D  
  set  97:   40051 D  40055 D  
  set  98:   40051 D  40055 D  
  set  99:   40051 D  40055 D  
  set 100:   40051 D  40055 D  
  set 101:   40051 D  40055 D  
  set 102:   40055 D  4003f D  
  set 103:   4003e D  40055 D  
  set 104:   40055 D  4003f D  
  set 105:   40054 D  40055 D  
  set 106:   40035    40054 D  
  set 107:   40054 D  40055 D  
  set 108:   40054 D  40055 D  
  set 109:   4003f D  40055 D  
  set 110:   40055 D  40036 D  
  set 111:   40055 D  40036 D  
  set 112:   40039    40055 D  
  set 113:   40055 D  40036    
  set 114:   4003e D  40055 D  
  set 115:   40055 D  40052 D  
  set 116:   40031 D  40047    
  set 117:   40047    40031 D  
  set 118:   40047    4003f    
  set 119:   40047    40035 D  
  set 120:   40047    4003e D  
  set 121:   40047    4001e    
  set 122:   40047    40031 D  
  set 123:   40047    40055 D  
  set 124:   40031 D  40047    
  set 125:   40035 D  4001e    
  set 126:   40034 D  4001e    
  set 127:   40032 D  40034 D  

===== L2 contents =====
  set   0:   2002b    2002a D  20018 D  20022 D  2001a D  2001f D  20028 D  6fc    
  set   1:   2002b D  2002a D  20018 D  20022 D  2001a D  2001f D  20028 D  20027 D  
  set   2:   2002b D  2002a D  20018 D  20022 D  2001a D  2001f D  20028 D  211d7    
  set   3:   2001b    2002b    2002a D  20018 D  20022 D  2001a D  2001f D  20028 D  
  set   4:   2002b    2002a D  20018 D  20022 D  2001a D  2001f D  20028 D  20027 D  
  set   5:   2002b    2002a D  20018 D  20022 D  2001a D  2001f D  20028 D  20027 D  
  set   6:   2002b    2002a D  20018 D  20022 D  2001a D  2001f D  20019 D  20028 D  
  set   7:   2002b    2002a D  20018 D  20022 D  2001a D  2001f D  20028 D  20027 D  
  set   8:   2002b    2002a D  20018 D  20022 D  2001a D  2001f D  20028 D  20027 D  
  set   9:   2002b    2002a    20018 D  20022 D  2001a D  2001f D  20028 D  20027 D  
  set  10:   2002b    2002a    20018 D  20022 D  2001a D  2001f D  20028 D  20027 D  
  set  11:   2002b    2002a D  20018 D  20022 D  2001a D  2001f D  20028 D  20019 D  
  set  12:   2002b    2002a D  20018 D  20022 D  2001a D  2001f D  20028 D  20027 D  
  set  13:   2002b    2002a D  20018 D  20022 D  2001a D  2001f D  20028 D  20027 D  
  set  14:   2002b D  2001d D  2002a D  20018 D  20022 D  2001a D  2001f D  20028 D  
  set  15:   2002b    2002a D  20018 D  20022 D  2001a D  2001f D  20028 D  2001d D  
  set  16:   2001d    2002b    2002a D  20018 D  20022 D  2001a D  2001f D  20028 D  
  set  17:   2001c    2002b D  2001d    2002a D  20018 D  20022 D  2001a D  2001f D  
  set  18:   20024    2002b D  2002a D  2001c D  20018 D  20022 D  2001a D  2001f D  
  set  19:   2001c    2002b    2002a D  20018 D  20022 D  2001a D  2001f D  2001d D  
  set  20:   2002b D  2002a D  20018 D  20022 D  2001a D  2001f D  20019 D  2001c    
  set  21:   2001c D  2002a D  20018 D  20022 D  2001a D  2001f D  20028 D  20024    
  set  22:   2002a D  20018 D  20022 D  2001a D  2001f D  20027 D  20028 D  20024 D  
  set  23:   20018 D  2002a D  20022 D  2001a D  2001f D  20028 D  20027 D  20024    
  set  24:   2002a D  20018 D  20022 D  2001a D  2001f D  20019 D  20028 D  20024    
  set  25:   2002a D  20018 D  20022 D  2001a D  2001f D  20019 D  20028 D  20027 D  
  set  26:   2002a D  20018 D  20022 D  2001a D  2001f D  20019 D  20028 D  20024    
  set  27:   2002a D  20018 D  20022 D  2001a D  2001f D  20019 D  20028 D  20027 D  
  set  28:   2002a D  20018 D  20022 D  2001a D  2001f D  20028 D  20027 D  20001 D  
  set  29:   2001d    2002a D  20018 D  20022 D  2001a D  2001f D  20019 D  20028 D  
  set  30:   2001c    2002a D  20018 D  20022 D  2001a D  2001f D  20028 D  20027 D  
  set  31:   2001d    2002a D  20018 D  20022 D  2001a D  2001f D  20024 D  20028 D  
  set  32:   2002a D  20018 D  20022 D  2001a D  2001f D  20028 D  20019 D  20027 D  
  set  33:   2002a D  20018 D  20022 D  2001a D  2001f D  20028 D  20024    20027 D  
  set  34:   2002a D  20018 D  20022 D  2001a D  2001f D  20028 D  20019 D  20027 D  
  set  35:   2002a D  20018 D  20022 D  2001a D  2001f D  20028 D  20027 D  20001    
  set  36:   2002a D  20018 D  20022 D  2001a D  2001f D  20019 D  20028 D  20027 D  
  set  37:   2001b D  2002a D  20018 D  20022 D  2001a D  2001f D  20028 D  20019 D  
  set  38:   2001b    20018 D  2002a D  20022 D  2001a D  2001f D  20028 D  20019 D  
  set  39:   2001b    20018 D  2002a D  20022 D  2001a D  2001f D  20028 D  20027 D  
  set  40:   2001b    2002a D  20018 D  20022 D  2001a D  2001f D  20019 D  20028 D  
  set  41:   2001b    2002a D  20018 D  20022 D  2001a D  2001f D  20019 D  20028 D  
  set  42:   2001b D  2002a D  20018 D  20022 D  2001a D  2001f D  20028 D  20027 D  
  set  43:   2002a D  20018 D  20022 D  2001a D  20028 D  2001b D  20027 D  210a6    
  set  44:   2001f D  2002a D  20018 D  20022 D  2001a D  20015 D  20028 D  20027 D  
  set  45:   20022 D  2001b D  2002a D  20018 D  2001a D  20028 D  20015    20027 D  
  set  46:   2001b    2002a D  20018 D  2001a D  20028 D  20027 D  20001    3d81a    
  set  47:   20022    2002a D  20018 D  2001a D  2001b D  20028 D  20027 D  2001f D  
  set  48:   20022    2001f D  2002a D  20018 D  2001a D  20028 D  20027 D  
  set  49:   20015 D  2002a D  2001f D  20018 D  2001a D  20019 D  20028 D  20027 D  
  set  50:   20022    2002a D  2001f D  20018 D  2001a D  20028 D  20027 D  20021    
  set  51:   2001f D  2002a D  20018 D  2001a D  20028 D  20027 D  6fc    
  set  52:   2001f    2002a D  20018 D  2001a D  20028 D  20027 D  20026    210a6 D  
  set  53:   2002a D  20018 D  2001a D  20019 D  20028 D  20026    20021 D  20027 D  
  set  54:   20022 D  2002a D  20018 D  2001a D  20028 D  20027 D  20026    
  set  55:   2002a D  20018 D  2001a D  20023 D  20026    20028 D  20027 D  6fd    
  set  56:   2002a D  20018 D  2001a D  20023 D  20026    20028 D  20027 D  
  set  57:   2002a D  20018 D  2001a D  20027 D  20028 D  20019 D  6fc    
  set  58:   2002a D  20018 D  2001a D  20028 D  20027 D  6fc    
  set  59:   2002a D  20018 D  2001a D  20027 D  20028 D  6fc    
  set  60:   2002a D  20018 D  2001a D  20015 D  20028 D  20019 D  20027 D  210a6 D  
  set  61:   2001b    2002a D  20018 D  2001a D  20028 D  20027 D  
  set  62:   2002a D  2001b    20018 D  2001a D  20028 D  20027 D  20015    20001    
  set  63:   2002a D  20018 D  2001a D  2001d D  20028 D  20027 D  
  set  64:   2001f    2002a D  20018 D  2001a D  20028 D  20015 D  20027 D  2009b D  
  set  65:   2001b D  2002a D  2001f D  20018 D  2001a D  20028 D  20027 D  20026    
  set  66:   2002a D  20018 D  2001a D  20028 D  20027 D  210a6 D  211d8    2009c D  
  set  67:   2002a D  20018 D  2001a D  20028 D  20027 D  211d8 D  
  set  68:   2002a D  20018 D  2001a D  20021    20028 D  20026    20027 D  
  set  69:   2002a D  20018 D  2001a D  20028 D  20027 D  210a6 D  
  set  70:   2001e D  2002a D  20018 D  2001a D  20028 D  20027 D  
  set  71:   2002a D  20018 D  2001a D  2001e    20028 D  20026    20027 D  6fc    
  set  72:   2002a D  20018 D  2001a D  20028 D  20027 D  210a6    
  set  73:   2002a D  20018 D  2001a D  20028 D  20027 D  2009c D  210a6    
  set  74:   20021    2002a D  20018 D  2001a D  2001e D  20028 D  20019 D  20027 D  
  set  75:   20021    2002a D  20018 D  2001a D  2001e D  20028 D  20019 D  20027 D  
  set  76:   2001f D  2002a D  20018 D  20021 D  2001a D  2001e D  20019 D  20028 D  
  set  77:   2002a D  20018 D  20021 D  2001a D  2001e D  20028 D  20027 D  210a6    
  set  78:   2002a D  20018 D  20021 D  2001a D  2001e D  20028 D  20019 D  20027 D  
  set  79:   2002a D  20018 D  20021 D  2001a D  2001e D  20028 D  20027 D  211d8 D  
  set  80:   2002a D  20018 D  20021 D  2001a D  2001e D  20028 D  20027 D  211d8 D  
  set  81:   2002a    20018 D  20021 D  2001a D  2001e D  20028 D  20027 D  211d8 D  
  set  82:   2002a D  20018 D  20021 D  2001a D  2001e D  20028 D  20027 D  211d8 D  
  set  83:   2002a D  20018 D  20021 D  2001a D  2001e D  20028 D  20019 D  20027 D  
  set  84:   2002a D  20018 D  20021 D  2001a D  2001e D  20027 D  20028 D  
  set  85:   2002a D  20018 D  20021 D  2001a D  2001e D  20028 D  20027 D  
  set  86:   2002a D  20018 D  20021 D  2001a D  2001e D  20028 D  20027 D  
  set  87:   2002a D  20018 D  20021 D  2001a D  2001e D  20028 D  20027 D  211aa    
  set  88:   2002a D  20018 D  20021 D  2001a D  2001e D  20027 D  20028 D  
  set  89:   2002a D  2001b D  20018 D  20021 D  2001a D  2001e D  20028 D  20019 D  
  set  90:   2002a D  2001b D  20018 D  20021 D  2001a D  2001e D  20028 D  20027 D  
  set  91:   2001b D  2002a D  20018 D  20021 D  2001a D  2001e D  20019 D  20028 D  
  set  92:   2001b D  2002a D  20018 D  20021 D  2001a D  2001e D  20028 D  20027 D  
  set  93:   2001f D  2001b D  2002a D  20018 D  20021 D  2001a D  2001e D  20028 D  
  set  94:   2001f D  2002a D  20018 D  20021 D  2001a D  2001e D  20028 D  20027 D  
  set  95:   2002a D  20018 D  20021 D  2001a D  2001e D  20028 D  2001f D  20027 D  
  set  96:   2002a D  20018 D  20021 D  2001a D  2001e D  20028 D  20027 D  2001f D  
  set  97:   2002a D  20018 D  20021 D  2001a D  2001e D  20028 D  20027 D  2001f D  
  set  98:   2002a D  20018 D  20021 D  2001a D  2001e D  20028 D  2001f D  20027 D  
  set  99:   2002a D  20018 D  20021 D  2001a D  2001e D  20028 D  20027 D  2001f D  
  set 100:   2002a D  20018 D  20021 D  2001a D  2001e D  20028 D  2001f D  20027 D  
  set 101:   2002a D  20018 D  20021 D  2001a D  2001e D  20028 D  20019 D  20027 D  
  set 102:   2002a D  20018 D  20021 D  2001a D  2001e D  20028 D  2001f D  20027 D  
  set 103:   2001f    2002a D  20018 D  20021 D  2001a D  2001e D  20027 D  3d81a D  
  set 104:   2002a D  20018 D  20021 D  2001a D  2001e D  20028 D  20019 D  20027 D  
  set 105:   2002a D  20018 D  20021 D  2001a D  2001e D  20026 D  20028 D  20019 D  
  set 106:   2002a D  20018 D  20021 D  2001a D  2001e D  20028 D  20027 D  20026 D  
  set 107:   2002a    20018 D  20021 D  2001a D  2001e D  20028 D  20027 D  211d6    
  set 108:   2002a    20018 D  20021 D  2001a D  2001e D  20028 D  20019 D  20027 D  
  set 109:   2002a D  20018 D  20021 D  2001a D  2001e D  20028 D  20027 D  20026    
  set 110:   2002a D  2001b    20018 D  20021 D  2001a D  2001e D  20028 D  20019 D  
  set 111:   2002a D  2001b    20018 D  20021 D  2001e D  20028 D  20027 D  20026    
  set 112:   2002a D  20029 D  20018 D  20021 D  2001e D  20028 D  20027 D  211d6    
  set 113:   2001b D  20029 D  2002a D  20018 D  20021 D  2001e D  20028 D  20026    
  set 114:   2001f    20029 D  2002a D  20018 D  20021 D  2001e D  20028 D  20026    
  set 115:   2002a D  20029 D  20018 D  20021 D  2001e D  20028 D  20027 D  20011 D  
  set 116:   2002a D  20029 D  20018 D  20021 D  2001e D  20028 D  20019 D  20002    
  set 117:   2002a D  20029 D  20018 D  20021 D  2001e D  20028 D  20027 D  20002    
  set 118:   2002a D  20029 D  20018 D  20021 D  2001e D  20028 D  20027 D  20002    
  set 119:   2002a D  20029 D  20018 D  20021 D  2001e D  20028 D  20027 D  20002    
  set 120:   2001f    2002a D  20029 D  20018 D  20021 D  2001e D  20028 D  20019 D  
  set 121:   2002a D  2000e    20029 D  2000f    20018 D  20021 D  2001e D  20028 D  
  set 122:   2002a D  2000e    20029 D  2000f    20018 D  20021 D  2001e D  20028 D  
  set 123:   20029 D  2000e    2002a D  20018 D  20021 D  2001e D  20028 D  20027 D  
  set 124:   20029 D  2000e    2002a D  20018 D  20021 D  2001e D  2001a D  20028 D  
  set 125:   2000e    2002a D  2000f    20029 D  20018 D  20021 D  2001e D  2001a D  
  set 126:   2001a    2000f    2000e    2002a D  20029 D  20018 D  20021 D  2001e D  
  set 127:   20019    2001a    2000e    2002a D  20029 D  20018 D  20021 D  2001e D  
  set 128:   20019    2002a D  20029 D  20018 D  20021 D  2001e D  20028 D  20027 D  
  set 129:   20019    2002a D  2001f    20029 D  20018 D  20021 D  2001e D  20028 D  
  set 130:   20019    2002a D  20029 D  20018 D  20021 D  2001e D  20028 D  20002    
  set 131:   20029 D  2002a D  20018 D  20021 D  2001e D  20028 D  20002    20027 D  
  set 132:   2000f    20029 D  2002a D  20018 D  20021 D  2001e D  20028 D  20002    
  set 133:   2002a    20029 D  20018 D  20021 D  2001e D  20028 D  20002    20027 D  
  set 134:   2002a    20029 D  20018 D  20021 D  2001e D  20028 D  20002    20027 D  
  set 135:   2002a    20029 D  20018 D  20021 D  2001e D  20028 D  20027 D  2000f    
  set 136:   2002a    20029 D  20018 D  20021 D  2001e D  20028 D  20027 D  2000f    
  set 137:   2002a D  20029 D  20018 D  20021 D  2001e D  20028 D  20027 D  6fe    
  set 138:   2002a D  20029 D  20018 D  20021 D  2001e D  20028 D  20027 D  2000f    
  set 139:   2002a    20029 D  20018 D  20021 D  2001e D  20019 D  20028 D  20027 D  
  set 140:   2000f    2002a D  20029 D  20018 D  20021 D  2001e D  20028 D  20027 D  
  set 141:   2002a    20029 D  20018 D  20021 D  2001e D  20028 D  20027 D  2000f    
  set 142:   2001a D  2002a D  20029 D  20018 D  20021 D  20019 D  2001e D  20028 D  
  set 143:   2001f    2002a D  20029 D  20018 D  20021 D  20019 D  2001e D  20028 D  
  set 144:   2002a D  20029 D  20018 D  20021 D  20019 D  2001e D  20028 D  20027 D  
  set 145:   2002a D  20029 D  20018 D  20021 D  20019 D  2001e D  20028 D  20027 D  
  set 146:   20014    2002a D  20029 D  20018 D  20021 D  20019 D  2001e D  20028 D  
  set 147:   2002a D  20029 D  20018 D  20021 D  20019 D  2001e D  20028 D  2001a    
  set 148:   20014    2000f    20016 D  2002a D  20029 D  20018 D  20021 D  20019 D  
  set 149:   20000    2002a D  20029 D  20018 D  20021 D  20019 D  2001e D  20028 D  
  set 150:   20000    20028 D  2000f    2002a D  20029 D  20018 D  20021 D  20019 D  
  set 151:   20000    20014    20028 D  2000f    2002a D  20029 D  20018 D  20021 D  
  set 152:   20000    20014    2000f    20028 D  20017 D  2002a D  20029 D  20018 D  
  set 153:   20000    20029 D  2000f    20028 D  2002a D  20018 D  20021 D  20019 D  
  set 154:   20000    20029 D  20028 D  2002a D  20018 D  20021 D  20019 D  2001e D  
  set 155:   20000    2002a D  20028    20029 D  20018 D  20021 D  20019 D  2001e D  
  set 156:   20018 D  20028 D  20017 D  2002a D  20029 D  20021 D  20019 D  2001e D  
  set 157:   2002a D  20028    20029 D  20021 D  20019 D  2001e D  20027 D  211aa    
  set 158:   2002a D  20028    20029 D  20021 D  20019 D  2001e D  2001c D  20027 D  
  set 159:   2001a    20028 D  20021 D  2002a D  20029 D  20019 D  2001e D  20001    
  set 160:   20018    20028 D  20017    2002a D  20029 D  20021 D  20019 D  2001e D  
  set 161:   20029 D  20028    2002a D  20021 D  20019 D  2001e D  20027 D  
  set 162:   20018    20028 D  20029 D  2002a D  20021 D  20019 D  2001e D  20027 D  
  set 163:   20018    20017    20028 D  2002a D  20029 D  20021 D  20019 D  2001e D  
  set 164:   20017 D  20028 D  2002a D  20018    2001c D  20029 D  20021 D  20019 D  
  set 165:   20017    2000f    20018    20028 D  2002a D  20029 D  20021 D  20019 D  
  set 166:   20028 D  20018    2002a D  20029 D  20021 D  20019 D  2001e D  20027 D  
  set 167:   20017 D  20028 D  20021 D  2000f    2002a D  20029 D  20019 D  2001e D  
  set 168:   2000f    2001a    20028 D  2002a D  20029 D  20021 D  20019 D  2001e D  
  set 169:   2000f    20029 D  2001a    20028 D  2002a D  20021 D  20019 D  2001e D  
  set 170:   2001a    2000f    20028 D  20029 D  2002a D  20021 D  20019 D  2001e D  
  set 171:   2001a    20013    20028 D  2002a D  20029 D  20021 D  20019 D  2001e D  
  set 172:   20018 D  2001a    20013    20028 D  2002a D  20029 D  20021 D  20019 D  
  set 173:   20013    20028 D  2002a D  20029 D  20021 D  20019 D  2001e D  20027 D  
  set 174:   20013    20028 D  2002a D  20029 D  20021 D  20019 D  2001e D  20027 D  
  set 175:   20013    20028 D  2002a D  20029 D  20021 D  20019 D  2001e D  20017    
  set 176:   2001a    20028 D  2002a D  20029 D  20021 D  20019 D  2001e D  20027 D  
  set 177:   20013    2000f    20028 D  20029 D  2002a D  20021 D  20019 D  2001e D  
  set 178:   20028 D  20013    20029 D  2002a D  20021 D  20019 D  2001e D  20027 D  
  set 179:   20028    2002a    20029 D  20021 D  20019 D  2001e D  20027 D  211aa    
  set 180:   2002a D  20028    20029 D  20018 D  20021 D  20019 D  2001e D  20027 D  
  set 181:   20028    2002a    20029 D  20018 D  20021 D  20019 D  2001e D  20027 D  
  set 182:   2002a D  20028    20021 D  20029 D  20018 D  20019 D  2001e D  20027 D  
  set 183:   2001b    20028 D  20017    2002a D  20029 D  20018 D  20021 D  20019 D  
  set 184:   20017    20028 D  2002a D  2001b D  20029 D  20018 D  20021 D  20019 D  
  set 185:   20017    20028 D  20029 D  2002a D  20018 D  20021 D  20019 D  2001e D  
  set 186:   2001a    20028    20029 D  2002a D  20018 D  20021 D  20019 D  2001e D  
  set 187:   20028    2002a D  20029 D  2001a D  20018 D  20017 D  20021 D  20019 D  
  set 188:   2001a    2002a D  20028    20029 D  20018 D  20017 D  20021 D  20019 D  
  set 189:   2001a    20028 D  2002a D  20029 D  20018 D  20017 D  20021 D  20019 D  
  set 190:   20028    2002a D  20029 D  20018 D  20017 D  20021 D  20019 D  2001e D  
  set 191:   20028    20018 D  2002a    20029 D  20017 D  20021 D  20019 D  2001e D  
  set 192:   2002a D  20028    20018 D  20029 D  20017 D  20021 D  20019 D  2001e D  
  set 193:   20029 D  20028    2002a D  20018 D  20017 D  20021 D  20019 D  2001e D  
  set 194:   20028    20029 D  20018 D  2002a D  20017 D  20021 D  20019 D  2001e D  
  set 195:   2001a    2002a D  20028    2001b D  20029 D  20017 D  20021 D  20019 D  
  set 196:   20028    2002a D  2001a    20029 D  20017 D  20021 D  20019 D  2001e D  
  set 197:   20028    2002a    20029 D  20017 D  20021 D  20019 D  2001e D  20027 D  
  set 198:   2001a D  20028    2001b D  2002a D  20029 D  20017 D  20021 D  20019 D  
  set 199:   2001a    2002a D  20028    20029 D  20017 D  20021 D  20019 D  2001e D  
  set 200:   20028    2001f D  2002a D  3d819    20029 D  20017 D  20021 D  20019 D  
  set 201:   3d819    2002a D  20028    20029 D  20017 D  20021 D  20019 D  2001e D  
  set 202:   2001f    20028 D  2002a D  20017 D  20029 D  20021 D  20019 D  2001e D  
  set 203:   3d819 D  20028    20029 D  2002a D  20017 D  20021 D  20019 D  2001e D  
  set 204:   20028    20029 D  2002a D  20017 D  20021 D  20019 D  2001e D  20023    
  set 205:   20028    2002a    20029 D  20017 D  20021 D  20019 D  2001e D  20027 D  
  set 206:   20028    2002a D  2001f D  20029 D  20017 D  20021 D  20019 D  2001e D  
  set 207:   20028    2001f D  2002a    20029 D  20017 D  20021 D  20019 D  2001e D  
  set 208:   20028    2002a D  2001f D  3d819 D  20029 D  20017 D  20021 D  20019 D  
  set 209:   20028    2002a D  2001f D  20029 D  20017 D  20021 D  20019 D  2001e D  
  set 210:   20028    2002a D  20029 D  2001f    20017 D  20021 D  20019 D  2001e D  
  set 211:   20028    2001f D  2001b    2002a D  20029 D  20017 D  20021 D  20019 D  
  set 212:   20028    2002a D  2001a D  20029 D  2001f D  20017 D  20021 D  20019 D  
  set 213:   20028    2002a D  2001a D  20029 D  20017 D  20021 D  20019 D  2001e D  
  set 214:   20028    2002a D  2001a    20029 D  20017 D  20021 D  20019 D  2001e D  
  set 215:   20028    2002a    20029 D  20017 D  20021 D  20019 D  2001e D  20027 D  
  set 216:   20028    2002a    20029 D  20017 D  20021 D  20019 D  2001e D  20027 D  
  set 217:   20028    2001f    2002a D  20029 D  20017 D  20021 D  20019 D  2001e D  
  set 218:   20028    2002a D  20029 D  20017 D  20021 D  20019 D  2001e D  20027 D  
  set 219:   20028    2002a D  20018    20029 D  20017 D  20021 D  20019 D  2001e D  
  set 220:   20028    2001a D  20018    2002a D  2001b D  20029 D  2001f D  20017 D  
  set 221:   20028    20018    2001b D  2002a D  20029 D  20017 D  20021 D  20019 D  
  set 222:   20028    2001a D  20018    2001f D  2002a D  20029 D  20017 D  20021 D  
  set 223:   20018    2001a D  20028    2002a D  20029 D  20017 D  20021 D  20019 D  
  set 224:   20028    2002a    20029 D  20017 D  20021 D  20019 D  2001e D  20010    
  set 225:   20028    20029 D  2002a    20019 D  2001a D  20017 D  20021 D  2001e D  
  set 226:   20028    20029 D  2002a    20017 D  20021 D  20019 D  2001e D  20027 D  
  set 227:   20028    2002a    20029 D  20017 D  20021 D  20019 D  2001e D  20027 D  
  set 228:   20028    2002a    20029 D  20017 D  20021 D  20019 D  2001e D  20027 D  
  set 229:   20028    2002a    20029 D  20017 D  20021 D  20019 D  2001e D  20027 D  
  set 230:   2002a    2001f D  20029 D  20017 D  20021 D  20019 D  2001e D  20027 D  
  set 231:   2002a    2001f D  20029 D  20017 D  20021 D  20019 D  2001e D  20027 D  
  set 232:   2002a    20029 D  2001f    20017 D  20021 D  20019 D  2001e D  20028 D  
  set 233:   20029 D  2002a    20019 D  2001f D  20017 D  20021 D  2001e D  20028 D  
  set 234:   2001a D  2002a D  20029 D  20017 D  20021 D  20019 D  2001e D  20028 D  
  set 235:   2002a    20029 D  20017 D  20021 D  20019 D  2001e D  20028 D  20027 D  
  set 236:   2002a    2001f D  20029 D  20017 D  20021 D  20019 D  2001e D  20028 D  
  set 237:   2001f    2002a    20029 D  20017 D  20021 D  20019 D  2001e D  20028 D  
  set 238:   2002a    20029 D  20017 D  20021 D  20019 D  2001e D  20028 D  20027 D  
  set 239:   2002a    20029 D  20017 D  20021 D  20019 D  2001e D  20028 D  20027 D  
  set 240:   2001c    2002a    20029 D  20017 D  20021 D  20019 D  2001e D  20028 D  
  set 241:   2002a    20029 D  20017 D  20021 D  20019 D  2001e D  20028 D  20027 D  
  set 242:   20029 D  2002a    20017 D  20021 D  20019 D  2001e D  20027 D  211a8    
  set 243:   2002a    20029 D  20017 D  20021 D  20019 D  2001e D  20027 D  6fb    
  set 244:   20023    2002a D  20018 D  20029 D  20017 D  20021 D  20019 D  2001e D  
  set 245:   20023    2002a D  20018 D  20029 D  20017 D  20021 D  20019 D  2001e D  
  set 246:   20023    2002a D  2001f D  2001c D  20029 D  20017 D  20021 D  20019 D  
  set 247:   20023    2002a D  2001a    20029 D  20017 D  20021 D  20019 D  2001e D  
  set 248:   20023    2002a D  20019 D  20029 D  20017 D  20021 D  2001e D  20027 D  
  set 249:   20023    2002a D  20029 D  20017 D  20021 D  20019 D  2001e D  20027 D  
  set 250:   20023    20018 D  2002a D  20029 D  20017 D  20021 D  20019 D  2001e D  
  set 251:   20023    2002a    20029 D  20017 D  20021 D  20019 D  2001e D  20027 D  
  set 252:   20023    2001a D  20018    2002a D  20029 D  20017 D  20021 D  20019 D  
  set 253:   2001a    2002a D  20029 D  20017 D  20021 D  20019 D  2001e D  20018 D  
  set 254:   2002a D  20029 D  20017 D  20021 D  20019 D  2001e D  20018 D  20027 D  
  set 255:   2002a D  20029 D  20017 D  20021 D  20019 D  2001e D  20027 D  20026    

===== Simulation results =====
  a. number of L1 reads:                       63640
  b. number of L1 read misses:                  2184
  c. number of L1 writes:                      36360
  d. number of L1 write misses:                 2550
  e. number of swap requests:                      0
  f. swap request rate:                       0.0000
  g. number of swaps:                              0
  h. combined L1+VC miss rate:                0.0473
  i. number writebacks from L1/VC:              2666
  j. number of L2 reads:                        4734
  k. number of L2 read misses:                  2593
  l. number of L2 writes:                       2666
  m. number of L2 write misses:                    0
  n. L2 miss rate:                            0.5477
  o. number of writebacks from L2:               285
  p. total memory traffic:                      2878
