===== Simulator configuration =====
  BLOCKSIZE:                  32
  L1_SIZE:                 16384
  L1_ASSOC:                    1
  VC_NUM_BLOCKS:               0
  L2_SIZE:                 65536
  L2_ASSOC:                    8
  trace_file:      gcc_trace.txt

===== L1 contents =====
  set   0:   10015 D  
  set   1:   10015 D  
  set   2:   10015 D  
  set   3:   10015 D  
  set   4:   10015 D  
  set   5:   10015 D  
  set   6:   10015 D  
  set   7:   10015 D  
  set   8:   10015 D  
  set   9:   10015 D  
  set  10:   10015 D  
  set  11:   10015 D  
  set  12:   10015 D  
  set  13:   10015 D  
  set  14:   10015 D  
  set  15:   10015 D  
  set  16:   10015 D  
  set  17:   1000e D  
  set  18:   10012    
  set  19:   1000e D  
  set  20:   10015 D  
  set  21:   1000e    
  set  22:   10015 D  
  set  23:   1000c D  
  set  24:   10015 D  
  set  25:   10015 D  
  set  26:   10015 D  
  set  27:   10015 D  
  set  28:   10015 D  
  set  29:   10015 D  
  set  30:   1000e    
  set  31:   10015 D  
  set  32:   10015 D  
  set  33:   10015 D  
  set  34:   10015 D  
  set  35:   10015 D  
  set  36:   10015 D  
  set  37:   10015 D  
  set  38:   1000c D  
  set  39:   1000c D  
  set  40:   10015 D  
  set  41:   10015 D  
  set  42:   10015 D  
  set  43:   10015 D  
  set  44:   10015 D  
  set  45:   10011 D  
  set  46:   10015 D  
  set  47:   10011 D  
  set  48:   10011 D  
  set  49:   10015 D  
  set  50:   10011 D  
  set  51:   10015 D  
  set  52:   10015 D  
  set  53:   10015 D  
  set  54:   10011 D  
  set  55:   10015 D  
  set  56:   10015 D  
  set  57:   10015 D  
  set  58:   10015 D  
  set  59:   10015 D  
  set  60:   10015 D  
  set  61:   10015 D  
  set  62:   10015 D  
  set  63:   10015 D  
  set  64:   10015 D  
  set  65:   10015 D  
  set  66:   10015 D  
  set  67:   10015 D  
  set  68:   10015 D  
  set  69:   10015 D  
  set  70:   1000f D  
  set  71:   10015 D  
  set  72:   10015 D  
  set  73:   10015 D  
  set  74:   10015 D  
  set  75:   10015 D  
  set  76:   10015 D  
  set  77:   10015 D  
  set  78:   10015 D  
  set  79:   10015 D  
  set  80:   10015 D  
  set  81:   10015 D  
  set  82:   10015 D  
  set  83:   10015 D  
  set  84:   10015 D  
  set  85:   10015 D  
  set  86:   10015 D  
  set  87:   10015 D  
  set  88:   10015 D  
  set  89:   10015 D  
  set  90:   10015 D  
  set  91:   10015 D  
  set  92:   10015 D  
  set  93:   10015 D  
  set  94:   10015 D  
  set  95:   10015 D  
  set  96:   10015 D  
  set  97:   10015 D  
  set  98:   10015 D  
  set  99:   10015 D  
  set 100:   10015 D  
  set 101:   10015 D  
  set 102:   10015 D  
  set 103:   10015 D  
  set 104:   10015 D  
  set 105:   10015 D  
  set 106:   10015 D  
  set 107:   10015 D  
  set 108:   10015 D  
  set 109:   10015 D  
  set 110:   10015 D  
  set 111:   10015 D  
  set 112:   10015 D  
  set 113:   10015 D  
  set 114:   10015 D  
  set 115:   10015 D  
  set 116:   10015 D  
  set 117:   10015 D  
  set 118:   10015 D  
  set 119:   10015 D  
  set 120:   10015 D  
  set 121:   10015 D  
  set 122:   10015 D  
  set 123:   10007    
  set 124:   10007    
  set 125:   10007    
  set 126:   1000d D  
  set 127:   1000d D  
  set 128:   10015 D  
  set 129:   10015 D  
  set 130:   10015 D  
  set 131:   10015 D  
  set 132:   10015 D  
  set 133:   10015 D  
  set 134:   10015 D  
  set 135:   10015 D  
  set 136:   10015 D  
  set 137:   10015 D  
  set 138:   10015 D  
  set 139:   10015 D  
  set 140:   10015 D  
  set 141:   10015 D  
  set 142:   1000d D  
  set 143:   10015 D  
  set 144:   10015 D  
  set 145:   10015 D  
  set 146:   1000a    
  set 147:   10015 D  
  set 148:   1000a    
  set 149:   10000    
  set 150:   10000    
  set 151:   10000    
  set 152:   10000    
  set 153:   10000    
  set 154:   10000    
  set 155:   10000    
  set 156:   1000c D  
  set 157:   10014 D  
  set 158:   10014 D  
  set 159:   1000d D  
  set 160:   1000c    
  set 161:   10014 D  
  set 162:   1000c    
  set 163:   1000c    
  set 164:   1000c    
  set 165:   1000c    
  set 166:   1000c    
  set 167:   10014 D  
  set 168:   1000d    
  set 169:   1000d    
  set 170:   1000d    
  set 171:   1000d    
  set 172:   1000d    
  set 173:   10014 D  
  set 174:   10014 D  
  set 175:   10014 D  
  set 176:   1000d    
  set 177:   10014 D  
  set 178:   10014 D  
  set 179:   10014 D  
  set 180:   10014 D  
  set 181:   10014 D  
  set 182:   10014 D  
  set 183:   10014 D  
  set 184:   10014 D  
  set 185:   10014 D  
  set 186:   1000d D  
  set 187:   1000d    
  set 188:   1000d    
  set 189:   1000d D  
  set 190:   10014 D  
  set 191:   10014 D  
  set 192:   10014 D  
  set 193:   10014 D  
  set 194:   10014 D  
  set 195:   1000d D  
  set 196:   10014 D  
  set 197:   10014 D  
  set 198:   1000d D  
  set 199:   1000d    
  set 200:   10014 D  
  set 201:   10014 D  
  set 202:   10014 D  
  set 203:   10014 D  
  set 204:   10014 D  
  set 205:   10014 D  
  set 206:   10014 D  
  set 207:   10014 D  
  set 208:   10014 D  
  set 209:   10014 D  
  set 210:   10014 D  
  set 211:   10014 D  
  set 212:   10014 D  
  set 213:   10014 D  
  set 214:   10014 D  
  set 215:   10014 D  
  set 216:   10014 D  
  set 217:   10014 D  
  set 218:   10014 D  
  set 219:   10014 D  
  set 220:   10014 D  
  set 221:   10014 D  
  set 222:   1000c D  
  set 223:   1000c D  
  set 224:   10014 D  
  set 225:   10014 D  
  set 226:   10014 D  
  set 227:   10014 D  
  set 228:   10014 D  
  set 229:   10014 D  
  set 230:   10015 D  
  set 231:   10015 D  
  set 232:   10015 D  
  set 233:   10015 D  
  set 234:   1000d    
  set 235:   10015 D  
  set 236:   10015 D  
  set 237:   10015 D  
  set 238:   10015 D  
  set 239:   10015 D  
  set 240:   1000e    
  set 241:   10015 D  
  set 242:   10015 D  
  set 243:   10015 D  
  set 244:   1000c D  
  set 245:   1000c D  
  set 246:   10015 D  
  set 247:   1000d D  
  set 248:   10015 D  
  set 249:   10015 D  
  set 250:   1000c D  
  set 251:   10015 D  
  set 252:   1000c D  
  set 253:   1000d D  
  set 254:   10015 D  
  set 255:   10015 D  
  set 256:   10015 D  
  set 257:   10015 D  
  set 258:   10015 D  
  set 259:   1000d D  
  set 260:   10015 D  
  set 261:   10015 D  
  set 262:   10015 D  
  set 263:   10015 D  
  set 264:   10015 D  
  set 265:   10015 D  
  set 266:   10015 D  
  set 267:   10015 D  
  set 268:   10015 D  
  set 269:   10015 D  
  set 270:   1000e    
  set 271:   10015 D  
  set 272:   1000e D  
  set 273:   1000e D  
  set 274:   10015 D  
  set 275:   10015 D  
  set 276:   10015 D  
  set 277:   1000f D  
  set 278:   1000f D  
  set 279:   1000f D  
  set 280:   1000f D  
  set 281:   1000f D  
  set 282:   1000f D  
  set 283:   1000f D  
  set 284:   1000f D  
  set 285:   1000e D  
  set 286:   1000f D  
  set 287:   1000e D  
  set 288:   1000f D  
  set 289:   1000f D  
  set 290:   1000f D  
  set 291:   1000f D  
  set 292:   1000f D  
  set 293:   1000d D  
  set 294:   1000d D  
  set 295:   1000d D  
  set 296:   1000d D  
  set 297:   1000d D  
  set 298:   1000d D  
  set 299:   1000d D  
  set 300:   1000f D  
  set 301:   1000d D  
  set 302:   1000d D  
  set 303:   1000d D  
  set 304:   1000f D  
  set 305:   1000a D  
  set 306:   1000f D  
  set 307:   1000f D  
  set 308:   1000f D  
  set 309:   1000c D  
  set 310:   10013 D  
  set 311:   10013    
  set 312:   10011 D  
  set 313:   10013    
  set 314:   10013 D  
  set 315:   10013 D  
  set 316:   1000a D  
  set 317:   1000d D  
  set 318:   1000d D  
  set 319:   1000e D  
  set 320:   1000f D  
  set 321:   1000d D  
  set 322:   10013 D  
  set 323:   10013 D  
  set 324:   10010    
  set 325:   10013 D  
  set 326:   10013 D  
  set 327:   10013 D  
  set 328:   10013 D  
  set 329:   10013 D  
  set 330:   10010 D  
  set 331:   10010 D  
  set 332:   1000f D  
  set 333:   10010 D  
  set 334:   10010 D  
  set 335:   10010 D  
  set 336:   10010 D  
  set 337:   10010 D  
  set 338:   10010 D  
  set 339:   10010 D  
  set 340:   10010 D  
  set 341:   10010 D  
  set 342:   10010 D  
  set 343:   10010 D  
  set 344:   10010 D  
  set 345:   1000d D  
  set 346:   1000d D  
  set 347:   1000d D  
  set 348:   1000d D  
  set 349:   1000f D  
  set 350:   1000f D  
  set 351:   10010 D  
  set 352:   10010 D  
  set 353:   10010 D  
  set 354:   10010 D  
  set 355:   10010 D  
  set 356:   10010 D  
  set 357:   10010 D  
  set 358:   10010 D  
  set 359:   1000f D  
  set 360:   10010 D  
  set 361:   10010 D  
  set 362:   10010 D  
  set 363:   10010 D  
  set 364:   10010 D  
  set 365:   10010 D  
  set 366:   1000d D  
  set 367:   1000d D  
  set 368:   10014 D  
  set 369:   1000d    
  set 370:   1000f D  
  set 371:   10014 D  
  set 372:   10014 D  
  set 373:   10014 D  
  set 374:   10014 D  
  set 375:   10014 D  
  set 376:   1000f D  
  set 377:   10007    
  set 378:   10007    
  set 379:   10014 D  
  set 380:   10014 D  
  set 381:   10007    
  set 382:   10007    
  set 383:   1000c D  
  set 384:   1000c D  
  set 385:   1000c D  
  set 386:   1000c D  
  set 387:   10014 D  
  set 388:   10007    
  set 389:   10014 D  
  set 390:   10014 D  
  set 391:   10014 D  
  set 392:   10014 D  
  set 393:   10014 D  
  set 394:   10014 D  
  set 395:   10014 D  
  set 396:   10007    
  set 397:   10014 D  
  set 398:   10014 D  
  set 399:   1000f D  
  set 400:   10014 D  
  set 401:   10014 D  
  set 402:   10014 D  
  set 403:   10014 D  
  set 404:   10007    
  set 405:   10014 D  
  set 406:   10007    
  set 407:   10007    
  set 408:   10007    
  set 409:   10007    
  set 410:   10014 D  
  set 411:   10014 D  
  set 412:   1000b D  
  set 413:   10014 D  
  set 414:   10014 D  
  set 415:   10010 D  
  set 416:   1000b D  
  set 417:   10014 D  
  set 418:   10014 D  
  set 419:   1000b D  
  set 420:   1000b D  
  set 421:   1000b    
  set 422:   10014 D  
  set 423:   10007    
  set 424:   10007    
  set 425:   10007    
  set 426:   10007    
  set 427:   10009    
  set 428:   10009    
  set 429:   10009    
  set 430:   10009    
  set 431:   10009    
  set 432:   10014 D  
  set 433:   10009    
  set 434:   10009    
  set 435:   10014 D  
  set 436:   10014 D  
  set 437:   10014 D  
  set 438:   10010 D  
  set 439:   1000d D  
  set 440:   1000b D  
  set 441:   1000b D  
  set 442:   10014 D  
  set 443:   10014 D  
  set 444:   10014 D  
  set 445:   10014 D  
  set 446:   10014 D  
  set 447:   10014 D  
  set 448:   10014 D  
  set 449:   10014 D  
  set 450:   10014 D  
  set 451:   1000d D  
  set 452:   10014 D  
  set 453:   10014 D  
  set 454:   1000d D  
  set 455:   10014 D  
  set 456:   1ec0c D  
  set 457:   1ec0c D  
  set 458:   1000f D  
  set 459:   1ec0c D  
  set 460:   10014 D  
  set 461:   10014 D  
  set 462:   1000f D  
  set 463:   1000f D  
  set 464:   1ec0c D  
  set 465:   1000f D  
  set 466:   1000f D  
  set 467:   1000d D  
  set 468:   10014 D  
  set 469:   10014 D  
  set 470:   10014 D  
  set 471:   10014 D  
  set 472:   10014 D  
  set 473:   1000f D  
  set 474:   10014 D  
  set 475:   10014 D  
  set 476:   1000d    
  set 477:   1000d D  
  set 478:   1000f D  
  set 479:   10014 D  
  set 480:   10014 D  
  set 481:   10014 D  
  set 482:   10014 D  
  set 483:   10014 D  
  set 484:   10014 D  
  set 485:   10014 D  
  set 486:   1000f D  
  set 487:   1000f D  
  set 488:   1000f D  
  set 489:   10014 D  
  set 490:   10014 D  
  set 491:   10014 D  
  set 492:   1000f D  
  set 493:   1000f D  
  set 494:   10014 D  
  set 495:   10014 D  
  set 496:   10014 D  
  set 497:   10014 D  
  set 498:   10014 D  
  set 499:   10014 D  
  set 500:   10011    
  set 501:   10011    
  set 502:   10011    
  set 503:   10011    
  set 504:   10011    
  set 505:   10011    
  set 506:   10011    
  set 507:   10011    
  set 508:   10011    
  set 509:   10014 D  
  set 510:   10014 D  
  set 511:   10014 D  

===== L2 contents =====
  set   0:   2002b    2001f D  2002a    20018 D  20022 D  2001a D  20028 D  6fc    
  set   1:   2002b    2001f D  2002a    20018 D  20022 D  2001a D  20028 D  20027 D  
  set   2:   2002b    2001f D  2002a    20018 D  20022 D  2001a D  20028 D  211d7    
  set   3:   2001b    2002b D  2001f D  2002a    20018 D  20022 D  2001a D  20028 D  
  set   4:   2002b    2001f D  2002a    20018 D  20022 D  2001a D  20028 D  20027 D  
  set   5:   2002b    2001f D  2002a    20018 D  20022 D  2001a D  20028 D  20027 D  
  set   6:   2002b    2001f D  2002a    20018 D  20022 D  2001a D  20028 D  20019 D  
  set   7:   2002b    2001f D  2002a    20018 D  20022 D  2001a D  20028 D  20027 D  
  set   8:   2002b    2001f D  2002a    20018 D  20022 D  2001a D  20028 D  20027 D  
  set   9:   2002b    2001f D  2002a    20018 D  20022 D  2001a D  20028 D  20027 D  
  set  10:   2002b    2001f D  2002a    20018 D  20022 D  2001a D  20028 D  20027 D  
  set  11:   2002b    2001f D  2002a    20018 D  20022 D  2001a D  20028 D  20019 D  
  set  12:   2002b    2001f D  2002a    20018 D  20022 D  2001a D  20028 D  20027 D  
  set  13:   2002b    2001f D  2002a    20018 D  20022 D  2001a D  20028 D  20027 D  
  set  14:   2001d D  2002b D  2001f D  2002a    20018 D  20022 D  2001a D  20028 D  
  set  15:   2002b    2001f D  2002a    20018 D  20022 D  2001a D  20028 D  2001d D  
  set  16:   2001d    2002b D  2001f D  2002a    20018 D  20022 D  2001a D  20028 D  
  set  17:   2001c    2002a D  2001d    2002b D  2001f D  20018 D  20022 D  2001a D  
  set  18:   20024    2001c D  2002b    2001f D  2002a D  20018 D  20022 D  2001a D  
  set  19:   2001c    2002a D  2002b    2001f D  20018 D  20022 D  2001a D  20028 D  
  set  20:   2002b    2001f D  2002a    20018 D  20022 D  2001a D  20019 D  2001c    
  set  21:   2001c D  2002a D  20018 D  20022 D  2001a D  20028 D  2001f    20027 D  
  set  22:   2002a    20018 D  20022 D  2001a D  20028 D  2001f    20027 D  20024 D  
  set  23:   20018 D  2002a D  20022 D  2001a D  20028 D  2001f    20027 D  20024    
  set  24:   2002a    20018 D  20022 D  2001a D  20028 D  2001f    20019 D  20027 D  
  set  25:   2002a    20018 D  20022 D  2001a D  20028 D  2001f    20019 D  20027 D  
  set  26:   2002a    20018 D  20022 D  2001a D  20028 D  2001f    20019 D  20027 D  
  set  27:   2002a    20018 D  20022 D  2001a D  20028 D  2001f    20019 D  20027 D  
  set  28:   2002a    20018 D  20022 D  2001a D  20028 D  2001f    20027 D  20001 D  
  set  29:   2001d    2001f D  2002a    20018 D  20022 D  2001a D  20028 D  20019 D  
  set  30:   2001c    2002a D  20018 D  20022 D  2001a D  20028 D  2001f    20027 D  
  set  31:   2001d    2001f D  2002a    20018 D  20022 D  2001a D  20027 D  20024 D  
  set  32:   2002a    20018 D  20022 D  2001a D  20028 D  2001f    20019 D  20027 D  
  set  33:   2002a    20018 D  20022 D  2001a D  2001f    20027 D  20024    20028 D  
  set  34:   2002a    20018 D  20022 D  2001a D  20028 D  2001f    20019 D  20027 D  
  set  35:   2002a    20018 D  20022 D  2001a D  20028 D  2001f    20027 D  20001    
  set  36:   2002a    20018 D  20022 D  2001a D  20028 D  2001f    20019 D  20027 D  
  set  37:   2001b    2001f D  2002a    20018 D  20022 D  2001a D  20028 D  20019 D  
  set  38:   2001b    2001f D  20018 D  2002a D  20022 D  2001a D  20028 D  20027 D  
  set  39:   2001b    2001f D  20018 D  2002a D  20022 D  2001a D  20028 D  20027 D  
  set  40:   2001b    2001f D  2002a    20018 D  20022 D  2001a D  20028 D  20019 D  
  set  41:   2001b    2001f D  2002a    20018 D  20022 D  2001a D  20028 D  20019 D  
  set  42:   2001b    2001f D  2002a    20018 D  20022 D  2001a D  20028 D  20027 D  
  set  43:   2002a    20018 D  20022 D  2001a D  20028 D  2001b    20027 D  210a6    
  set  44:   2002a    20018 D  2001f D  20015 D  20022 D  2001a D  20028 D  210a6 D  
  set  45:   20022 D  2002a D  20018 D  2001b    2001a D  20028 D  20015    20027 D  
  set  46:   2001b    20027 D  2002a    20018 D  2001a D  20028 D  20001    3d81a    
  set  47:   20022    2002a D  20018 D  2001a D  20028 D  2001b D  20027 D  2001f D  
  set  48:   20022    2002a D  2001f    20027 D  20018 D  2001a D  20028 D  
  set  49:   20015    2001f D  20019 D  2002a    20018 D  2001a D  20028 D  20027 D  
  set  50:   20022    2002a D  2001f    20027 D  20018 D  2001a D  20028 D  20021    
  set  51:   2001f    20027 D  2002a    20018 D  2001a D  20028 D  6fc    
  set  52:   2001f    20027 D  2002a    20018 D  2001a D  20026    20028 D  6fc    
  set  53:   2002a    20018 D  2001a D  20028 D  20019    20021 D  20027 D  20026    
  set  54:   20022 D  2002a D  20018 D  2001a D  20028 D  20026    20027    
  set  55:   2002a    20018 D  2001a D  20027 D  20023 D  20026    20028 D  6fd    
  set  56:   2002a    20018 D  2001a D  20026    20028 D  20023 D  20027 D  
  set  57:   2002a    20018 D  2001a D  20028 D  20027 D  20019 D  6fc    
  set  58:   2002a    20018 D  2001a D  20028 D  20027    6fc    
  set  59:   2002a    20018 D  2001a D  20028 D  20027    6fc    
  set  60:   2002a    20018 D  2001a D  20028 D  20015    20019 D  210a6 D  20027 D  
  set  61:   2001b    20027 D  2002a    20018 D  2001a D  20028 D  
  set  62:   2001b    2002a    20018 D  2001a D  20028 D  20015    20027 D  2009b    
  set  63:   2002a    20018 D  2001a D  20028 D  2001d    20027 D  
  set  64:   2001f    20015 D  2002a    20018 D  2001a D  20028 D  20027 D  2009b D  
  set  65:   2001b D  2001f D  2002a    20018 D  20027 D  2001a D  20028 D  20026    
  set  66:   2002a    20018 D  2001a D  20028 D  20027    211d8    210a6 D  2009c D  
  set  67:   2002a    20018 D  2001a D  20028 D  211d8 D  20027    
  set  68:   2002a    20018 D  2001a D  20026    20028 D  20021    20027 D  
  set  69:   2002a    20018 D  2001a D  20028 D  210a6 D  20027    
  set  70:   2001e    2002a D  20018 D  2001a D  20028 D  20027    
  set  71:   2002a    20018 D  2001a D  2001e    20026    20028 D  20027    6fc    
  set  72:   2002a    20018 D  2001a D  20028 D  20027    210a6    
  set  73:   2002a    20018 D  2001a D  20028 D  2009c D  20027    210a6    
  set  74:   20021    20019 D  2002a    20018 D  2001a D  2001e D  20028 D  2009c D  
  set  75:   20021    20019 D  2002a    20018 D  2001a D  2001e D  20028 D  20027 D  
  set  76:   2002a    20018 D  2001f    20021 D  2001a D  20019 D  2001e D  20028 D  
  set  77:   2002a    20018 D  2001a D  20021    20027 D  2001e D  20028 D  210a6    
  set  78:   2002a    20018 D  2001a D  20021    20019 D  2001e D  20028 D  20027 D  
  set  79:   2002a    20018 D  2001a D  20021    20027 D  2001e D  20028 D  211d8 D  
  set  80:   2002a    20018 D  2001a D  20021    20027 D  2001e D  20028 D  211d8 D  
  set  81:   2002a    20018 D  2001a D  20021    20027 D  2001e D  20028 D  3d81a    
  set  82:   2002a    20018 D  2001a D  20021    20027 D  2001e D  20028 D  211d8 D  
  set  83:   2002a    20018 D  2001a D  20021    20019 D  2001e D  20028 D  211d8 D  
  set  84:   2002a    20018 D  2001a D  20021    20027 D  2001e D  20028 D  
  set  85:   2002a    20018 D  2001a D  20021    20027 D  2001e D  20028 D  
  set  86:   2002a    20018 D  2001a D  20021    20027 D  2001e D  20028 D  
  set  87:   2002a    20018 D  2001a D  20021    20027 D  2001e D  20028 D  211aa    
  set  88:   2002a    20018 D  2001a D  20021    20027 D  2001e D  20028 D  
  set  89:   2002a    20018 D  2001b    20021 D  2001a D  20019 D  2001e D  20028 D  
  set  90:   2002a    20018 D  2001b    20021 D  2001a D  20027 D  2001e D  20028 D  
  set  91:   2001b    20021 D  2002a    20018 D  2001a D  20019 D  2001e D  20028 D  
  set  92:   2001b    20021 D  2002a    20018 D  2001a D  20027 D  2001e D  20028 D  
  set  93:   2001f    2001b D  20021 D  2002a    20018 D  2001a D  2001e D  20028 D  
  set  94:   2002a    20018 D  2001f    20021 D  2001a D  2001e D  20028 D  20027 D  
  set  95:   2002a    20018 D  2001a D  20021    2001f D  2001e D  20028 D  20027 D  
  set  96:   2002a    20018 D  2001a D  20021    2001e D  20028 D  3d81a D  20027 D  
  set  97:   2002a    20018 D  2001a D  20021    20027 D  2001e D  20028 D  211aa D  
  set  98:   2002a    20018 D  2001a D  20021    2001f D  2001e D  20028 D  20027 D  
  set  99:   2002a    20018 D  2001a D  20021    2001e D  20028 D  20027 D  2001f D  
  set 100:   2002a    20018 D  2001a D  20021    2001f D  2001e D  20028 D  20027 D  
  set 101:   2002a    20018 D  2001a D  20021    2001e D  20028 D  3d81a D  20019 D  
  set 102:   2002a    20018 D  2001a D  20021    2001f D  2001e D  20028 D  3d81a D  
  set 103:   2001f    20021 D  2002a    20018 D  2001a D  20027 D  2001e D  211d6    
  set 104:   2002a    20018 D  2001a D  20021    20019 D  2001e D  20028 D  20027 D  
  set 105:   2002a    20018 D  2001a D  20021    20019 D  2001e D  20026 D  20028 D  
  set 106:   2002a    20018 D  2001a D  20021    20027 D  2001e D  20028 D  20026 D  
  set 107:   2002a    20018 D  2001a D  20021    20027 D  2001e D  20028 D  211d6    
  set 108:   2002a    20018 D  2001a D  20021    20019 D  2001e D  20028 D  20027 D  
  set 109:   2002a    20018 D  2001a D  20021    20027 D  2001e D  20028 D  20026    
  set 110:   2001b    20021 D  2002a    20018 D  2001a D  20019 D  2001e D  20028 D  
  set 111:   2001b    20021 D  2002a    20018 D  2001e D  20027 D  20028 D  20011 D  
  set 112:   2002a    20018 D  20029    20021 D  2001e D  20027 D  20028 D  211d6    
  set 113:   2001b D  20029 D  2002a    20018 D  20021 D  2001e D  20026    20028 D  
  set 114:   2001f    20029 D  2002a    20018 D  20021 D  2001e D  20019 D  20026    
  set 115:   2002a    20018 D  20029    20021 D  2001e D  20027 D  20028 D  20011 D  
  set 116:   2002a    20018 D  20029    20021 D  2001e D  20019 D  20028 D  20027 D  
  set 117:   2002a    20018 D  20029    20021 D  2001e D  20027 D  20028 D  20002    
  set 118:   2002a    20018 D  20029    20021 D  2001e D  20027 D  20028 D  20002    
  set 119:   2002a    20018 D  20029    20021 D  2001e D  20027 D  20028 D  20002    
  set 120:   2001f    20029 D  2002a    20018 D  20021 D  2001e D  20019 D  20028 D  
  set 121:   2002a D  2000f    20029 D  2000e    20018 D  20021 D  2001e D  20019 D  
  set 122:   2002a D  2000e    2000f    20029 D  20018 D  20021 D  2001e D  20027 D  
  set 123:   2000e    2002a D  20018 D  20029    20021 D  2001e D  20027 D  20028 D  
  set 124:   2000e    2002a D  20018 D  20029    20021 D  2001e D  20027 D  2001a D  
  set 125:   2000e    2002a D  2000f    20029 D  20018 D  20021 D  2001e D  20027 D  
  set 126:   2001a    2000e    2002a D  2000f    20029 D  20018 D  20021 D  2001e D  
  set 127:   20019    20029 D  2001a    2000e    2002a D  20018 D  20021 D  2001e D  
  set 128:   20019    20029 D  2002a    20018 D  20021 D  2001e D  20027 D  20028 D  
  set 129:   20019    2001f D  20029 D  2002a    20018 D  20021 D  2001e D  20027 D  
  set 130:   20019    20029 D  2002a    20018 D  20021 D  2001e D  20027 D  20028 D  
  set 131:   2002a    20018 D  20029    20021 D  2001e D  20027 D  20028 D  20002    
  set 132:   2000f    20029 D  2002a    20018 D  20021 D  2001e D  20028 D  20002    
  set 133:   2002a    20018 D  20029    20021 D  2001e D  20028 D  20002    3d81a D  
  set 134:   2002a    20018 D  20029    20021 D  2001e D  20027 D  20028 D  20002    
  set 135:   2002a    20018 D  20029    20021 D  2001e D  20027 D  20028 D  2000f    
  set 136:   2002a    20018 D  20029    20021 D  2001e D  20028 D  2000f    20027 D  
  set 137:   2002a    20018 D  20029    20021 D  2001e D  20027 D  20028 D  6fe    
  set 138:   2002a    20018 D  20029    20021 D  2001e D  20027 D  20028 D  3d81a D  
  set 139:   2002a    20018 D  20029    20021 D  2001e D  20019 D  20028 D  20027 D  
  set 140:   2000f    20029 D  2002a    20018 D  20021 D  2001e D  20028 D  3d81a D  
  set 141:   2002a    20018 D  20029    20021 D  2001e D  20028 D  20019    20027 D  
  set 142:   2001a D  2002a D  20018 D  20029    20021 D  2001e D  20019 D  20027 D  
  set 143:   2001f    20029 D  2002a    20018 D  20021 D  2001e D  20019 D  20027 D  
  set 144:   2002a    20018 D  20029    20021 D  2001e D  20019 D  20027 D  20028 D  
  set 145:   2002a    20018 D  20029    20021 D  2001e D  20019 D  20027 D  20028 D  
  set 146:   20014    2002a D  20018 D  20029    20021 D  2001e D  20019 D  20027 D  
  set 147:   2002a    20018 D  20029    20021 D  2001e D  20019 D  20027 D  20028 D  
  set 148:   20014    20016 D  2000f    20029 D  2002a D  20018 D  20021 D  2001e D  
  set 149:   20000    2002a D  20018 D  20029    20021 D  2001e D  20019 D  20027 D  
  set 150:   20000    20028 D  2000f    20029 D  2002a D  20018 D  20021 D  2001e D  
  set 151:   20000    20014    20028 D  2002a D  2000f    20029 D  20018 D  20021 D  
  set 152:   20000    20014    20028 D  2000f    20017 D  2002a D  20018 D  20029 D  
  set 153:   20000    20028 D  2000f    20029 D  2002a D  20018 D  20021 D  2001e D  
  set 154:   20000    20028 D  2002a D  20018 D  20029    20021 D  2001e D  20019 D  
  set 155:   20000    20028 D  2002a D  20018 D  20029    20021 D  2001e D  20019 D  
  set 156:   20018 D  20028 D  2002a D  20017 D  20029 D  20021 D  2001e D  20019 D  
  set 157:   20028    2002a D  2001e D  20029    20021 D  20019 D  20027 D  211aa    
  set 158:   20028    2002a D  2001e D  20029    20021 D  20019 D  20027 D  2001c D  
  set 159:   2001a    20028 D  2002a D  20021 D  20029 D  2001e D  20019 D  20001    
  set 160:   20018    20028 D  20017    20029 D  2002a D  2001e D  20021 D  20019 D  
  set 161:   20028    2002a D  2001e D  20029    20021 D  20019 D  20027 D  
  set 162:   20018    20028 D  2002a D  2001e D  20029    20021 D  20019 D  20027 D  
  set 163:   20018    20028 D  20017    20029 D  2002a D  2001e D  20021 D  20019 D  
  set 164:   20018    20028 D  2002a D  2001c D  2001e D  20017 D  20029 D  20021 D  
  set 165:   20017    2000f    20029 D  20018    20028 D  2002a D  2001e D  20021 D  
  set 166:   20018    20028 D  2002a D  2001e D  20029    20021 D  20019 D  20027 D  
  set 167:   2000f    20017 D  20028    2002a D  20021 D  2001e D  20029 D  20019 D  
  set 168:   2001a    20028 D  2000f    20029 D  2002a D  2001e D  20021 D  20019 D  
  set 169:   2000f    20029 D  2001a    20028 D  2002a D  2001e D  20021 D  20019 D  
  set 170:   2001a    20028 D  2000f    20029 D  2002a D  2001e D  20021 D  20019 D  
  set 171:   2001a    20028 D  20013    20029 D  2002a D  2001e D  20021 D  20019 D  
  set 172:   2001a    20018 D  20028 D  20013    20029 D  2002a D  2001e D  20021 D  
  set 173:   20013    20029 D  20028    2002a D  2001e D  20021 D  20019 D  20027 D  
  set 174:   20013    20029 D  20028    2002a D  2001e D  20021 D  20019 D  20027 D  
  set 175:   20013    20029 D  20028    2002a D  2001e D  20021 D  20019 D  20017    
  set 176:   2001a    20028 D  2002a D  2001e D  20029    20021 D  20019 D  20027 D  
  set 177:   20013    2000f    20029 D  20028    2002a D  2001e D  20021 D  20019 D  
  set 178:   20013    20029 D  20028    2002a D  2001e D  20021 D  20019 D  20027 D  
  set 179:   20028    2002a D  2001e D  20029    20021 D  20019 D  20027 D  211aa    
  set 180:   20028    2002a D  20018 D  20029    20021 D  2001e D  20019 D  20027 D  
  set 181:   20028    2002a D  20018 D  20029    20021 D  2001e D  20019 D  20027 D  
  set 182:   20028    2002a D  20018 D  20021 D  20029 D  2001e D  20019 D  20027 D  
  set 183:   2001b    20017 D  20029 D  20028    2002a D  20018 D  20021 D  2001e D  
  set 184:   20017    2001b D  20028    2002a D  20018 D  20029 D  20021 D  2001e D  
  set 185:   20017    20029 D  20028    2002a D  20018 D  20021 D  2001e D  20019 D  
  set 186:   2001a    20028 D  2002a D  20018 D  20029    20021 D  2001e D  20019 D  
  set 187:   2001a D  20028 D  2002a D  20018 D  20029    20017 D  2001e D  20021 D  
  set 188:   2001a    20028 D  2002a D  20018 D  20029    20017 D  2001e D  20021 D  
  set 189:   2001a    20028 D  2002a D  20018 D  20029    20017 D  2001e D  20021 D  
  set 190:   20028    2002a D  20018 D  20029    20017 D  2001e D  20021 D  20019 D  
  set 191:   20028    2002a D  20018 D  20029    20017 D  2001e D  20021 D  20019 D  
  set 192:   20028    2002a D  20018 D  20029    20017 D  2001e D  20021 D  20019 D  
  set 193:   20028    2002a D  20018 D  20029    20017 D  2001e D  20021 D  20019 D  
  set 194:   20028    20018 D  2002a D  20029    20017 D  2001e D  20021 D  20019 D  
  set 195:   2001a    20028 D  2002a D  2001e D  2001b    20029 D  20017 D  20021 D  
  set 196:   20028    2001a D  2002a D  2001e D  20029    20017 D  20021 D  20019 D  
  set 197:   20028    2002a D  2001e D  20029    20017 D  20021 D  20019 D  20027 D  
  set 198:   2001a D  20028 D  2002a D  2001b D  20029 D  2001e D  20017 D  20021 D  
  set 199:   2001a    20028 D  2002a D  2001e D  20029    20017 D  20021 D  20019 D  
  set 200:   20028    2002a D  3d819 D  2001f D  20029 D  2001e D  20017 D  20021 D  
  set 201:   3d819    20029 D  20028    2002a D  2001e D  20017 D  20021 D  20019 D  
  set 202:   2001f    20017 D  20028    2002a D  2001e D  20029 D  20021 D  20019 D  
  set 203:   20028    2002a D  3d819 D  20029 D  2001e D  20017 D  20021 D  20019 D  
  set 204:   20028    2002a D  2001e D  20029    20017 D  20021 D  20019 D  20023    
  set 205:   20028    2002a D  2001e D  20029    20017 D  20021 D  20019 D  20027 D  
  set 206:   20028    2002a D  2001e D  2001f    20029 D  20017 D  20021 D  20019 D  
  set 207:   20028    2002a D  2001e D  2001f    20029 D  20017 D  20021 D  20019 D  
  set 208:   20028    2002a D  2001e D  3d819 D  2001f D  20029 D  20017 D  20021 D  
  set 209:   20028    2002a D  2001e D  2001f    20029 D  20017 D  20021 D  20019 D  
  set 210:   20028    2002a D  2001e D  2001f    20029 D  20017 D  20021 D  20019 D  
  set 211:   20028    2002a D  2001b    2001f D  20029 D  2001e D  20017 D  20021 D  
  set 212:   20028    2001a D  2002a D  20029 D  2001f D  2001e D  20017 D  20021 D  
  set 213:   20028    2001a D  2002a D  2001e D  20029    20017 D  20021 D  20019 D  
  set 214:   20028    2001a D  2002a D  2001e D  20029    20017 D  20021 D  20019 D  
  set 215:   20028    2002a D  2001e D  20029    20017 D  20021 D  20019 D  20027 D  
  set 216:   20028    2002a D  2001e D  20029    20017 D  20021 D  20019 D  20027 D  
  set 217:   20028    2002a D  2001f    20029 D  2001e D  20017 D  20021 D  20019 D  
  set 218:   20028    2002a D  2001e D  20029    20017 D  20021 D  20019 D  20027 D  
  set 219:   20028    20018 D  2002a D  2001e D  20029    20017 D  20021 D  20019 D  
  set 220:   20028    20018 D  2001a D  2002a D  2001e D  2001b D  20029 D  2001f D  
  set 221:   20028    20018 D  2002a D  2001b    20029 D  2001e D  20017 D  20021 D  
  set 222:   20018 D  20028 D  2001a D  2001f    20029 D  2002a D  2001e D  20017 D  
  set 223:   20018    20028 D  2001a D  2002a D  2001e D  20029    20017 D  20021 D  
  set 224:   20028    2002a D  2001e D  20029    20017 D  20021 D  20019 D  20027 D  
  set 225:   20028    2002a D  2001a D  20029 D  20019 D  2001e D  20017 D  20021 D  
  set 226:   20028    2002a D  2001e D  20029    20017 D  20021 D  20019 D  20027 D  
  set 227:   20028    2002a D  2001e D  20029    20017 D  20021 D  20019 D  20027 D  
  set 228:   20028    2002a D  2001e D  20029    20017 D  20021 D  20019 D  20027 D  
  set 229:   20028    2002a D  2001e D  20029    20017 D  20021 D  20019 D  20027 D  
  set 230:   2002a    2001e D  2001f D  20029 D  20017 D  20021 D  20019 D  20027 D  
  set 231:   2002a    2001e D  2001f D  20029 D  20017 D  20021 D  20019 D  20027 D  
  set 232:   2002a    2001e D  2001f    20029 D  20017 D  20021 D  20019 D  20028 D  
  set 233:   2002a    2001e D  20029 D  20019 D  2001f D  20017 D  20021 D  20027 D  
  set 234:   2001a D  2002a D  2001e D  20029    20017 D  20021 D  20019 D  20027 D  
  set 235:   2002a    2001e D  20029    20017 D  20021 D  20019 D  20027 D  20028 D  
  set 236:   2002a    2001e D  2001f    20029 D  20017 D  20021 D  20019 D  20027 D  
  set 237:   2001f    20029 D  2002a    2001e D  20017 D  20021 D  20019 D  20027 D  
  set 238:   2002a    2001e D  20029    20017 D  20021 D  20019 D  20027 D  20028 D  
  set 239:   2002a    2001e D  20029    20017 D  20021 D  20019 D  20027 D  20028 D  
  set 240:   2001c    2002a D  2001e D  20029    20017 D  20021 D  20019 D  20027 D  
  set 241:   2002a    2001e D  20029    20017 D  20021 D  20019 D  20027 D  20028 D  
  set 242:   2002a    2001e D  20029    20017 D  20021 D  20019 D  20027 D  211a8    
  set 243:   2002a    2001e D  20029    20017 D  20021 D  20019 D  20027 D  6fb    
  set 244:   20023    20029 D  20018 D  2002a D  2001e D  20017 D  20021 D  20019 D  
  set 245:   20023    20029 D  20018 D  2002a D  2001e D  20017 D  20021 D  20019 D  
  set 246:   20023    2001f D  2002a    2001c D  20029 D  2001e D  20017 D  20021 D  
  set 247:   20023    20029 D  2001a    2002a D  2001e D  20017 D  20021 D  20019 D  
  set 248:   20023    20019 D  2002a    2001e D  20029 D  20017 D  20021 D  20027 D  
  set 249:   20023    20029 D  2002a    2001e D  20017 D  20021 D  20019 D  20027 D  
  set 250:   20023    20029 D  20018 D  2002a D  2001e D  20017 D  20021 D  20019 D  
  set 251:   20023    20029 D  2002a    2001e D  20017 D  20021 D  20019 D  20027 D  
  set 252:   20023    20029 D  20018    2001a D  2002a D  2001e D  20017 D  20021 D  
  set 253:   2001a    2002a D  2001e D  20029    20017 D  20021 D  20019 D  20027 D  
  set 254:   2002a    2001e D  20029    20017 D  20021 D  20019 D  20018 D  2001b D  
  set 255:   2002a    2001e D  20029    20017 D  20021 D  20019 D  20027 D  20026    

===== Simulation results =====
  a. number of L1 reads:                       63640
  b. number of L1 read misses:                  1932
  c. number of L1 writes:                      36360
  d. number of L1 write misses:                 2677
  e. number of swap requests:                      0
  f. swap request rate:                       0.0000
  g. number of swaps:                              0
  h. combined L1+VC miss rate:                0.0461
  i. number writebacks from L1/VC:              2503
  j. number of L2 reads:                        4609
  k. number of L2 read misses:                  2590
  l. number of L2 writes:                       2503
  m. number of L2 write misses:                    0
  n. L2 miss rate:                            0.5619
  o. number of writebacks from L2:               278
  p. total memory traffic:                      2868
