===== Simulator configuration =====
  BLOCKSIZE:                  32
  L1_SIZE:                 32768
  L1_ASSOC:                    1
  VC_NUM_BLOCKS:               2
  L2_SIZE:                 65536
  L2_ASSOC:                    8
  trace_file:      gcc_trace.txt

===== L1 contents =====
  set   0:   8006 D  
  set   1:   8006 D  
  set   2:   8006 D  
  set   3:   8006 D  
  set   4:   8006 D  
  set   5:   8006 D  
  set   6:   8006 D  
  set   7:   8006 D  
  set   8:   8006 D  
  set   9:   8006 D  
  set  10:   8006 D  
  set  11:   8006 D  
  set  12:   8006 D  
  set  13:   8006 D  
  set  14:   8006 D  
  set  15:   8006 D  
  set  16:   8006 D  
  set  17:   8007 D  
  set  18:   8009    
  set  19:   8007 D  
  set  20:   8006 D  
  set  21:   8007 D  
  set  22:   8006 D  
  set  23:   8006 D  
  set  24:   8006 D  
  set  25:   8006 D  
  set  26:   8006 D  
  set  27:   8006 D  
  set  28:   8006 D  
  set  29:   8006 D  
  set  30:   8007    
  set  31:   8006 D  
  set  32:   8006 D  
  set  33:   8006 D  
  set  34:   8006 D  
  set  35:   8006 D  
  set  36:   8006 D  
  set  37:   8006 D  
  set  38:   8006 D  
  set  39:   8006 D  
  set  40:   8006 D  
  set  41:   8006 D  
  set  42:   8006 D  
  set  43:   8006 D  
  set  44:   8006 D  
  set  45:   8006 D  
  set  46:   8006 D  
  set  47:   8006 D  
  set  48:   8006 D  
  set  49:   8006 D  
  set  50:   8006 D  
  set  51:   8006 D  
  set  52:   8006 D  
  set  53:   8006 D  
  set  54:   8006 D  
  set  55:   8006 D  
  set  56:   8006 D  
  set  57:   8006 D  
  set  58:   8006 D  
  set  59:   8006 D  
  set  60:   8006 D  
  set  61:   8006 D  
  set  62:   8006 D  
  set  63:   8006 D  
  set  64:   8006 D  
  set  65:   8006 D  
  set  66:   8006 D  
  set  67:   8006 D  
  set  68:   8006 D  
  set  69:   8006 D  
  set  70:   8006 D  
  set  71:   8006 D  
  set  72:   8006 D  
  set  73:   8006 D  
  set  74:   8006 D  
  set  75:   8006 D  
  set  76:   8006 D  
  set  77:   8006 D  
  set  78:   8006 D  
  set  79:   8006 D  
  set  80:   8006 D  
  set  81:   8006 D  
  set  82:   8006 D  
  set  83:   8006 D  
  set  84:   8006 D  
  set  85:   8006 D  
  set  86:   8006 D  
  set  87:   8006 D  
  set  88:   8006 D  
  set  89:   8006 D  
  set  90:   8006 D  
  set  91:   8006 D  
  set  92:   8006 D  
  set  93:   8006 D  
  set  94:   8006 D  
  set  95:   8006 D  
  set  96:   8006 D  
  set  97:   8006 D  
  set  98:   8006 D  
  set  99:   8006 D  
  set 100:   8006 D  
  set 101:   8006 D  
  set 102:   8006 D  
  set 103:   8006 D  
  set 104:   8006 D  
  set 105:   8006 D  
  set 106:   8006 D  
  set 107:   8006 D  
  set 108:   8006 D  
  set 109:   8006 D  
  set 110:   8006 D  
  set 111:   8006 D  
  set 112:   8006 D  
  set 113:   8006 D  
  set 114:   8006 D  
  set 115:   8006 D  
  set 116:   8006 D  
  set 117:   8006 D  
  set 118:   8006 D  
  set 119:   8006 D  
  set 120:   8006 D  
  set 121:   8006 D  
  set 122:   8006 D  
  set 123:   8006 D  
  set 124:   8006 D  
  set 125:   8006 D  
  set 126:   8006 D  
  set 127:   8006 D  
  set 128:   8006 D  
  set 129:   8006 D  
  set 130:   8006 D  
  set 131:   8006 D  
  set 132:   8006 D  
  set 133:   8006 D  
  set 134:   8006 D  
  set 135:   8006 D  
  set 136:   8006 D  
  set 137:   8006 D  
  set 138:   8006 D  
  set 139:   8006 D  
  set 140:   8006 D  
  set 141:   8006 D  
  set 142:   8006 D  
  set 143:   8006 D  
  set 144:   8006 D  
  set 145:   8006 D  
  set 146:   8005    
  set 147:   8006 D  
  set 148:   8005    
  set 149:   8000    
  set 150:   8000    
  set 151:   8000    
  set 152:   8000    
  set 153:   8000    
  set 154:   8000    
  set 155:   8000    
  set 156:   8006 D  
  set 157:   800a D  
  set 158:   800a D  
  set 159:   800a D  
  set 160:   8006    
  set 161:   800a D  
  set 162:   8006    
  set 163:   8006    
  set 164:   8006    
  set 165:   8006    
  set 166:   8006    
  set 167:   800a D  
  set 168:   800a D  
  set 169:   800a D  
  set 170:   800a D  
  set 171:   800a D  
  set 172:   8006 D  
  set 173:   800a D  
  set 174:   800a D  
  set 175:   800a D  
  set 176:   800a D  
  set 177:   800a D  
  set 178:   800a D  
  set 179:   800a D  
  set 180:   800a D  
  set 181:   800a D  
  set 182:   800a D  
  set 183:   800a D  
  set 184:   800a D  
  set 185:   800a D  
  set 186:   800a D  
  set 187:   800a D  
  set 188:   800a D  
  set 189:   800a D  
  set 190:   800a D  
  set 191:   800a D  
  set 192:   800a D  
  set 193:   800a D  
  set 194:   800a D  
  set 195:   800a D  
  set 196:   800a D  
  set 197:   800a D  
  set 198:   800a D  
  set 199:   800a D  
  set 200:   800a D  
  set 201:   800a D  
  set 202:   800a D  
  set 203:   800a D  
  set 204:   800a D  
  set 205:   800a D  
  set 206:   800a D  
  set 207:   800a D  
  set 208:   800a D  
  set 209:   800a D  
  set 210:   800a D  
  set 211:   800a D  
  set 212:   800a D  
  set 213:   800a D  
  set 214:   800a D  
  set 215:   800a D  
  set 216:   800a D  
  set 217:   800a D  
  set 218:   800a D  
  set 219:   800a D  
  set 220:   800a D  
  set 221:   800a D  
  set 222:   8006 D  
  set 223:   8006 D  
  set 224:   800a D  
  set 225:   800a D  
  set 226:   800a D  
  set 227:   800a D  
  set 228:   800a D  
  set 229:   800a D  
  set 230:   1bf    
  set 231:   
  set 232:   800a D  
  set 233:   800a D  
  set 234:   800a D  
  set 235:   800a D  
  set 236:   800a D  
  set 237:   800a D  
  set 238:   800a D  
  set 239:   800a D  
  set 240:   8007    
  set 241:   800a D  
  set 242:   846a    
  set 243:   
  set 244:   8006 D  
  set 245:   8006 D  
  set 246:   8007 D  
  set 247:   
  set 248:   1bf    
  set 249:   
  set 250:   8006 D  
  set 251:   8006 D  
  set 252:   8006 D  
  set 253:   8006 D  
  set 254:   8006 D  
  set 255:   
  set 256:   
  set 257:   
  set 258:   
  set 259:   
  set 260:   
  set 261:   
  set 262:   8006 D  
  set 263:   8000    
  set 264:   8000    
  set 265:   8000    
  set 266:   8000    
  set 267:   8006 D  
  set 268:   
  set 269:   
  set 270:   8007 D  
  set 271:   8007 D  
  set 272:   8007 D  
  set 273:   8007 D  
  set 274:   8007 D  
  set 275:   8007 D  
  set 276:   8006 D  
  set 277:   1bf    
  set 278:   1bf    
  set 279:   
  set 280:   8006 D  
  set 281:   8006 D  
  set 282:   8006 D  
  set 283:   8006 D  
  set 284:   8000 D  
  set 285:   8007 D  
  set 286:   
  set 287:   8007 D  
  set 288:   8006 D  
  set 289:   
  set 290:   8006 D  
  set 291:   8000    
  set 292:   8006 D  
  set 293:   8006 D  
  set 294:   8006 D  
  set 295:   
  set 296:   8006 D  
  set 297:   8006 D  
  set 298:   
  set 299:   
  set 300:   8005 D  
  set 301:   8005    
  set 302:   8000    
  set 303:   8000    
  set 304:   
  set 305:   8005 D  
  set 306:   8008    
  set 307:   
  set 308:   
  set 309:   8006 D  
  set 310:   
  set 311:   1bf    
  set 312:   
  set 313:   8006 D  
  set 314:   
  set 315:   
  set 316:   8005 D  
  set 317:   
  set 318:   8005    
  set 319:   8007 D  
  set 320:   8005 D  
  set 321:   
  set 322:   8000    
  set 323:   
  set 324:   8008    
  set 325:   
  set 326:   
  set 327:   
  set 328:   
  set 329:   
  set 330:   8008 D  
  set 331:   8008 D  
  set 332:   8008 D  
  set 333:   8008 D  
  set 334:   8008 D  
  set 335:   8008 D  
  set 336:   8008 D  
  set 337:   8008 D  
  set 338:   8008 D  
  set 339:   8008 D  
  set 340:   8008 D  
  set 341:   8008 D  
  set 342:   8008 D  
  set 343:   8008 D  
  set 344:   8008 D  
  set 345:   8008 D  
  set 346:   8008 D  
  set 347:   8008 D  
  set 348:   8008 D  
  set 349:   8008 D  
  set 350:   8008 D  
  set 351:   8008 D  
  set 352:   8008 D  
  set 353:   8008 D  
  set 354:   8008 D  
  set 355:   8008 D  
  set 356:   8008 D  
  set 357:   8008 D  
  set 358:   8008 D  
  set 359:   8008 D  
  set 360:   8008 D  
  set 361:   8008 D  
  set 362:   8008 D  
  set 363:   8008 D  
  set 364:   8008 D  
  set 365:   8008 D  
  set 366:   8008 D  
  set 367:   8008 D  
  set 368:   800a D  
  set 369:   800a D  
  set 370:   800a D  
  set 371:   800a D  
  set 372:   800a D  
  set 373:   800a D  
  set 374:   800a D  
  set 375:   800a D  
  set 376:   800a D  
  set 377:   800a D  
  set 378:   800a D  
  set 379:   800a D  
  set 380:   800a D  
  set 381:   800a D  
  set 382:   800a D  
  set 383:   8006 D  
  set 384:   8006 D  
  set 385:   8006 D  
  set 386:   8006 D  
  set 387:   800a D  
  set 388:   800a D  
  set 389:   800a D  
  set 390:   800a D  
  set 391:   800a D  
  set 392:   800a D  
  set 393:   800a D  
  set 394:   800a D  
  set 395:   800a D  
  set 396:   800a D  
  set 397:   800a D  
  set 398:   800a D  
  set 399:   800a D  
  set 400:   800a D  
  set 401:   800a D  
  set 402:   800a D  
  set 403:   800a D  
  set 404:   800a D  
  set 405:   800a D  
  set 406:   800a D  
  set 407:   800a D  
  set 408:   800a D  
  set 409:   800a D  
  set 410:   800a D  
  set 411:   800a D  
  set 412:   800a D  
  set 413:   800a D  
  set 414:   800a D  
  set 415:   8008 D  
  set 416:   800a D  
  set 417:   800a D  
  set 418:   800a D  
  set 419:   800a D  
  set 420:   800a D  
  set 421:   800a D  
  set 422:   800a D  
  set 423:   8008 D  
  set 424:   800a D  
  set 425:   800a D  
  set 426:   800a D  
  set 427:   800a D  
  set 428:   800a D  
  set 429:   800a D  
  set 430:   800a D  
  set 431:   800a D  
  set 432:   800a D  
  set 433:   800a D  
  set 434:   800a D  
  set 435:   800a D  
  set 436:   800a D  
  set 437:   800a D  
  set 438:   8008 D  
  set 439:   800a D  
  set 440:   800a D  
  set 441:   800a D  
  set 442:   800a D  
  set 443:   800a D  
  set 444:   800a D  
  set 445:   800a D  
  set 446:   800a D  
  set 447:   800a D  
  set 448:   800a D  
  set 449:   800a D  
  set 450:   800a D  
  set 451:   800a D  
  set 452:   800a D  
  set 453:   800a D  
  set 454:   800a D  
  set 455:   800a D  
  set 456:   f606 D  
  set 457:   f606 D  
  set 458:   800a D  
  set 459:   f606 D  
  set 460:   800a D  
  set 461:   800a D  
  set 462:   800a D  
  set 463:   800a D  
  set 464:   f606 D  
  set 465:   800a D  
  set 466:   800a D  
  set 467:   800a D  
  set 468:   800a D  
  set 469:   800a D  
  set 470:   800a D  
  set 471:   800a D  
  set 472:   800a D  
  set 473:   800a D  
  set 474:   800a D  
  set 475:   800a D  
  set 476:   800a D  
  set 477:   800a D  
  set 478:   800a D  
  set 479:   800a D  
  set 480:   800a D  
  set 481:   800a D  
  set 482:   800a D  
  set 483:   800a D  
  set 484:   800a D  
  set 485:   800a D  
  set 486:   800a D  
  set 487:   800a D  
  set 488:   800a D  
  set 489:   800a D  
  set 490:   800a D  
  set 491:   800a D  
  set 492:   800a D  
  set 493:   800a D  
  set 494:   800a D  
  set 495:   800a D  
  set 496:   800a D  
  set 497:   800a D  
  set 498:   800a D  
  set 499:   800a D  
  set 500:   800a D  
  set 501:   800a D  
  set 502:   800a D  
  set 503:   800a D  
  set 504:   8006 D  
  set 505:   800a D  
  set 506:   800a D  
  set 507:   800a D  
  set 508:   800a D  
  set 509:   800a D  
  set 510:   800a D  
  set 511:   800a D  
  set 512:   800a D  
  set 513:   800a D  
  set 514:   800a D  
  set 515:   800a D  
  set 516:   800a D  
  set 517:   800a D  
  set 518:   800a D  
  set 519:   800a D  
  set 520:   800a D  
  set 521:   800a D  
  set 522:   800a D  
  set 523:   800a D  
  set 524:   800a D  
  set 525:   800a D  
  set 526:   800a D  
  set 527:   800a D  
  set 528:   800a D  
  set 529:   800a D  
  set 530:   800a D  
  set 531:   800a D  
  set 532:   800a D  
  set 533:   800a D  
  set 534:   800a D  
  set 535:   800a D  
  set 536:   800a D  
  set 537:   800a D  
  set 538:   800a D  
  set 539:   800a D  
  set 540:   800a D  
  set 541:   800a D  
  set 542:   800a D  
  set 543:   800a D  
  set 544:   800a D  
  set 545:   800a D  
  set 546:   800a D  
  set 547:   800a D  
  set 548:   800a D  
  set 549:   800a D  
  set 550:   800a D  
  set 551:   800a D  
  set 552:   800a D  
  set 553:   800a D  
  set 554:   800a D  
  set 555:   800a D  
  set 556:   800a D  
  set 557:   8008 D  
  set 558:   800a D  
  set 559:   8008 D  
  set 560:   8008 D  
  set 561:   800a D  
  set 562:   8008 D  
  set 563:   800a D  
  set 564:   800a D  
  set 565:   800a D  
  set 566:   8008 D  
  set 567:   800a D  
  set 568:   800a D  
  set 569:   800a D  
  set 570:   800a D  
  set 571:   800a D  
  set 572:   800a D  
  set 573:   800a D  
  set 574:   800a D  
  set 575:   800a D  
  set 576:   800a D  
  set 577:   800a D  
  set 578:   800a D  
  set 579:   800a D  
  set 580:   800a D  
  set 581:   800a D  
  set 582:   8007 D  
  set 583:   800a D  
  set 584:   800a D  
  set 585:   800a D  
  set 586:   800a D  
  set 587:   800a D  
  set 588:   800a D  
  set 589:   800a D  
  set 590:   800a D  
  set 591:   800a D  
  set 592:   800a D  
  set 593:   800a D  
  set 594:   800a D  
  set 595:   800a D  
  set 596:   800a D  
  set 597:   800a D  
  set 598:   800a D  
  set 599:   800a D  
  set 600:   800a D  
  set 601:   800a D  
  set 602:   800a D  
  set 603:   800a D  
  set 604:   800a D  
  set 605:   800a D  
  set 606:   800a D  
  set 607:   800a D  
  set 608:   800a D  
  set 609:   800a D  
  set 610:   800a D  
  set 611:   800a D  
  set 612:   800a D  
  set 613:   800a D  
  set 614:   800a D  
  set 615:   800a D  
  set 616:   800a D  
  set 617:   800a D  
  set 618:   800a D  
  set 619:   800a D  
  set 620:   800a D  
  set 621:   800a D  
  set 622:   800a D  
  set 623:   800a D  
  set 624:   800a D  
  set 625:   800a D  
  set 626:   800a D  
  set 627:   800a D  
  set 628:   800a D  
  set 629:   800a D  
  set 630:   800a D  
  set 631:   800a D  
  set 632:   800a D  
  set 633:   800a D  
  set 634:   800a D  
  set 635:   8003    
  set 636:   8003    
  set 637:   8003    
  set 638:   8006 D  
  set 639:   8006 D  
  set 640:   800a D  
  set 641:   800a D  
  set 642:   800a D  
  set 643:   800a D  
  set 644:   800a D  
  set 645:   800a D  
  set 646:   800a D  
  set 647:   800a D  
  set 648:   800a D  
  set 649:   800a D  
  set 650:   800a D  
  set 651:   800a D  
  set 652:   800a D  
  set 653:   800a D  
  set 654:   8006 D  
  set 655:   800a D  
  set 656:   800a D  
  set 657:   800a D  
  set 658:   800a D  
  set 659:   800a D  
  set 660:   8005 D  
  set 661:   800a D  
  set 662:   800a D  
  set 663:   800a D  
  set 664:   800a D  
  set 665:   800a D  
  set 666:   800a D  
  set 667:   800a D  
  set 668:   800a D  
  set 669:   800a D  
  set 670:   800a D  
  set 671:   8006 D  
  set 672:   800a D  
  set 673:   800a D  
  set 674:   800a D  
  set 675:   800a D  
  set 676:   800a D  
  set 677:   800a D  
  set 678:   800a D  
  set 679:   800a D  
  set 680:   8006    
  set 681:   8006    
  set 682:   8006    
  set 683:   8006    
  set 684:   8006    
  set 685:   800a D  
  set 686:   800a D  
  set 687:   800a D  
  set 688:   8006    
  set 689:   800a D  
  set 690:   800a D  
  set 691:   800a D  
  set 692:   800a D  
  set 693:   800a D  
  set 694:   800a D  
  set 695:   800a D  
  set 696:   800a D  
  set 697:   800a D  
  set 698:   8006 D  
  set 699:   8006    
  set 700:   8006    
  set 701:   8006 D  
  set 702:   800a D  
  set 703:   800a D  
  set 704:   800a D  
  set 705:   800a D  
  set 706:   800a D  
  set 707:   8006 D  
  set 708:   8006 D  
  set 709:   800a D  
  set 710:   8006 D  
  set 711:   8006    
  set 712:   800a D  
  set 713:   800a D  
  set 714:   800a D  
  set 715:   800a D  
  set 716:   800a D  
  set 717:   800a D  
  set 718:   800a D  
  set 719:   800a D  
  set 720:   800a D  
  set 721:   800a D  
  set 722:   800a D  
  set 723:   800a D  
  set 724:   8006 D  
  set 725:   8006    
  set 726:   8006 D  
  set 727:   800a D  
  set 728:   800a D  
  set 729:   800a D  
  set 730:   800a D  
  set 731:   800a D  
  set 732:   8006 D  
  set 733:   800a D  
  set 734:   8006 D  
  set 735:   8006 D  
  set 736:   800a D  
  set 737:   800a D  
  set 738:   800a D  
  set 739:   800a D  
  set 740:   800a D  
  set 741:   800a D  
  set 742:   800a D  
  set 743:   800a D  
  set 744:   800a D  
  set 745:   800a D  
  set 746:   8006    
  set 747:   800a D  
  set 748:   800a D  
  set 749:   800a D  
  set 750:   800a D  
  set 751:   800a D  
  set 752:   800a D  
  set 753:   800a D  
  set 754:   800a D  
  set 755:   800a D  
  set 756:   800a D  
  set 757:   800a D  
  set 758:   800a D  
  set 759:   8006 D  
  set 760:   800a D  
  set 761:   800a D  
  set 762:   800a D  
  set 763:   800a D  
  set 764:   8006 D  
  set 765:   8006 D  
  set 766:   800a D  
  set 767:   800a D  
  set 768:   800a D  
  set 769:   800a D  
  set 770:   800a D  
  set 771:   8006 D  
  set 772:   800a D  
  set 773:   800a D  
  set 774:   800a D  
  set 775:   800a D  
  set 776:   800a D  
  set 777:   800a D  
  set 778:   800a D  
  set 779:   800a D  
  set 780:   800a D  
  set 781:   800a D  
  set 782:   800a D  
  set 783:   800a D  
  set 784:   800a D  
  set 785:   800a D  
  set 786:   800a D  
  set 787:   800a D  
  set 788:   800a D  
  set 789:   8007 D  
  set 790:   8007 D  
  set 791:   8007 D  
  set 792:   8007 D  
  set 793:   8007 D  
  set 794:   8007 D  
  set 795:   8007 D  
  set 796:   8007 D  
  set 797:   8007 D  
  set 798:   8007 D  
  set 799:   8007 D  
  set 800:   8007 D  
  set 801:   8007 D  
  set 802:   8007 D  
  set 803:   8007 D  
  set 804:   8007 D  
  set 805:   8006 D  
  set 806:   8006 D  
  set 807:   8006 D  
  set 808:   8006 D  
  set 809:   8006 D  
  set 810:   8006 D  
  set 811:   8006 D  
  set 812:   8007 D  
  set 813:   8006 D  
  set 814:   8006 D  
  set 815:   8006 D  
  set 816:   8007 D  
  set 817:   8007 D  
  set 818:   8007 D  
  set 819:   8007 D  
  set 820:   8007 D  
  set 821:   8009 D  
  set 822:   8009 D  
  set 823:   8009    
  set 824:   8008 D  
  set 825:   8009 D  
  set 826:   8009 D  
  set 827:   8009 D  
  set 828:   8009 D  
  set 829:   8006 D  
  set 830:   8006 D  
  set 831:   8009 D  
  set 832:   8007 D  
  set 833:   8006 D  
  set 834:   8009 D  
  set 835:   8009 D  
  set 836:   8009 D  
  set 837:   8009 D  
  set 838:   8009 D  
  set 839:   8009 D  
  set 840:   8009 D  
  set 841:   8009 D  
  set 842:   8009 D  
  set 843:   8009 D  
  set 844:   8007 D  
  set 845:   8009 D  
  set 846:   8009 D  
  set 847:   8009 D  
  set 848:   8009 D  
  set 849:   8009 D  
  set 850:   8009 D  
  set 851:   8009 D  
  set 852:   8009 D  
  set 853:   8009 D  
  set 854:   8009 D  
  set 855:   8009 D  
  set 856:   8009 D  
  set 857:   8006 D  
  set 858:   8006 D  
  set 859:   8006 D  
  set 860:   8006 D  
  set 861:   8007 D  
  set 862:   8007 D  
  set 863:   8007 D  
  set 864:   8009    
  set 865:   8009 D  
  set 866:   8007 D  
  set 867:   8009    
  set 868:   8007 D  
  set 869:   8009    
  set 870:   8007 D  
  set 871:   8007 D  
  set 872:   8009 D  
  set 873:   8009 D  
  set 874:   8009 D  
  set 875:   8009 D  
  set 876:   8009 D  
  set 877:   8009 D  
  set 878:   8006 D  
  set 879:   8006 D  
  set 880:   8009 D  
  set 881:   8006 D  
  set 882:   8007 D  
  set 883:   8009 D  
  set 884:   8009 D  
  set 885:   8009 D  
  set 886:   8009 D  
  set 887:   8009 D  
  set 888:   8007 D  
  set 889:   8003    
  set 890:   8003    
  set 891:   8009 D  
  set 892:   8009 D  
  set 893:   8003    
  set 894:   8003    
  set 895:   8009 D  
  set 896:   8009 D  
  set 897:   8007 D  
  set 898:   8009 D  
  set 899:   8009 D  
  set 900:   8003    
  set 901:   8003    
  set 902:   8009 D  
  set 903:   8009 D  
  set 904:   8003    
  set 905:   8009 D  
  set 906:   8009 D  
  set 907:   8009 D  
  set 908:   8003    
  set 909:   8009 D  
  set 910:   8009 D  
  set 911:   8007 D  
  set 912:   8009 D  
  set 913:   8009 D  
  set 914:   8009 D  
  set 915:   8009 D  
  set 916:   8003    
  set 917:   8009 D  
  set 918:   8003    
  set 919:   8003    
  set 920:   8003    
  set 921:   8003    
  set 922:   8009 D  
  set 923:   8009 D  
  set 924:   8005 D  
  set 925:   8009 D  
  set 926:   8009 D  
  set 927:   8009 D  
  set 928:   8005 D  
  set 929:   8009 D  
  set 930:   8009 D  
  set 931:   8005 D  
  set 932:   8005 D  
  set 933:   8005    
  set 934:   8009 D  
  set 935:   8003    
  set 936:   8003    
  set 937:   8003    
  set 938:   8003    
  set 939:   8004    
  set 940:   8004    
  set 941:   8004    
  set 942:   8004    
  set 943:   8004    
  set 944:   8009 D  
  set 945:   8004    
  set 946:   8004    
  set 947:   8009 D  
  set 948:   8009 D  
  set 949:   8009 D  
  set 950:   8009 D  
  set 951:   8006 D  
  set 952:   8005 D  
  set 953:   8005 D  
  set 954:   8008    
  set 955:   8005 D  
  set 956:   8005 D  
  set 957:   8005 D  
  set 958:   8005 D  
  set 959:   8005 D  
  set 960:   8005 D  
  set 961:   8005 D  
  set 962:   8005 D  
  set 963:   8006 D  
  set 964:   8005 D  
  set 965:   8005 D  
  set 966:   8006 D  
  set 967:   8005 D  
  set 968:   8007 D  
  set 969:   8005 D  
  set 970:   8007 D  
  set 971:   8005 D  
  set 972:   8005 D  
  set 973:   8005 D  
  set 974:   8007 D  
  set 975:   8007 D  
  set 976:   8007 D  
  set 977:   8007 D  
  set 978:   8007 D  
  set 979:   8006 D  
  set 980:   8007 D  
  set 981:   8005 D  
  set 982:   8005 D  
  set 983:   8005 D  
  set 984:   8005 D  
  set 985:   8007 D  
  set 986:   8005 D  
  set 987:   8005 D  
  set 988:   8006 D  
  set 989:   8006 D  
  set 990:   8007 D  
  set 991:   8005 D  
  set 992:   8005 D  
  set 993:   8005 D  
  set 994:   8005 D  
  set 995:   8005 D  
  set 996:   8005 D  
  set 997:   8005 D  
  set 998:   8007 D  
  set 999:   8007 D  
  set1000:   8007 D  
  set1001:   8007 D  
  set1002:   8005 D  
  set1003:   8005 D  
  set1004:   8007 D  
  set1005:   8007 D  
  set1006:   8005 D  
  set1007:   8005 D  
  set1008:   8005 D  
  set1009:   8005 D  
  set1010:   8005 D  
  set1011:   8005 D  
  set1012:   8008    
  set1013:   8008    
  set1014:   8008    
  set1015:   8008    
  set1016:   8008    
  set1017:   8008    
  set1018:   8008    
  set1019:   8008    
  set1020:   8008    
  set1021:   8005 D  
  set1022:   8005 D  
  set1023:   8005 D  

===== VC contents =====
  set   0:  200289b D 200289a D 

===== L2 contents =====
  set   0:   2001f D  2002b    20022 D  2002a    20028 D  20018    2001a D  6fc    
  set   1:   2001f D  2002b    20022 D  2002a    20028 D  20018    2001a D  20027 D  
  set   2:   2001f D  2002b    20022 D  2002a    20028 D  20018    2001a D  211d7    
  set   3:   2002b D  2001b    2001f D  20022 D  2002a    20028 D  20018    2001a D  
  set   4:   2001f D  2002b    20022 D  2002a    20028 D  20018    2001a D  20027 D  
  set   5:   2001f D  2002b    20022 D  2002a    20028 D  20018    2001a D  20027 D  
  set   6:   2001f D  2002b    20022 D  2002a    20028 D  20018    2001a D  20027 D  
  set   7:   2001f D  2002b    20022 D  2002a    20028 D  20018    2001a D  20027 D  
  set   8:   2001f D  2002b    20022 D  2002a    20028 D  20018    2001a D  20027 D  
  set   9:   2001f D  2002b    20022 D  2002a    20028 D  20018    2001a D  20027 D  
  set  10:   2001f D  2002b    20022 D  2002a    20028 D  20018    2001a D  20027 D  
  set  11:   2001f D  2002b    20022 D  2002a    20028 D  20018    2001a D  20027 D  
  set  12:   2001f D  2002b    20022 D  2002a    20028 D  20018    2001a D  20027 D  
  set  13:   2001f D  2002b    20022 D  2002a    20028 D  20018    2001a D  20027 D  
  set  14:   2001f D  2002b    2001d    20022 D  2002a    20028 D  20018    2001a D  
  set  15:   2001f D  2002b    20022 D  2002a    20028 D  20018    2001a D  20027 D  
  set  16:   2001d    2001f D  2002b    20022 D  2002a    20028 D  20018    2001a D  
  set  17:   20018 D  2001c    2001d    2001f D  2002b    20022 D  2002a    20028 D  
  set  18:   2001c D  20024    2001f D  2002b    20018 D  20022 D  2002a    2001a D  
  set  19:   20018 D  2001c    2001f D  2002b    20022 D  2002a    20028 D  2001a D  
  set  20:   2001f D  2002b    20022 D  2002a    20018    2001a D  20027 D  20028 D  
  set  21:   20022 D  2002a    20018 D  2001c    20028 D  2001a D  20027 D  2001f    
  set  22:   20022 D  2002a    20028 D  20018    2001a D  20027 D  2001f    20024 D  
  set  23:   20022 D  2002a    20028 D  20018    2001a D  20027 D  2001f    20024    
  set  24:   20022 D  2002a    20028 D  20018    2001a D  20027 D  2001f    20019    
  set  25:   20022 D  2002a    20028 D  20018    2001a D  20027 D  2001f    20019    
  set  26:   20022 D  2002a    20028 D  20018    2001a D  210a6 D  20027 D  2001f    
  set  27:   20022 D  2002a    20028 D  20018    2001a D  20027 D  2001f    20019    
  set  28:   20022 D  2002a    20028 D  20018    2001a D  20027 D  2001f    20001    
  set  29:   20019 D  2001d    20022 D  2002a    20028 D  20018    2001a D  3d81a D  
  set  30:   20018 D  2001c    20022 D  2002a    20028 D  2001a D  3d81a D  20027 D  
  set  31:   20022 D  2002a    20018    2001a D  20027 D  2001f    2001d    20028 D  
  set  32:   20022 D  2002a    20028 D  20018    2001a D  20027 D  2001f    20019    
  set  33:   20022 D  2002a    20018    2001a D  20027 D  2001f    20028 D  20024    
  set  34:   20022 D  2002a    20028 D  20018    2001a D  20027 D  2001f    20019    
  set  35:   20022 D  2002a    20028 D  20018    2001a D  20027 D  2001f    20001    
  set  36:   20022 D  2002a    20028 D  20018    2001a D  210a6 D  20027 D  2001f    
  set  37:   2001f D  2001b    20022 D  2002a    20028 D  20018    2001a D  3d81a D  
  set  38:   2001f D  2001b    20022 D  2002a    20028 D  20018    2001a D  3d81a D  
  set  39:   2001f D  2001b    20022 D  2002a    20028 D  20018    2001a D  3d81a D  
  set  40:   2001f D  2001b    20022 D  2002a    20028 D  20018    2001a D  3d81a D  
  set  41:   2001f D  2001b    20022 D  2002a    20028 D  20018    2001a D  20027 D  
  set  42:   2001f D  2001b    20022 D  2002a    20028 D  20018    2001a D  20027 D  
  set  43:   20022 D  2002a    20028 D  20018    2001a D  20027 D  2001b    210a6    
  set  44:   20022 D  2002a    20028 D  20018    2001a D  210a6 D  20015    20027 D  
  set  45:   2002a D  20022 D  2001a D  20027 D  2001b    20028 D  20018    20015    
  set  46:   20027 D  2001b    2001a D  2002a    20028 D  20018    20001    3d81a    
  set  47:   2002a D  20022    2001a D  20028 D  20018    20027 D  2001f D  2001b D  
  set  48:   2002a D  20022    20027 D  2001f    2001a D  20028 D  20018    
  set  49:   20019 D  20015    20027 D  2001f    2001a D  2002a    20028 D  20018    
  set  50:   2002a D  20022    20027 D  2001f    2001a D  20028 D  20018    20021    
  set  51:   20027 D  2001f    2001a D  2002a    20028 D  20018    6fc    
  set  52:   20027 D  2001f    2001a D  2002a    20028 D  20018    210a6 D  20026    
  set  53:   2001a D  2002a    20028 D  20018    20021 D  20019    20027    20026    
  set  54:   2002a D  20022 D  2001a D  20028 D  20018    20026    20027    
  set  55:   2001a D  2002a    20028 D  20018    20023 D  20027 D  20026    6fd    
  set  56:   2001a D  2002a    20028 D  20018    20027 D  20023 D  20026    
  set  57:   2001a D  2002a    20028 D  20018    20019    20027    6fc    
  set  58:   2001a D  2002a    20028 D  20018    20027    6fc    
  set  59:   2001a D  2002a    20028 D  20018    20027    6fc    
  set  60:   2001a D  2002a    20028 D  20018    210a6 D  20019 D  20027    20015    
  set  61:   20027 D  2001b    2001a D  2002a    20028 D  20018    
  set  62:   20027 D  2001b    2001a D  2002a    20028 D  20018    20015    20001    
  set  63:   2001a D  2002a    20028 D  20018    2001d    20027    
  set  64:   20027 D  2001f    2001a D  2002a    20028 D  20018    2009b D  20015    
  set  65:   2001b D  2001f D  2001a D  2002a    20027 D  20028 D  20018    20026    
  set  66:   2001a D  2002a    20028 D  20018    210a6 D  20027    2009c D  211d8    
  set  67:   2001a D  2002a    20028 D  20018    211d8 D  20027    
  set  68:   2001a D  2002a    20028 D  20018    20027    20021    20026    
  set  69:   2001a D  2002a    20028 D  20018    210a6 D  20027    
  set  70:   2002a D  2001e    2001a D  20028 D  20018    20027    
  set  71:   2001a D  2002a    20028 D  20018    20026    20027    2001e    6fc    
  set  72:   2001a D  2002a    20028 D  20018    20027    210a6    
  set  73:   2001a D  2002a    20028 D  20018    2009c D  20027    210a6    
  set  74:   20019 D  20021    2001a D  2002a    20028 D  20018    2001e D  2009c D  
  set  75:   20019 D  20021    2001a D  2002a    20028 D  20018    2001e D  20027    
  set  76:   2001a D  2002a    20027 D  2001f    20028 D  20018    20019 D  20021    
  set  77:   2001a D  2002a    20028 D  20018    20021    2001e D  20027    210a6    
  set  78:   2001a D  2002a    20028 D  20018    20019 D  20021    2001e D  20027    
  set  79:   2001a D  2002a    20028 D  20018    20021    2001e D  211d8 D  20027    
  set  80:   2001a D  2002a    20028 D  20018    20021    2001e D  211d8 D  20027    
  set  81:   2001a D  2002a    20028 D  20018    20021    2001e D  211d8 D  20027    
  set  82:   2001a D  2002a    20028 D  20018    20021    2001e D  211d8 D  20027    
  set  83:   2001a D  2002a    20028 D  20018    20019 D  20021    2001e D  211d8 D  
  set  84:   2001a D  2002a    20028 D  20018    20021    2001e D  20027    
  set  85:   2001a D  2002a    20028 D  20018    20021    2001e D  20027    
  set  86:   2001a D  2002a    20028 D  20018    20021    2001e D  20027    
  set  87:   2001a D  2002a    20028 D  20018    20021    2001e D  20027    211aa    
  set  88:   2001a D  2002a    20028 D  20018    20021    2001e D  20027    
  set  89:   2001a D  2002a    20027 D  2001b    20028 D  20018    20019 D  20021    
  set  90:   2001a D  2002a    20027 D  2001b    20028 D  20018    20021    2001e D  
  set  91:   20027 D  2001b    2001a D  2002a    20028 D  20018    20019 D  20021    
  set  92:   20027 D  2001b    2001a D  2002a    20028 D  20018    20021    2001e D  
  set  93:   2001b D  2001f    2001a D  2002a    20028 D  20018    20021    2001e D  
  set  94:   2001a D  2002a    20028 D  20018    20021    2001e D  20027 D  2001f    
  set  95:   2001a D  2002a    20028 D  20018    20021    2001e D  2001f D  20027 D  
  set  96:   2001a D  2002a    20028 D  20018    20021    2001e D  3d81a D  2001f D  
  set  97:   2001a D  2002a    20028 D  20018    20021    2001e D  211aa D  2001f D  
  set  98:   2001a D  2002a    20028 D  20018    20021    2001e D  2001f D  20027 D  
  set  99:   2001a D  2002a    20028 D  20018    20019 D  20021    2001e D  2001f D  
  set 100:   2001a D  2002a    20028 D  20018    20021    2001e D  2001f D  20027 D  
  set 101:   2001a D  2002a    20028 D  20018    20019 D  20021    2001e D  3d81a D  
  set 102:   2001a D  2002a    20028 D  20018    20011 D  20021    2001e D  3d81a D  
  set 103:   20027 D  2001f    2001a D  2002a    20018    20021    2001e D  3d81a D  
  set 104:   2001a D  2002a    20028 D  20018    20019 D  20021    2001e D  20027    
  set 105:   2001a D  2002a    20028 D  20018    20019 D  20021    2001e D  20026 D  
  set 106:   2001a D  2002a    20028 D  20018    20021    2001e D  20026 D  20027    
  set 107:   2001a D  2002a    20028 D  20018    20021    2001e D  20027    3d81a D  
  set 108:   2001a D  2002a    20028 D  20018    20019 D  20021    2001e D  20027    
  set 109:   2001a D  2002a    20028 D  20018    20021    2001e D  20027    211d6 D  
  set 110:   20027 D  2001b    2001a D  2002a    20028 D  20018    20019 D  20021    
  set 111:   20027 D  2001b    2001e D  2002a    20028 D  20018    20011 D  20021    
  set 112:   2001e D  2002a    20021 D  20029    20028 D  20018    20027    211d6    
  set 113:   2001e D  2002a    20027 D  2001b    20021 D  20029    20028 D  20018    
  set 114:   20027 D  2001f    2001e D  2002a    20021 D  20029    20028 D  20018    
  set 115:   2001e D  2002a    20021 D  20029    20028 D  20018    20011 D  20027    
  set 116:   2001e D  2002a    20021 D  20029    20028 D  20018    20019 D  20011 D  
  set 117:   2001e D  2002a    20021 D  20029    20028 D  20018    2009c D  20002    
  set 118:   2001e D  2002a    20021 D  20029    20028 D  20018    20002    20027    
  set 119:   2001e D  2002a    20021 D  20029    20028 D  20018    211d6 D  20002    
  set 120:   20027 D  2001f    2001e D  2002a    20021 D  20029    20028 D  20018    
  set 121:   2002a D  20027 D  2000e    2000f    2001e D  20021 D  20029    20028 D  
  set 122:   2002a D  2000e    20027 D  2000f    2001e D  20021 D  20029    20028 D  
  set 123:   2002a D  2000e    2001e D  20021 D  20029    20028 D  20018    20026    
  set 124:   2002a D  2000e    2001e D  20021 D  20029    20028 D  20018    2001a D  
  set 125:   2002a D  2000e    20027 D  2000f    2001e D  20021 D  20029    20028 D  
  set 126:   2001a    2002a D  2000e    20027 D  2000f    2001e D  20021 D  20029    
  set 127:   20029 D  20019    2001a    2002a D  2000e    2001e D  20021 D  20028 D  
  set 128:   20029 D  20019    2001e D  2002a    20021 D  20028 D  20018    3d81a D  
  set 129:   20029 D  20019    20027 D  2001f    2001e D  2002a    20021 D  20028 D  
  set 130:   20029 D  20019    2001e D  2002a    20021 D  20028 D  20018    3d81a D  
  set 131:   2001e D  2002a    20021 D  20029    20028 D  20018    3d81a D  20002    
  set 132:   2000f    2001e D  2002a    20021 D  20029    20028 D  20018    3d81a D  
  set 133:   2001e D  2002a    20021 D  20029    20028 D  20018    3d81a D  20002    
  set 134:   2001e D  2002a    20021 D  20029    20028 D  20018    20002    20027    
  set 135:   2001e D  2002a    20021 D  20029    20028 D  20018    20027    2000f    
  set 136:   2001e D  2002a    20021 D  20029    20028 D  20018    20027 D  2000f    
  set 137:   2001e D  2002a    20021 D  20029    20028 D  20018    20027    6fe    
  set 138:   2001e D  2002a    20021 D  20029    20028 D  20018    3d81a D  20027    
  set 139:   2001e D  2002a    20021 D  20029    20028 D  20018    20019 D  20027    
  set 140:   2001e D  2002a    20021 D  20029    20028 D  20018    20019 D  3d81a D  
  set 141:   2001e D  2002a    20021 D  20029    20028 D  20018    20027    2000f    
  set 142:   2002a D  2001a D  2001e D  20021 D  20029    20028 D  20018    20019 D  
  set 143:   20027 D  2001f    2001e D  2002a    20021 D  20029    20028 D  20018    
  set 144:   2001e D  2002a    20021 D  20029    20028 D  20018    20019 D  3d81a D  
  set 145:   2001e D  2002a    20021 D  20029    20028 D  20018    20019 D  20027    
  set 146:   20018 D  20014    2001e D  2002a    20021 D  20029    20028 D  20019 D  
  set 147:   2001e D  2002a    20021 D  20029    20028 D  20018    20019 D  20027    
  set 148:   20018 D  20014    20027 D  2000f    2002a D  20016    2001e D  20021 D  
  set 149:   20018 D  20000    2001e D  2002a    20021 D  20029    20028 D  20019 D  
  set 150:   20028 D  20000    20018 D  2001e D  2002a    20021 D  20029    20019 D  
  set 151:   20000    20028 D  20014    20018 D  2001e D  2002a    20021 D  20029    
  set 152:   20000    20028 D  20014    20017 D  2000f    20018 D  2001e D  2002a    
  set 153:   20028 D  20000    20027 D  2000f    20018 D  2001e D  2002a    20021 D  
  set 154:   20000    20018 D  20028    2001e D  2002a    20021 D  20029    20019 D  
  set 155:   20000    20018 D  20028    2001e D  2002a    20021 D  20029    20019 D  
  set 156:   20028 D  20018 D  2001e D  2002a    20021 D  20029    20019 D  211aa D  
  set 157:   20028    2001e D  2002a    20021 D  20029    20019 D  20027    211aa    
  set 158:   2001c D  20028    2001e D  2002a    20021 D  20029    20019 D  20027    
  set 159:   2002a D  2001a    20028    20029 D  20021 D  2001e D  20019 D  20001    
  set 160:   20028 D  20018    20027 D  20017    2001e D  2002a    20021 D  20029    
  set 161:   20028    2001e D  2002a    20021 D  20029    20019 D  20027    
  set 162:   20028 D  20018    2001e D  2002a    20021 D  20029    20019 D  20027    
  set 163:   20028 D  20018    20027 D  20017    2001e D  2002a    20021 D  20029    
  set 164:   20028 D  2001c D  20018    2001e D  2002a    20021 D  20029    20019 D  
  set 165:   20017    20027 D  2000f    20028 D  20018    2001e D  2002a    20021 D  
  set 166:   20028 D  20018    2001e D  2002a    20021 D  20029    20019 D  211aa D  
  set 167:   20017 D  20028    2000f    20029 D  20021 D  2001e D  2002a    20019 D  
  set 168:   2002a D  2001a    20027 D  2000f    20028    2001e D  20021 D  20029    
  set 169:   20027 D  2000f    2002a D  2001a    20028    2001e D  20021 D  20029    
  set 170:   2002a D  2001a    20027 D  2000f    2009c D  20028    2001e D  20021 D  
  set 171:   2002a D  2001a    20027 D  20013    20028    2001e D  20021 D  20029    
  set 172:   20028 D  20018    2002a D  2001a    20027 D  20013    2001e D  20021 D  
  set 173:   20027 D  20013    20028    2001e D  2002a    20021 D  20029    20019 D  
  set 174:   20027 D  20013    20028    2001e D  2002a    20021 D  20029    20019 D  
  set 175:   20013    20028    2001e D  2002a    20021 D  20029    20019 D  20027 D  
  set 176:   2002a D  2001a    20028    2001e D  20021 D  20029    20019 D  20027    
  set 177:   20013    2000f    20027 D  20028    2001e D  2002a    20021 D  20029    
  set 178:   20027 D  20013    20028    2001e D  2002a    20021 D  20029    20019 D  
  set 179:   20028    2001e D  2002a    20021 D  20029    20019 D  20027    211aa    
  set 180:   20018 D  20028    2001e D  2002a    20021 D  20029    20019 D  20027    
  set 181:   20018 D  20028    2001e D  2002a    20021 D  20029    20019 D  211aa D  
  set 182:   20018 D  20028    2001e D  2002a    20029 D  20021 D  20019 D  211aa D  
  set 183:   20017 D  2001b    20027 D  20018 D  20028    2001e D  2002a    20021 D  
  set 184:   2001b D  20017    20018 D  20028    2001e D  2002a    20021 D  20029    
  set 185:   20017    20018 D  20028    2001e D  2002a    20021 D  20029    20019 D  
  set 186:   2002a D  2001a    20018 D  20028    2001e D  20021 D  20029    20019 D  
  set 187:   20018 D  20028    2002a D  2001a D  2001e D  20021 D  20029    20027 D  
  set 188:   2002a D  2001a    20018 D  20028    2001e D  20021 D  20029    20027 D  
  set 189:   2002a D  2001a    20018 D  20028    2001e D  20021 D  20029    20027 D  
  set 190:   20018 D  20028    2001e D  2002a    20021 D  20029    20027 D  20017    
  set 191:   20018 D  20028    2001e D  2002a    20021 D  20029    20027 D  20017    
  set 192:   20018 D  20028    2001e D  2002a    20021 D  20029    20027 D  20017    
  set 193:   20018 D  20028    2001e D  2002a    20021 D  20029    20027 D  20017    
  set 194:   20018 D  20028    2001e D  2002a    20021 D  20029    20027 D  20017    
  set 195:   2002a D  2001a    20028    2001e D  20017 D  2001b    20021 D  20029    
  set 196:   20028    2002a D  2001a    2001e D  20021 D  20029    20027 D  20017    
  set 197:   20028    2001e D  2002a    20021 D  20029    20027 D  20017    20019 D  
  set 198:   20028    2002a D  2001a D  20017 D  2001b D  2001e D  20021 D  20029    
  set 199:   2002a D  2001a    20028    2001e D  20021 D  20029    20027 D  20017    
  set 200:   20028    20017 D  2001f    20029 D  3d819    2001e D  2002a    20021 D  
  set 201:   20029 D  3d819    20028    2001e D  2002a    20021 D  20027 D  20017    
  set 202:   20017 D  2001f    20028    2001e D  2002a    20021 D  20029    20027 D  
  set 203:   2009c D  20028    20029 D  3d819 D  2001e D  2002a    20021 D  20027 D  
  set 204:   20028    2001e D  2002a    20021 D  20029    20017    20019 D  20027 D  
  set 205:   20028    2001e D  2002a    20021 D  20029    20027 D  20017    20019 D  
  set 206:   20028    2001e D  2002a    20017 D  2001f    20021 D  20029    20027 D  
  set 207:   20028    2001e D  2002a    20017 D  2001f    20021 D  20029    20027 D  
  set 208:   20028    2001e D  2002a    20029 D  3d819 D  20017 D  2001f    20021 D  
  set 209:   20028    2001e D  2002a    20017 D  2001f    20021 D  20029    20027 D  
  set 210:   20028    2001e D  2002a    20017 D  2001f    20021 D  20029    20027 D  
  set 211:   20028    2001f D  2001b    20017 D  2001e D  2002a    20021 D  20029    
  set 212:   20028    2002a D  2001a D  20017 D  2001f D  2001e D  20021 D  20029    
  set 213:   20028    2002a D  2001a D  2001e D  20021 D  20029    20027 D  20017    
  set 214:   20028    2002a D  2001a D  2001e D  20021 D  20029    20017    20019 D  
  set 215:   20010 D  20028    2001e D  2002a    20021 D  20029    20027 D  20017    
  set 216:   20028    2001e D  2002a    20021 D  20029    20027 D  20017    20019 D  
  set 217:   20028    20017 D  2001f    2001e D  2002a    20021 D  20029    20027 D  
  set 218:   20028    2001e D  2002a    20021 D  20029    20027 D  20017    20019 D  
  set 219:   20018 D  20028    2001e D  2002a    20021 D  20029    20027 D  20017    
  set 220:   20018 D  20028    2002a D  2001a    2001e D  20021 D  20029    2001f D  
  set 221:   20018 D  20028    20017 D  2001b    2001e D  2002a    20021 D  20029    
  set 222:   20028 D  20018    20017 D  2001f    2002a D  2001a    2001e D  20021 D  
  set 223:   20028 D  20018    2002a D  2001a    2001e D  20021 D  20029    20027 D  
  set 224:   20028    2001e D  2002a    20021 D  20029    20027 D  20017    20019 D  
  set 225:   20028    2001a D  2002a    20019 D  20029 D  2001e D  20021 D  20027 D  
  set 226:   20028    2001e D  2002a    20021 D  20029    20027 D  20017    20019 D  
  set 227:   20028    2001e D  2002a    20021 D  20029    20027 D  20017    20019 D  
  set 228:   20028    2001e D  2002a    20021 D  20029    20027 D  20017    20019 D  
  set 229:   20028    2001e D  2002a    20021 D  20029    20027 D  20017    20019 D  
  set 230:   2001e D  2002a    20021 D  20029    20017 D  2001f    20027 D  20019 D  
  set 231:   2001e D  2002a    20021 D  20029    20017 D  2001f    20027 D  20019 D  
  set 232:   2001e D  2002a    20017 D  2001f    20021 D  20029    20019 D  20028    
  set 233:   2001e D  2002a    20019 D  20029 D  20017 D  2001f    20021 D  20027 D  
  set 234:   2002a D  2001a D  2001e D  20021 D  20029    20027 D  20017    20019 D  
  set 235:   2001e D  2002a    20021 D  20029    20027 D  20017    20019 D  20028    
  set 236:   2001e D  2002a    20017 D  2001f    20021 D  20029    20027 D  20019 D  
  set 237:   20017 D  2001f    2001e D  2002a    20021 D  20029    20027 D  20019 D  
  set 238:   2001e D  2002a    20021 D  20029    20027 D  20017    20019 D  2009c D  
  set 239:   2001e D  2002a    20021 D  20029    20027 D  20017    20019 D  20028    
  set 240:   20028 D  2001c    2001e D  2002a    20021 D  20029    20027 D  20017    
  set 241:   2001e D  2002a    20021 D  20029    20027 D  20017    20019 D  20028    
  set 242:   2001e D  2002a    20021 D  20029    20027 D  20017    20019 D  211a8    
  set 243:   2001e D  2002a    20021 D  20029    20027 D  20017    20019 D  6fb    
  set 244:   20017 D  20023    2001e D  2002a    20021 D  20029    20027 D  20019 D  
  set 245:   20017 D  20023    2001e D  2002a    20021 D  20029    20027 D  20019 D  
  set 246:   2001f D  20023    2001e D  2002a    20017 D  2001c    20021 D  20029    
  set 247:   20017 D  20023    2002a D  2001a    2001e D  20021 D  20029    20027 D  
  set 248:   20017 D  20023    2001e D  2002a    20029 D  20019 D  20021 D  20027 D  
  set 249:   20017 D  20023    2001e D  2002a    20021 D  20029    20027 D  20019 D  
  set 250:   20017 D  20023    2001e D  2002a    20021 D  20029    20027 D  20019 D  
  set 251:   20017 D  20023    2001e D  2002a    20021 D  20029    20027 D  20019 D  
  set 252:   20017 D  20023    20018    2002a D  2001a D  2001e D  20021 D  20029    
  set 253:   2002a D  2001a    2001e D  20021 D  20029    20027 D  20017    20019 D  
  set 254:   2001e D  2002a    20021 D  20029    20017    20019 D  20018    20027 D  
  set 255:   2001e D  2002a    20021 D  20029    20027 D  20017    20019 D  20026    

===== Simulation results =====
  a. number of L1 reads:                       63640
  b. number of L1 read misses:                  1356
  c. number of L1 writes:                      36360
  d. number of L1 write misses:                 2412
  e. number of swap requests:                   2778
  f. swap request rate:                       0.0278
  g. number of swaps:                            334
  h. combined L1+VC miss rate:                0.0343
  i. number writebacks from L1/VC:              1592
  j. number of L2 reads:                        3434
  k. number of L2 read misses:                  2593
  l. number of L2 writes:                       1592
  m. number of L2 write misses:                   50
  n. L2 miss rate:                            0.7551
  o. number of writebacks from L2:               194
  p. total memory traffic:                      2837
