===== Simulator configuration =====
  BLOCKSIZE:                  32
  L1_SIZE:                  2048
  L1_ASSOC:                    8
  VC_NUM_BLOCKS:               0
  L2_SIZE:                524288
  L2_ASSOC:                    8
  trace_file:      gcc_trace.txt

===== L1 contents =====
  set   0:   400013    40051a D  7b0339 D  400314    4002f7 D  4001f3    4001f5    400293    
  set   1:   400382 D  400013    40051a D  4002a6 D  400276    4001f5    4001f6    4001f3    
  set   2:   400013    400446 D  40051a D  400482    400429    400382 D  400314    400292    
  set   3:   400013    400314    400357    400358 D  40051c D  40051a D  400275    40047f    
  set   4:   40031e D  4001f2    4002f4 D  40031f D  400314    40051c D  4003e5    400355    
  set   5:   400012    4002f4    4001f4    400314    40051c D  40051a D  40051b D  40031b D  
  set   6:   400012    4001f2    400275    40051a D  400314    40031b D  40051b D  40047e    
  set   7:   400012    4003f1 D  400358    400519 D  4001f4    400275    400292    40051a D  

===== L2 contents =====
  set   0:   4003 D  4005 D  
  set   1:   4003 D  4005 D  
  set   2:   4003 D  4005 D  423b    
  set   3:   4003 D  4005 D  
  set   4:   4003 D  4005 D  
  set   5:   4003 D  4005 D  
  set   6:   4003 D  4005 D  
  set   7:   4003 D  4005 D  
  set   8:   4003 D  4005 D  
  set   9:   4003 D  4005 D  
  set  10:   4003 D  4005 D  
  set  11:   4003 D  4005 D  
  set  12:   4003 D  4005 D  
  set  13:   4003 D  4005 D  
  set  14:   4003 D  4005 D  
  set  15:   4003 D  4005 D  
  set  16:   4003 D  4005 D  
  set  17:   4003 D  4005 D  
  set  18:   4003 D  4005 D  
  set  19:   4003 D  4005 D  
  set  20:   4003 D  4005 D  
  set  21:   4003 D  4005 D  
  set  22:   4003 D  4005 D  
  set  23:   4003 D  4005 D  
  set  24:   4003 D  4005 D  423b    
  set  25:   4003 D  4005 D  423b    
  set  26:   4003 D  4005 D  423b    
  set  27:   4003 D  4005 D  
  set  28:   4003 D  4005 D  423b    
  set  29:   4003 D  4005 D  423b    
  set  30:   4003 D  4005 D  
  set  31:   4003 D  4005 D  423b    
  set  32:   4003 D  4005 D  423b    
  set  33:   4003 D  4005 D  423b    
  set  34:   4003 D  4005 D  423b    
  set  35:   4003 D  4005 D  423b    
  set  36:   4003 D  4005 D  423b    
  set  37:   4003 D  4005 D  
  set  38:   4003 D  4005 D  
  set  39:   4003 D  4005 D  
  set  40:   4003 D  4005 D  423b    
  set  41:   4003 D  4005 D  423b    
  set  42:   4003 D  4005 D  
  set  43:   4003 D  4005 D  
  set  44:   4003 D  4005 D  
  set  45:   4003 D  4005 D  
  set  46:   4003 D  4005 D  
  set  47:   4003 D  4005 D  
  set  48:   4003 D  4005 D  
  set  49:   4003 D  4005 D  
  set  50:   4003 D  4005 D  
  set  51:   4003 D  4005 D  
  set  52:   4003 D  4005 D  
  set  53:   4003 D  4005 D  
  set  54:   4003 D  4005 D  
  set  55:   4003 D  4005 D  
  set  56:   4003 D  4005 D  
  set  57:   4003 D  4005 D  
  set  58:   4003 D  4005 D  
  set  59:   4003 D  4005 D  
  set  60:   4003 D  4005 D  
  set  61:   4003 D  4005 D  
  set  62:   4003 D  4005 D  
  set  63:   4003 D  4005 D  
  set  64:   4003 D  4005 D  
  set  65:   4003 D  4005 D  
  set  66:   4003 D  4005 D  423b    
  set  67:   4003 D  4005 D  423b D  
  set  68:   4003 D  4005 D  
  set  69:   4003 D  4005 D  
  set  70:   4003 D  4005 D  
  set  71:   4003 D  4005 D  
  set  72:   4003 D  4005 D  
  set  73:   4003 D  4005 D  
  set  74:   4003 D  4005 D  
  set  75:   4003 D  4005 D  
  set  76:   4003 D  4005 D  
  set  77:   4003 D  4005 D  
  set  78:   4003 D  4005 D  
  set  79:   4003 D  4005 D  423b D  
  set  80:   4003 D  4005 D  423b D  
  set  81:   4003 D  4005 D  423b D  
  set  82:   4003 D  4005 D  423b D  
  set  83:   4003 D  4005 D  423b D  
  set  84:   4003 D  4005 D  
  set  85:   4003 D  4005 D  
  set  86:   4003 D  4005 D  
  set  87:   4003 D  4005 D  
  set  88:   4003 D  4005 D  
  set  89:   4003 D  4005 D  
  set  90:   4003 D  4005 D  
  set  91:   4003 D  4005 D  
  set  92:   4003 D  4005 D  
  set  93:   4003 D  4005 D  
  set  94:   4003 D  4005 D  
  set  95:   4003 D  4005 D  
  set  96:   4003 D  4005 D  
  set  97:   4003 D  4005 D  
  set  98:   4003 D  4005 D  
  set  99:   4003 D  4005 D  
  set 100:   4003 D  4005 D  
  set 101:   4003 D  4005 D  
  set 102:   4003 D  4005 D  
  set 103:   4003 D  
  set 104:   4003 D  4005 D  
  set 105:   4003 D  4005 D  
  set 106:   4003 D  4005 D  
  set 107:   4003 D  4005 D  
  set 108:   4003 D  4005 D  
  set 109:   4003 D  4005 D  
  set 110:   4003 D  4005 D  
  set 111:   4003 D  4005 D  
  set 112:   4003 D  4005 D  
  set 113:   4003 D  4005 D  
  set 114:   4003 D  4005 D  
  set 115:   4003 D  4005 D  
  set 116:   4003 D  4005 D  
  set 117:   4003 D  4005 D  
  set 118:   4003 D  4005 D  
  set 119:   4003 D  4005 D  
  set 120:   4003 D  4005 D  
  set 121:   4003 D  4005 D  
  set 122:   4003 D  4005 D  
  set 123:   4003 D  4005 D  
  set 124:   4003 D  4005 D  
  set 125:   4003 D  4005 D  
  set 126:   4003 D  4005 D  
  set 127:   4003 D  4005 D  
  set 128:   4003 D  4005 D  
  set 129:   4003 D  4005 D  
  set 130:   4003 D  4005 D  
  set 131:   4003 D  4005 D  
  set 132:   4003 D  4005 D  
  set 133:   4003 D  4005 D  
  set 134:   4003 D  4005 D  
  set 135:   4003 D  4005 D  
  set 136:   4003 D  4005 D  
  set 137:   4003 D  4005 D  
  set 138:   4003 D  4005 D  
  set 139:   4003 D  4005 D  
  set 140:   4003 D  4005 D  
  set 141:   4003 D  4005 D  
  set 142:   4003 D  4005 D  
  set 143:   4003 D  4005 D  
  set 144:   4003 D  4005 D  
  set 145:   4003 D  4005 D  
  set 146:   4003 D  4005 D  
  set 147:   4003 D  4005 D  
  set 148:   4003 D  4005 D  
  set 149:   4000    4003 D  4005 D  
  set 150:   4000    4005 D  4003 D  
  set 151:   4000    4005 D  4003 D  
  set 152:   4000    4005 D  4003 D  
  set 153:   4000    4005 D  4003 D  
  set 154:   4000    4005 D  4003 D  
  set 155:   4000    4005 D  4003 D  
  set 156:   4003 D  4005 D  
  set 157:   4005 D  
  set 158:   4005 D  
  set 159:   4005 D  
  set 160:   4003    4005 D  
  set 161:   4005 D  
  set 162:   4003    4005 D  
  set 163:   4003    4005 D  
  set 164:   4003    4005 D  
  set 165:   4003    4005 D  
  set 166:   4003    4005 D  
  set 167:   4005 D  
  set 168:   4005 D  
  set 169:   4005 D  
  set 170:   4005 D  
  set 171:   4005 D  
  set 172:   4003 D  4005 D  
  set 173:   4005 D  4000    
  set 174:   4005 D  
  set 175:   4005 D  
  set 176:   4005 D  
  set 177:   4005 D  
  set 178:   4005 D  
  set 179:   4005 D  
  set 180:   4005 D  4003 D  
  set 181:   4005 D  4003 D  
  set 182:   4005 D  4003 D  
  set 183:   4005 D  4003 D  
  set 184:   4005 D  4003 D  
  set 185:   4005 D  4003 D  
  set 186:   4005 D  4003 D  
  set 187:   4005 D  4003 D  
  set 188:   4005 D  4003 D  
  set 189:   4005 D  4003 D  
  set 190:   4005 D  4003 D  
  set 191:   4005 D  4003 D  
  set 192:   4005 D  4003 D  
  set 193:   4005 D  4003 D  
  set 194:   4005 D  4003 D  
  set 195:   4005 D  
  set 196:   4005 D  
  set 197:   4005 D  
  set 198:   4005 D  
  set 199:   4005 D  
  set 200:   4005 D  
  set 201:   4005 D  
  set 202:   4005 D  
  set 203:   4005 D  
  set 204:   4005 D  
  set 205:   4005 D  
  set 206:   4005 D  
  set 207:   4005    
  set 208:   4005    
  set 209:   4005    
  set 210:   4005    
  set 211:   4005    
  set 212:   4005 D  
  set 213:   4005    
  set 214:   4005    
  set 215:   4005    4002 D  
  set 216:   4005 D  
  set 217:   4005 D  
  set 218:   4005 D  
  set 219:   4005 D  4003 D  
  set 220:   4005 D  4003 D  
  set 221:   4005    4003    4002    
  set 222:   4005    4003    4002    
  set 223:   4003 D  4005 D  4002    
  set 224:   4005 D  4002    
  set 225:   4005 D  4002    
  set 226:   4005 D  
  set 227:   4005    
  set 228:   4005    
  set 229:   4005    
  set 230:   
  set 231:   
  set 232:   4005 D  
  set 233:   4005 D  
  set 234:   4005 D  4002    
  set 235:   4005 D  
  set 236:   4005 D  
  set 237:   4005 D  
  set 238:   4005 D  
  set 239:   4005 D  4235    
  set 240:   4005 D  4235    
  set 241:   4005 D  4235    
  set 242:   4235    
  set 243:   
  set 244:   4003 D  
  set 245:   4003 D  
  set 246:   
  set 247:   
  set 248:   
  set 249:   
  set 250:   4003 D  
  set 251:   4003 D  
  set 252:   4003    4000    
  set 253:   4003 D  4000    
  set 254:   4003 D  
  set 255:   
  set 256:   
  set 257:   
  set 258:   
  set 259:   
  set 260:   
  set 261:   
  set 262:   4003 D  
  set 263:   4000    
  set 264:   4000    
  set 265:   4000    
  set 266:   4000    
  set 267:   4003 D  4000    
  set 268:   
  set 269:   
  set 270:   
  set 271:   
  set 272:   
  set 273:   
  set 274:   
  set 275:   4003 D  
  set 276:   4003 D  
  set 277:   
  set 278:   
  set 279:   
  set 280:   4003 D  
  set 281:   4003 D  
  set 282:   4003 D  
  set 283:   4003 D  
  set 284:   4000 D  
  set 285:   4003 D  
  set 286:   
  set 287:   
  set 288:   4003 D  
  set 289:   
  set 290:   4003 D  
  set 291:   4000    
  set 292:   4003 D  4000    
  set 293:   4003 D  4000    
  set 294:   4003 D  
  set 295:   
  set 296:   4003 D  
  set 297:   4003 D  
  set 298:   
  set 299:   
  set 300:   
  set 301:   
  set 302:   4000    
  set 303:   4000    
  set 304:   
  set 305:   4003 D  4000    
  set 306:   4004    4003    
  set 307:   
  set 308:   
  set 309:   4003 D  4004 D  
  set 310:   
  set 311:   4000    
  set 312:   
  set 313:   4003 D  
  set 314:   
  set 315:   
  set 316:   4003 D  
  set 317:   
  set 318:   4000    
  set 319:   
  set 320:   
  set 321:   
  set 322:   4000    
  set 323:   
  set 324:   4004    
  set 325:   
  set 326:   
  set 327:   
  set 328:   
  set 329:   
  set 330:   4004 D  4003 D  
  set 331:   4004 D  4003 D  
  set 332:   4004 D  4003 D  4000    
  set 333:   4004 D  
  set 334:   4004 D  4003 D  
  set 335:   4004 D  
  set 336:   4004 D  
  set 337:   4004 D  
  set 338:   4004 D  
  set 339:   4004 D  4003 D  
  set 340:   4004 D  
  set 341:   4004 D  
  set 342:   4004 D  
  set 343:   4004 D  
  set 344:   4004 D  
  set 345:   4004 D  4003 D  
  set 346:   4004 D  
  set 347:   4004 D  4003 D  
  set 348:   4004 D  
  set 349:   4004 D  
  set 350:   4004 D  4235    
  set 351:   4004 D  4235    
  set 352:   4004 D  
  set 353:   4004 D  
  set 354:   4004 D  
  set 355:   4004 D  4003 D  
  set 356:   4004 D  
  set 357:   4004 D  4003 D  4002 D  
  set 358:   4004 D  4002 D  
  set 359:   4004 D  
  set 360:   4004 D  4003 D  
  set 361:   4004 D  4003 D  
  set 362:   4004 D  
  set 363:   4004 D  
  set 364:   4004 D  4003 D  
  set 365:   4004 D  
  set 366:   4004 D  4003 D  
  set 367:   4004 D  4002 D  
  set 368:   4005 D  4004 D  
  set 369:   4005 D  4004 D  4003 D  
  set 370:   4005 D  4004 D  4003 D  4002 D  
  set 371:   4005 D  4004 D  4002 D  
  set 372:   4005 D  4004 D  4003 D  4002 D  
  set 373:   4005 D  4004 D  
  set 374:   4005 D  4004 D  
  set 375:   4005 D  4004 D  
  set 376:   4005 D  4004 D  4003 D  
  set 377:   4005 D  4004 D  4003 D  
  set 378:   4005 D  4004 D  
  set 379:   4005 D  4004 D  
  set 380:   4005 D  4004 D  
  set 381:   4005 D  4004 D  
  set 382:   4005 D  4004 D  
  set 383:   4003 D  4005 D  4004 D  
  set 384:   4003 D  4005 D  4004 D  
  set 385:   4003 D  4005 D  4004 D  
  set 386:   4003 D  4005 D  4004 D  
  set 387:   4005 D  4004 D  
  set 388:   4005 D  4004 D  
  set 389:   4005 D  4004 D  
  set 390:   4005 D  4004 D  
  set 391:   4005 D  4004 D  
  set 392:   4005 D  4004 D  
  set 393:   4005 D  4004 D  
  set 394:   4005 D  4004 D  
  set 395:   4005 D  4004 D  4003 D  
  set 396:   4005 D  4004 D  4003 D  
  set 397:   4005 D  4004 D  4003    
  set 398:   4005 D  4004 D  4003 D  
  set 399:   4005 D  4004 D  4003 D  
  set 400:   4005 D  4004 D  4003 D  
  set 401:   4005 D  4004 D  4003 D  
  set 402:   4005 D  4004 D  4003 D  
  set 403:   4005 D  4004 D  4003 D  
  set 404:   4005 D  4004 D  4003 D  
  set 405:   4005 D  4004 D  4003 D  
  set 406:   4005 D  4004 D  4003 D  
  set 407:   4005 D  4004 D  4003 D  
  set 408:   4005 D  4004 D  4003 D  
  set 409:   4005 D  4004 D  4003 D  
  set 410:   4005 D  4004 D  4003 D  
  set 411:   4005 D  4004 D  4003 D  
  set 412:   4005 D  4004 D  4003 D  
  set 413:   4005 D  4004 D  4003 D  
  set 414:   4005 D  4004 D  4003 D  
  set 415:   4004 D  4005 D  4003 D  4000    
  set 416:   4005 D  4004 D  4003 D  4000    
  set 417:   4005 D  4004 D  4003 D  
  set 418:   4005 D  4004 D  4003 D  
  set 419:   4005 D  4004 D  4003 D  
  set 420:   4005 D  4004 D  4003 D  
  set 421:   4005 D  4004 D  4003 D  
  set 422:   4005 D  4004 D  4003 D  
  set 423:   4004 D  4005 D  4003 D  
  set 424:   4005 D  4004 D  4003 D  
  set 425:   4005 D  4004 D  4003 D  
  set 426:   4005 D  4004 D  4003 D  
  set 427:   4005 D  4004 D  4003 D  
  set 428:   4005 D  4004 D  4003 D  
  set 429:   4005 D  4004 D  4003 D  
  set 430:   4005 D  4004 D  4003 D  
  set 431:   4005 D  4004 D  4003 D  
  set 432:   4005 D  4004 D  4003 D  
  set 433:   4005 D  4004 D  4003 D  
  set 434:   4005 D  4004 D  4003 D  
  set 435:   4005 D  4004 D  4003 D  
  set 436:   4005 D  4004 D  4003 D  
  set 437:   4005 D  4004 D  4003 D  
  set 438:   4004 D  4005 D  4003 D  
  set 439:   4005 D  4004 D  4003 D  
  set 440:   4005 D  4004 D  4003 D  
  set 441:   4005 D  4004 D  4003 D  
  set 442:   4005 D  4004 D  4003 D  
  set 443:   4005 D  4004 D  4003 D  4002 D  
  set 444:   4005 D  4004 D  4003 D  
  set 445:   4005 D  4004 D  4003 D  4002 D  
  set 446:   4005 D  4004 D  4003 D  
  set 447:   4005 D  4004 D  4003 D  
  set 448:   4005 D  4004 D  4003 D  
  set 449:   4005 D  4004 D  4003 D  
  set 450:   4005 D  4004 D  4003 D  
  set 451:   4005 D  4004 D  4003 D  
  set 452:   4005 D  4004 D  4003 D  4002 D  
  set 453:   4005 D  4004 D  4003 D  
  set 454:   4005 D  4004 D  4003 D  
  set 455:   4005 D  4004 D  4003 D  4000    
  set 456:   7b03    4005 D  4004 D  4003 D  4000    
  set 457:   7b03 D  4005 D  4004 D  4003 D  4000    
  set 458:   4005 D  4004 D  4003 D  
  set 459:   7b03 D  4005 D  4004 D  4003 D  4002 D  
  set 460:   4005 D  4004 D  4003 D  
  set 461:   4005 D  4004 D  4003 D  
  set 462:   4005 D  4004 D  4003 D  
  set 463:   4005 D  4004 D  4003 D  7b03 D  
  set 464:   7b03 D  4005 D  4004 D  4003 D  
  set 465:   4005 D  4004 D  4003 D  
  set 466:   4005 D  4004 D  4003 D  4002 D  
  set 467:   4005 D  4004 D  4003 D  4002    
  set 468:   4005 D  4004 D  4003 D  
  set 469:   4005 D  4004 D  4003 D  
  set 470:   4005 D  4004 D  4003 D  4002 D  
  set 471:   4005 D  4004 D  4003 D  7b03 D  
  set 472:   4005 D  4004 D  4003 D  
  set 473:   4005 D  4004 D  4003 D  4002 D  
  set 474:   4005 D  4004 D  4003 D  
  set 475:   4005 D  4004 D  4003 D  4002 D  
  set 476:   4005 D  4004 D  4003 D  7b03 D  
  set 477:   4005 D  4004 D  4003 D  7b03 D  
  set 478:   4005 D  4004 D  4003 D  7b03 D  
  set 479:   4005 D  4004 D  4003 D  7b03 D  
  set 480:   4005 D  4004 D  4003 D  
  set 481:   4005 D  4003 D  4004 D  
  set 482:   4005 D  4004 D  4003 D  
  set 483:   4005 D  4004 D  4003 D  
  set 484:   4005 D  4004 D  4003 D  4002    
  set 485:   4005 D  4004 D  4003 D  
  set 486:   4005 D  4004 D  4003 D  
  set 487:   4005 D  4004 D  4003 D  
  set 488:   4005 D  4004 D  4003 D  
  set 489:   4005 D  4003 D  4004 D  
  set 490:   4005 D  4004 D  4003 D  
  set 491:   4005 D  4004 D  4003 D  
  set 492:   4005 D  4004 D  4003 D  
  set 493:   4005 D  4004 D  4003 D  
  set 494:   4005 D  4004 D  4003 D  
  set 495:   4005 D  4004 D  4003 D  
  set 496:   4005 D  4004 D  4003 D  
  set 497:   4005 D  4004 D  4003 D  
  set 498:   4005 D  4004 D  4003 D  
  set 499:   4005 D  4004 D  4003 D  
  set 500:   4005 D  4004 D  4003 D  
  set 501:   4005 D  4004 D  4003 D  
  set 502:   4005 D  4004 D  4003 D  
  set 503:   4005 D  4004 D  4003 D  
  set 504:   4003 D  4005 D  4004 D  
  set 505:   4005 D  4004 D  4003 D  
  set 506:   4005 D  4004 D  4003 D  
  set 507:   4005 D  4004 D  4003 D  
  set 508:   4005 D  4004 D  4003 D  
  set 509:   4005 D  4004 D  4003 D  
  set 510:   4005 D  4004 D  4003 D  
  set 511:   4005 D  4004 D  4003 D  
  set 512:   4005 D  4004 D  4003 D  
  set 513:   4005 D  4004 D  4003 D  
  set 514:   4005 D  4004 D  4003 D  
  set 515:   4005 D  4004 D  4003 D  
  set 516:   4005 D  4004 D  4003 D  
  set 517:   4005 D  4004 D  4003 D  
  set 518:   4005 D  4004 D  4003 D  
  set 519:   4005 D  4004 D  4003 D  38    
  set 520:   4005 D  4004 D  4003 D  38    
  set 521:   4005 D  4004 D  4003 D  38    
  set 522:   4005 D  4004 D  4003 D  
  set 523:   4005 D  4004 D  4003 D  
  set 524:   4005 D  4004 D  4003 D  
  set 525:   4005 D  4004 D  4003 D  
  set 526:   4005 D  4004 D  4003 D  
  set 527:   4005 D  4004 D  4003 D  
  set 528:   4005 D  4004 D  4003 D  
  set 529:   4005 D  4004 D  4003 D  
  set 530:   4005 D  4004 D  4003 D  
  set 531:   4005 D  4004 D  4003 D  
  set 532:   4005 D  4004 D  4003 D  
  set 533:   4005 D  4004 D  4003 D  
  set 534:   4005 D  4004 D  4003 D  
  set 535:   4005 D  4004 D  4003 D  
  set 536:   4005 D  4004 D  4003 D  
  set 537:   4005 D  4004 D  4003 D  
  set 538:   4005 D  4004 D  4003 D  
  set 539:   4005 D  4004 D  4003 D  
  set 540:   4005 D  4004 D  4003 D  7b03    
  set 541:   4005 D  4004 D  4003 D  7b03 D  
  set 542:   4005 D  4004 D  4003 D  7b03 D  
  set 543:   4005 D  4004 D  4003 D  7b03    
  set 544:   4005 D  4004 D  4003 D  7b03    
  set 545:   4005 D  4004 D  4003 D  7b03    
  set 546:   4005 D  4004 D  4003 D  7b03    
  set 547:   4005 D  4004 D  4003 D  7b03    
  set 548:   4005 D  4004 D  4003 D  
  set 549:   4005 D  4004 D  4003 D  7b03 D  
  set 550:   4005 D  4004 D  4003 D  7b03 D  
  set 551:   4005 D  4004 D  4003 D  7b03 D  
  set 552:   4005 D  4004 D  4003 D  7b03 D  
  set 553:   4005 D  4004 D  4003 D  7b03    
  set 554:   4005 D  4004 D  4003 D  
  set 555:   4005 D  4004 D  4003 D  
  set 556:   4005 D  4004 D  4003 D  
  set 557:   4004 D  4005 D  4003 D  7b03    
  set 558:   4005 D  4003 D  7b03    
  set 559:   4004 D  4005 D  4003 D  7b03    
  set 560:   4004 D  4005 D  4003 D  
  set 561:   4005 D  4003 D  
  set 562:   4004    4005 D  4003 D  
  set 563:   4005 D  4003 D  
  set 564:   4005 D  4003 D  
  set 565:   4005 D  4003 D  
  set 566:   4004 D  4005 D  4003 D  
  set 567:   4005 D  4003 D  
  set 568:   4005 D  4003 D  
  set 569:   4005 D  4003 D  
  set 570:   4005 D  4003 D  
  set 571:   4005 D  4003 D  
  set 572:   4005 D  4003 D  
  set 573:   4005 D  4003 D  
  set 574:   4005 D  4003 D  
  set 575:   4005 D  4003 D  
  set 576:   4005 D  4003 D  
  set 577:   4005 D  4003 D  
  set 578:   4005 D  4003 D  
  set 579:   4005 D  4003 D  
  set 580:   4005 D  4003 D  
  set 581:   4005 D  4003 D  
  set 582:   4005 D  4003 D  
  set 583:   4005 D  4003 D  
  set 584:   4005 D  4003 D  
  set 585:   4005 D  4003 D  
  set 586:   4005 D  4003 D  
  set 587:   4005 D  4003 D  
  set 588:   4005 D  4003 D  
  set 589:   4005 D  4003 D  
  set 590:   4005 D  4003 D  
  set 591:   4005 D  4003 D  
  set 592:   4005 D  4003 D  
  set 593:   4005 D  4003 D  7b03    
  set 594:   4005 D  4003 D  7b03    
  set 595:   4005 D  4003 D  7b03    
  set 596:   4005 D  4003 D  
  set 597:   4005 D  4003 D  
  set 598:   4005 D  4003 D  
  set 599:   4005 D  4003 D  4235    
  set 600:   4005 D  4003 D  
  set 601:   4005 D  4003 D  
  set 602:   4005 D  4003 D  
  set 603:   4005 D  4003 D  4235 D  
  set 604:   4005 D  4003 D  4235    
  set 605:   4005 D  4003 D  7b03    4235    
  set 606:   4005 D  4003 D  4235    
  set 607:   4005 D  4003 D  
  set 608:   4005 D  4003 D  7b03 D  
  set 609:   4005 D  4003 D  4235 D  
  set 610:   4005 D  4003 D  4235    7b03 D  
  set 611:   4005 D  4003 D  4235    7b03 D  
  set 612:   4005 D  4003 D  4235    7b03 D  
  set 613:   4005 D  4003 D  7b03 D  
  set 614:   4005 D  4003 D  7b03 D  
  set 615:   4005 D  4003 D  7b03 D  
  set 616:   4005 D  4003 D  4235    7b03 D  
  set 617:   4005 D  4003 D  4235    7b03 D  
  set 618:   4005 D  4003 D  7b03 D  
  set 619:   4005 D  4003 D  7b03 D  
  set 620:   4005 D  4003 D  4235    7b03 D  
  set 621:   4005 D  4003 D  4235    7b03 D  
  set 622:   4005 D  4003 D  4235    7b03 D  
  set 623:   4005 D  7b03 D  
  set 624:   4005 D  
  set 625:   4005 D  4000    7b03 D  4235    
  set 626:   4005 D  
  set 627:   4005 D  4000    
  set 628:   4005 D  4000    7b03 D  
  set 629:   4005 D  4000    4235    
  set 630:   4005 D  4000    7b03 D  
  set 631:   4005 D  4000    4235    
  set 632:   4005 D  4000    7b03 D  4235    
  set 633:   4005 D  4000    7b03 D  4235    
  set 634:   4005 D  4000    7b03 D  4235    
  set 635:   4005 D  4000    7b03 D  4235    
  set 636:   4005 D  4003 D  4000    7b03 D  4235    
  set 637:   4005 D  4003 D  4000    7b03 D  4235    
  set 638:   4003 D  4005 D  4000    7b03 D  
  set 639:   4003 D  4005 D  4000    7b03 D  
  set 640:   4005 D  4000    7b03 D  4235    
  set 641:   4005 D  4000    7b03 D  4235    
  set 642:   4005 D  4000    7b03 D  4235    
  set 643:   4005 D  4000    7b03 D  4235    
  set 644:   4005 D  4000    7b03 D  
  set 645:   4005 D  4000    7b03 D  4235    
  set 646:   4005 D  4000    4235    
  set 647:   4005 D  4235    
  set 648:   4005 D  4235    
  set 649:   4005 D  4235    
  set 650:   4005 D  7b03 D  4235 D  
  set 651:   4005 D  7b03 D  4235    
  set 652:   4005 D  7b03 D  4235    
  set 653:   4005 D  4235    
  set 654:   4003 D  4005 D  4235 D  
  set 655:   4005 D  4235 D  
  set 656:   4005 D  7b03 D  
  set 657:   4005 D  
  set 658:   4005 D  4003 D  7b03 D  4235    
  set 659:   4005 D  4003    7b03 D  4235    
  set 660:   4005 D  4235    
  set 661:   4005 D  4235    
  set 662:   4005 D  4235    
  set 663:   4005 D  4003    4235    
  set 664:   4005 D  4235    
  set 665:   4005 D  4235    
  set 666:   4005 D  4235    
  set 667:   4005 D  4235    
  set 668:   4005 D  4235 D  
  set 669:   4005 D  4235    
  set 670:   4005 D  4235    
  set 671:   4003 D  4005 D  4235    
  set 672:   4005 D  4235    
  set 673:   4005 D  
  set 674:   4005 D  4235    
  set 675:   4005 D  4235 D  
  set 676:   4005 D  4235    
  set 677:   4005 D  4235 D  
  set 678:   4005 D  4235 D  
  set 679:   4005 D  4235 D  
  set 680:   4003    4005 D  
  set 681:   4003    4005 D  4235    
  set 682:   4003    4005 D  4235    
  set 683:   4003    4005 D  4235    
  set 684:   4003    4005 D  
  set 685:   4005 D  
  set 686:   4005 D  4235    
  set 687:   4005 D  4235    
  set 688:   4003    4005 D  4235    
  set 689:   4005 D  4235    
  set 690:   4005 D  4235    
  set 691:   4005 D  4235    
  set 692:   4005 D  4235    
  set 693:   4005 D  4235 D  
  set 694:   4005 D  4235 D  
  set 695:   4005 D  4235    
  set 696:   4005 D  4235 D  
  set 697:   4005 D  4235    
  set 698:   4003 D  4005 D  4235    
  set 699:   4003 D  4005 D  4235    
  set 700:   4003    4005 D  4235    
  set 701:   4003 D  4005 D  4235    
  set 702:   4005 D  
  set 703:   4005 D  
  set 704:   4005 D  
  set 705:   4005 D  
  set 706:   4005 D  
  set 707:   4003    4005 D  4235    
  set 708:   4003 D  4005 D  4235 D  
  set 709:   4005 D  4235    
  set 710:   4003 D  4005 D  4235    
  set 711:   4003    4005 D  
  set 712:   4005 D  4235    
  set 713:   4005 D  4235    
  set 714:   4005 D  4235    
  set 715:   4005 D  4235    
  set 716:   4005 D  
  set 717:   4005 D  
  set 718:   4005 D  4003    4235    
  set 719:   4005 D  4235    
  set 720:   4005 D  
  set 721:   4005 D  
  set 722:   4005 D  
  set 723:   4005 D  
  set 724:   4003 D  4005 D  
  set 725:   4003 D  4005 D  
  set 726:   4003 D  4005 D  
  set 727:   4005 D  
  set 728:   4005 D  
  set 729:   4005 D  
  set 730:   4005 D  
  set 731:   4005 D  
  set 732:   4003 D  4005 D  
  set 733:   4005 D  
  set 734:   4003 D  4005 D  
  set 735:   4003 D  4005 D  
  set 736:   4005 D  
  set 737:   4005 D  4003 D  
  set 738:   4005 D  
  set 739:   4005 D  
  set 740:   4005 D  
  set 741:   4005 D  
  set 742:   4005 D  
  set 743:   4005 D  
  set 744:   4005 D  
  set 745:   4005 D  
  set 746:   4003 D  4005 D  
  set 747:   4005 D  
  set 748:   4005 D  
  set 749:   4005 D  
  set 750:   4005 D  
  set 751:   4005 D  
  set 752:   4005 D  
  set 753:   4005 D  
  set 754:   4005 D  
  set 755:   4005 D  
  set 756:   4005 D  
  set 757:   4005 D  
  set 758:   4005 D  
  set 759:   4003 D  4005 D  
  set 760:   4005 D  
  set 761:   4005 D  
  set 762:   4005 D  
  set 763:   4005 D  
  set 764:   4003 D  4005 D  
  set 765:   4003 D  4005 D  
  set 766:   4005 D  
  set 767:   4005 D  
  set 768:   4005 D  
  set 769:   4005 D  
  set 770:   4005 D  
  set 771:   4003 D  4005 D  
  set 772:   4005 D  
  set 773:   4005 D  
  set 774:   4005 D  
  set 775:   4005 D  
  set 776:   4005 D  
  set 777:   4005 D  
  set 778:   4005 D  
  set 779:   4005 D  
  set 780:   4005 D  
  set 781:   4005 D  
  set 782:   4005 D  
  set 783:   4005 D  
  set 784:   4005 D  
  set 785:   4005 D  
  set 786:   4005 D  
  set 787:   4005 D  
  set 788:   4005 D  
  set 789:   
  set 790:   
  set 791:   
  set 792:   
  set 793:   
  set 794:   4003 D  
  set 795:   
  set 796:   
  set 797:   
  set 798:   
  set 799:   
  set 800:   
  set 801:   4013    
  set 802:   
  set 803:   
  set 804:   4013    
  set 805:   4003 D  
  set 806:   4003 D  4013    
  set 807:   4003 D  
  set 808:   4003 D  4013 D  
  set 809:   4003 D  
  set 810:   4003 D  
  set 811:   4003 D  
  set 812:   
  set 813:   4003 D  
  set 814:   4003 D  
  set 815:   4003 D  
  set 816:   
  set 817:   
  set 818:   
  set 819:   
  set 820:   
  set 821:   
  set 822:   
  set 823:   4004 D  
  set 824:   4004 D  
  set 825:   
  set 826:   
  set 827:   
  set 828:   
  set 829:   4003 D  
  set 830:   4003 D  4013    
  set 831:   
  set 832:   4013 D  
  set 833:   4003 D  
  set 834:   
  set 835:   
  set 836:   
  set 837:   
  set 838:   
  set 839:   
  set 840:   
  set 841:   
  set 842:   
  set 843:   
  set 844:   
  set 845:   
  set 846:   
  set 847:   
  set 848:   
  set 849:   
  set 850:   
  set 851:   
  set 852:   
  set 853:   
  set 854:   
  set 855:   
  set 856:   
  set 857:   4003 D  
  set 858:   4003 D  
  set 859:   4003 D  
  set 860:   4003 D  
  set 861:   4003 D  
  set 862:   
  set 863:   
  set 864:   
  set 865:   
  set 866:   
  set 867:   
  set 868:   
  set 869:   
  set 870:   
  set 871:   
  set 872:   
  set 873:   
  set 874:   
  set 875:   
  set 876:   
  set 877:   
  set 878:   4003 D  
  set 879:   4003 D  
  set 880:   
  set 881:   4003 D  
  set 882:   
  set 883:   
  set 884:   
  set 885:   
  set 886:   
  set 887:   
  set 888:   
  set 889:   
  set 890:   
  set 891:   
  set 892:   
  set 893:   
  set 894:   
  set 895:   
  set 896:   
  set 897:   
  set 898:   
  set 899:   
  set 900:   
  set 901:   
  set 902:   
  set 903:   
  set 904:   
  set 905:   
  set 906:   
  set 907:   
  set 908:   
  set 909:   
  set 910:   
  set 911:   
  set 912:   
  set 913:   
  set 914:   
  set 915:   
  set 916:   
  set 917:   
  set 918:   
  set 919:   
  set 920:   
  set 921:   
  set 922:   
  set 923:   
  set 924:   
  set 925:   
  set 926:   
  set 927:   
  set 928:   
  set 929:   
  set 930:   
  set 931:   
  set 932:   
  set 933:   
  set 934:   
  set 935:   
  set 936:   
  set 937:   
  set 938:   
  set 939:   4002    
  set 940:   4002    
  set 941:   4002    
  set 942:   4002    
  set 943:   4002    
  set 944:   
  set 945:   4002    
  set 946:   4002    
  set 947:   
  set 948:   
  set 949:   
  set 950:   
  set 951:   4003 D  
  set 952:   4003 D  4004    
  set 953:   4004    
  set 954:   4004    
  set 955:   4004 D  
  set 956:   
  set 957:   
  set 958:   
  set 959:   
  set 960:   
  set 961:   df    
  set 962:   
  set 963:   4003 D  
  set 964:   
  set 965:   
  set 966:   4003 D  
  set 967:   
  set 968:   
  set 969:   4003 D  
  set 970:   
  set 971:   
  set 972:   4004    
  set 973:   
  set 974:   
  set 975:   
  set 976:   
  set 977:   
  set 978:   
  set 979:   4003 D  
  set 980:   
  set 981:   
  set 982:   
  set 983:   
  set 984:   
  set 985:   
  set 986:   
  set 987:   
  set 988:   4003 D  
  set 989:   4003 D  
  set 990:   df    
  set 991:   df    
  set 992:   
  set 993:   
  set 994:   df    
  set 995:   
  set 996:   
  set 997:   
  set 998:   
  set 999:   
  set1000:   df    
  set1001:   
  set1002:   
  set1003:   
  set1004:   
  set1005:   
  set1006:   df    
  set1007:   
  set1008:   
  set1009:   
  set1010:   
  set1011:   df    
  set1012:   4004    
  set1013:   4004    
  set1014:   4004    
  set1015:   4004    
  set1016:   4004    
  set1017:   4004    df    
  set1018:   4004    4003    
  set1019:   4004    
  set1020:   4004    df    
  set1021:   
  set1022:   4003 D  
  set1023:   df    
  set1024:   df    
  set1025:   
  set1026:   
  set1027:   df    
  set1028:   
  set1029:   
  set1030:   
  set1031:   
  set1032:   
  set1033:   df    
  set1034:   
  set1035:   
  set1036:   
  set1037:   
  set1038:   
  set1039:   
  set1040:   
  set1041:   4003    
  set1042:   4004    4003 D  
  set1043:   4003 D  
  set1044:   4003    df    
  set1045:   4003 D  4004    
  set1046:   4004 D  
  set1047:   4004    
  set1048:   4004    
  set1049:   
  set1050:   4004    
  set1051:   
  set1052:   
  set1053:   4004    df    
  set1054:   4003    4004 D  
  set1055:   4004 D  4003    
  set1056:   
  set1057:   4004    df    
  set1058:   4004    df    
  set1059:   
  set1060:   
  set1061:   4004    
  set1062:   df    
  set1063:   df    
  set1064:   
  set1065:   
  set1066:   
  set1067:   
  set1068:   
  set1069:   
  set1070:   
  set1071:   df    
  set1072:   
  set1073:   df    
  set1074:   df    
  set1075:   df    
  set1076:   df    
  set1077:   
  set1078:   
  set1079:   
  set1080:   
  set1081:   df    
  set1082:   df    
  set1083:   df    
  set1084:   
  set1085:   
  set1086:   
  set1087:   
  set1088:   
  set1089:   df    
  set1090:   4013 D  
  set1091:   
  set1092:   
  set1093:   
  set1094:   
  set1095:   df    
  set1096:   
  set1097:   4013 D  
  set1098:   4013 D  
  set1099:   
  set1100:   
  set1101:   
  set1102:   
  set1103:   
  set1104:   
  set1105:   
  set1106:   
  set1107:   df    
  set1108:   
  set1109:   
  set1110:   
  set1111:   
  set1112:   
  set1113:   4013 D  
  set1114:   
  set1115:   
  set1116:   
  set1117:   
  set1118:   
  set1119:   
  set1120:   
  set1121:   
  set1122:   
  set1123:   
  set1124:   
  set1125:   
  set1126:   
  set1127:   
  set1128:   
  set1129:   
  set1130:   
  set1131:   
  set1132:   
  set1133:   
  set1134:   
  set1135:   
  set1136:   df    
  set1137:   df    
  set1138:   
  set1139:   
  set1140:   
  set1141:   4013 D  
  set1142:   
  set1143:   
  set1144:   
  set1145:   
  set1146:   4013 D  
  set1147:   
  set1148:   
  set1149:   
  set1150:   
  set1151:   
  set1152:   
  set1153:   4013    
  set1154:   
  set1155:   4013    
  set1156:   
  set1157:   
  set1158:   
  set1159:   
  set1160:   
  set1161:   
  set1162:   4235    
  set1163:   
  set1164:   
  set1165:   
  set1166:   
  set1167:   
  set1168:   
  set1169:   
  set1170:   4002    df    
  set1171:   
  set1172:   4002    
  set1173:   
  set1174:   
  set1175:   4002    
  set1176:   4002    
  set1177:   
  set1178:   
  set1179:   
  set1180:   
  set1181:   
  set1182:   4003 D  
  set1183:   
  set1184:   
  set1185:   
  set1186:   
  set1187:   
  set1188:   4003 D  
  set1189:   
  set1190:   
  set1191:   
  set1192:   df    
  set1193:   
  set1194:   4013 D  
  set1195:   
  set1196:   
  set1197:   
  set1198:   
  set1199:   
  set1200:   
  set1201:   4013    
  set1202:   
  set1203:   
  set1204:   
  set1205:   
  set1206:   
  set1207:   
  set1208:   
  set1209:   
  set1210:   
  set1211:   
  set1212:   4013    
  set1213:   
  set1214:   
  set1215:   
  set1216:   
  set1217:   
  set1218:   
  set1219:   
  set1220:   
  set1221:   
  set1222:   
  set1223:   
  set1224:   
  set1225:   
  set1226:   
  set1227:   4013 D  
  set1228:   
  set1229:   
  set1230:   
  set1231:   
  set1232:   
  set1233:   
  set1234:   4013    
  set1235:   
  set1236:   4013    
  set1237:   
  set1238:   
  set1239:   
  set1240:   df    
  set1241:   
  set1242:   
  set1243:   
  set1244:   
  set1245:   4013    
  set1246:   
  set1247:   
  set1248:   
  set1249:   
  set1250:   
  set1251:   
  set1252:   
  set1253:   4013    
  set1254:   df    
  set1255:   
  set1256:   
  set1257:   
  set1258:   
  set1259:   
  set1260:   df    
  set1261:   4013    
  set1262:   4013 D  
  set1263:   
  set1264:   4003    
  set1265:   
  set1266:   
  set1267:   
  set1268:   
  set1269:   
  set1270:   4003 D  
  set1271:   
  set1272:   df    
  set1273:   
  set1274:   
  set1275:   
  set1276:   
  set1277:   
  set1278:   
  set1279:   
  set1280:   
  set1281:   
  set1282:   
  set1283:   
  set1284:   
  set1285:   
  set1286:   
  set1287:   
  set1288:   
  set1289:   4213    
  set1290:   
  set1291:   
  set1292:   
  set1293:   
  set1294:   4003 D  
  set1295:   4003 D  
  set1296:   4003 D  
  set1297:   4003 D  
  set1298:   4003 D  4213    
  set1299:   4003 D  
  set1300:   
  set1301:   df    
  set1302:   df    
  set1303:   
  set1304:   
  set1305:   
  set1306:   
  set1307:   
  set1308:   
  set1309:   4003 D  
  set1310:   
  set1311:   4003 D  
  set1312:   
  set1313:   
  set1314:   
  set1315:   
  set1316:   
  set1317:   
  set1318:   
  set1319:   
  set1320:   
  set1321:   
  set1322:   
  set1323:   
  set1324:   4002 D  
  set1325:   4002    
  set1326:   
  set1327:   
  set1328:   
  set1329:   4002 D  
  set1330:   
  set1331:   
  set1332:   
  set1333:   
  set1334:   
  set1335:   df    
  set1336:   
  set1337:   
  set1338:   
  set1339:   
  set1340:   4002 D  
  set1341:   
  set1342:   4002    
  set1343:   4003 D  
  set1344:   4002 D  
  set1345:   
  set1346:   
  set1347:   
  set1348:   
  set1349:   
  set1350:   
  set1351:   
  set1352:   
  set1353:   
  set1354:   
  set1355:   
  set1356:   
  set1357:   df    
  set1358:   
  set1359:   
  set1360:   
  set1361:   
  set1362:   
  set1363:   
  set1364:   
  set1365:   
  set1366:   
  set1367:   
  set1368:   
  set1369:   
  set1370:   
  set1371:   
  set1372:   
  set1373:   
  set1374:   
  set1375:   
  set1376:   
  set1377:   
  set1378:   
  set1379:   
  set1380:   
  set1381:   
  set1382:   
  set1383:   
  set1384:   
  set1385:   
  set1386:   
  set1387:   
  set1388:   
  set1389:   
  set1390:   
  set1391:   
  set1392:   
  set1393:   
  set1394:   
  set1395:   
  set1396:   
  set1397:   
  set1398:   
  set1399:   
  set1400:   
  set1401:   
  set1402:   
  set1403:   
  set1404:   
  set1405:   df    
  set1406:   
  set1407:   
  set1408:   
  set1409:   
  set1410:   
  set1411:   
  set1412:   
  set1413:   
  set1414:   
  set1415:   
  set1416:   
  set1417:   
  set1418:   
  set1419:   df    
  set1420:   
  set1421:   
  set1422:   df    
  set1423:   df    
  set1424:   
  set1425:   
  set1426:   
  set1427:   
  set1428:   
  set1429:   
  set1430:   
  set1431:   
  set1432:   
  set1433:   
  set1434:   
  set1435:   
  set1436:   
  set1437:   
  set1438:   
  set1439:   
  set1440:   
  set1441:   
  set1442:   
  set1443:   
  set1444:   
  set1445:   
  set1446:   
  set1447:   
  set1448:   
  set1449:   
  set1450:   
  set1451:   
  set1452:   
  set1453:   
  set1454:   
  set1455:   
  set1456:   
  set1457:   
  set1458:   
  set1459:   
  set1460:   
  set1461:   
  set1462:   
  set1463:   
  set1464:   
  set1465:   
  set1466:   
  set1467:   
  set1468:   
  set1469:   
  set1470:   
  set1471:   
  set1472:   
  set1473:   
  set1474:   
  set1475:   
  set1476:   
  set1477:   
  set1478:   
  set1479:   
  set1480:   
  set1481:   
  set1482:   
  set1483:   
  set1484:   
  set1485:   
  set1486:   
  set1487:   
  set1488:   
  set1489:   
  set1490:   
  set1491:   
  set1492:   
  set1493:   
  set1494:   
  set1495:   
  set1496:   
  set1497:   
  set1498:   
  set1499:   
  set1500:   
  set1501:   
  set1502:   
  set1503:   
  set1504:   
  set1505:   
  set1506:   
  set1507:   
  set1508:   
  set1509:   
  set1510:   
  set1511:   
  set1512:   
  set1513:   
  set1514:   
  set1515:   
  set1516:   
  set1517:   
  set1518:   
  set1519:   
  set1520:   
  set1521:   
  set1522:   
  set1523:   
  set1524:   
  set1525:   
  set1526:   
  set1527:   
  set1528:   
  set1529:   
  set1530:   
  set1531:   
  set1532:   
  set1533:   
  set1534:   
  set1535:   
  set1536:   
  set1537:   
  set1538:   
  set1539:   
  set1540:   
  set1541:   
  set1542:   
  set1543:   
  set1544:   
  set1545:   
  set1546:   
  set1547:   
  set1548:   
  set1549:   
  set1550:   
  set1551:   
  set1552:   
  set1553:   
  set1554:   
  set1555:   4213    
  set1556:   
  set1557:   
  set1558:   
  set1559:   
  set1560:   4213    
  set1561:   4213    
  set1562:   4214 D  
  set1563:   
  set1564:   
  set1565:   
  set1566:   
  set1567:   
  set1568:   
  set1569:   
  set1570:   
  set1571:   
  set1572:   4214 D  
  set1573:   
  set1574:   
  set1575:   
  set1576:   
  set1577:   
  set1578:   
  set1579:   4214    
  set1580:   4214 D  
  set1581:   
  set1582:   
  set1583:   
  set1584:   
  set1585:   
  set1586:   
  set1587:   
  set1588:   4004    4214 D  
  set1589:   4004    
  set1590:   4004    
  set1591:   4004    
  set1592:   4004    
  set1593:   
  set1594:   
  set1595:   
  set1596:   4214 D  
  set1597:   
  set1598:   
  set1599:   
  set1600:   
  set1601:   4004    4214    
  set1602:   4214 D  
  set1603:   
  set1604:   4004    
  set1605:   4214 D  
  set1606:   4003 D  
  set1607:   4003    4004    
  set1608:   4214    
  set1609:   4214    
  set1610:   4003 D  4214    
  set1611:   4003 D  4214    
  set1612:   4003 D  4214    
  set1613:   4003 D  4214    
  set1614:   4003 D  4214    
  set1615:   4003 D  
  set1616:   4003 D  
  set1617:   4003 D  
  set1618:   4003 D  
  set1619:   4003 D  
  set1620:   4003 D  
  set1621:   4003 D  
  set1622:   4003 D  
  set1623:   4003 D  
  set1624:   4003 D  
  set1625:   4003 D  
  set1626:   4003 D  
  set1627:   4003 D  
  set1628:   4003 D  
  set1629:   4003 D  
  set1630:   4003 D  
  set1631:   4003 D  
  set1632:   4003 D  
  set1633:   4003 D  
  set1634:   4003 D  
  set1635:   4003 D  
  set1636:   4003 D  
  set1637:   4003 D  
  set1638:   4003 D  
  set1639:   4003 D  423a    
  set1640:   4003 D  423a    
  set1641:   4003 D  4004 D  423a    
  set1642:   4003 D  4004 D  423a    
  set1643:   4003 D  423a    
  set1644:   4003 D  423a    
  set1645:   4003 D  4004    423a D  
  set1646:   4003 D  4004    423a D  
  set1647:   4003 D  4004    423a D  
  set1648:   4003 D  423a    
  set1649:   4003 D  4004    423a    
  set1650:   4003 D  4004    423a    
  set1651:   4003 D  423a    
  set1652:   4003 D  
  set1653:   4003 D  423a    
  set1654:   4003 D  423a    
  set1655:   4003 D  423a D  
  set1656:   4003 D  423a    
  set1657:   4001    4003 D  df    
  set1658:   4001    4003 D  df    
  set1659:   4001    4003 D  4004    
  set1660:   4001    4003 D  
  set1661:   4001    4003 D  df    
  set1662:   4001    4003 D  
  set1663:   4001    4003 D  
  set1664:   4003 D  
  set1665:   4003 D  
  set1666:   4003 D  
  set1667:   4003 D  df    
  set1668:   4003 D  
  set1669:   4003 D  
  set1670:   4003 D  
  set1671:   4003 D  
  set1672:   4003 D  
  set1673:   4003 D  df    
  set1674:   4003 D  
  set1675:   4003 D  
  set1676:   4003 D  
  set1677:   4003 D  
  set1678:   4003 D  4004    df    
  set1679:   4003 D  4004    
  set1680:   4003 D  
  set1681:   4003 D  
  set1682:   4003 D  
  set1683:   4003 D  
  set1684:   4002 D  4003 D  4004    df    
  set1685:   4003 D  4002 D  4004 D  
  set1686:   4003 D  4004    423a    
  set1687:   4003 D  4002 D  df    
  set1688:   4003 D  4004    
  set1689:   4003 D  4004    
  set1690:   4003 D  4004    
  set1691:   4003 D  
  set1692:   4003 D  
  set1693:   4003 D  
  set1694:   4003 D  
  set1695:   4003 D  
  set1696:   4003 D  
  set1697:   4003 D  
  set1698:   4003 D  
  set1699:   4003 D  
  set1700:   4003 D  
  set1701:   4003 D  
  set1702:   4003 D  
  set1703:   4003 D  
  set1704:   4003 D  
  set1705:   4003 D  
  set1706:   4003 D  
  set1707:   4003 D  
  set1708:   4003 D  
  set1709:   4003 D  
  set1710:   4003 D  
  set1711:   4003 D  
  set1712:   4003 D  
  set1713:   4003 D  
  set1714:   4003 D  
  set1715:   4003 D  
  set1716:   4003 D  
  set1717:   4003 D  
  set1718:   4003 D  
  set1719:   4003 D  
  set1720:   4003 D  
  set1721:   4003 D  
  set1722:   4003 D  
  set1723:   4003 D  
  set1724:   4003 D  
  set1725:   4003 D  
  set1726:   4003 D  
  set1727:   4003 D  
  set1728:   4003 D  
  set1729:   4003 D  
  set1730:   4003 D  
  set1731:   4003 D  
  set1732:   4003 D  
  set1733:   4003 D  
  set1734:   4003 D  
  set1735:   4003 D  
  set1736:   4003 D  
  set1737:   4003 D  
  set1738:   4003 D  
  set1739:   4003 D  
  set1740:   4003 D  
  set1741:   4003 D  
  set1742:   4003 D  
  set1743:   4003 D  
  set1744:   4003 D  
  set1745:   4003 D  
  set1746:   4003 D  
  set1747:   4003 D  
  set1748:   4003 D  
  set1749:   4003 D  
  set1750:   4003 D  
  set1751:   4003 D  423a    
  set1752:   4003 D  
  set1753:   4003 D  
  set1754:   4003 D  
  set1755:   4003 D  
  set1756:   4003 D  
  set1757:   4003 D  
  set1758:   4003 D  
  set1759:   4003 D  
  set1760:   4003 D  
  set1761:   4003 D  
  set1762:   4003 D  
  set1763:   4003 D  
  set1764:   4003 D  
  set1765:   4003 D  
  set1766:   4003 D  
  set1767:   4003 D  
  set1768:   4003 D  
  set1769:   4003 D  
  set1770:   4003 D  4004    
  set1771:   4003 D  4004    
  set1772:   4003 D  
  set1773:   4003 D  
  set1774:   4003 D  
  set1775:   4003 D  
  set1776:   4003 D  4004    
  set1777:   4003 D  
  set1778:   4003 D  
  set1779:   4003 D  
  set1780:   4003 D  
  set1781:   4003 D  4004    
  set1782:   4003 D  4004    
  set1783:   4003 D  
  set1784:   4003 D  
  set1785:   4003 D  
  set1786:   4003 D  
  set1787:   4003 D  
  set1788:   4003 D  4004 D  
  set1789:   4003 D  4004 D  
  set1790:   4003 D  4004    
  set1791:   4003 D  4004    
  set1792:   4003 D  
  set1793:   4003 D  4004 D  
  set1794:   4003 D  423a    
  set1795:   4003 D  
  set1796:   4003 D  4004 D  
  set1797:   4003 D  4004 D  
  set1798:   4003 D  4004 D  
  set1799:   4003 D  4004 D  
  set1800:   4003 D  4004 D  
  set1801:   4003 D  4004 D  
  set1802:   4003 D  4004 D  
  set1803:   4003 D  4004 D  
  set1804:   4003 D  4004 D  
  set1805:   4003 D  4004 D  
  set1806:   4003 D  4004 D  
  set1807:   4003 D  4004 D  
  set1808:   4003 D  4004 D  
  set1809:   4003 D  4004 D  
  set1810:   4003 D  4004 D  
  set1811:   4003 D  4004 D  
  set1812:   4003 D  4004 D  
  set1813:   4003 D  4004 D  
  set1814:   4003 D  4004 D  
  set1815:   4003 D  4004 D  
  set1816:   4003 D  4004 D  
  set1817:   4003 D  4004 D  
  set1818:   4003 D  4004 D  
  set1819:   4003 D  4004 D  
  set1820:   4003 D  4004 D  
  set1821:   4003 D  4004 D  
  set1822:   4003 D  4004 D  
  set1823:   4003 D  4004 D  
  set1824:   4003 D  4004 D  423a    
  set1825:   4003 D  4004 D  423a D  
  set1826:   4003 D  4004 D  
  set1827:   4003 D  4004 D  423a    
  set1828:   4003 D  4004 D  423a    
  set1829:   4003 D  4004 D  423a    
  set1830:   4003 D  4004 D  
  set1831:   4003 D  4004 D  
  set1832:   4003 D  4004 D  
  set1833:   4003 D  4004 D  
  set1834:   4003 D  4004 D  
  set1835:   4004 D  
  set1836:   4003 D  4004 D  
  set1837:   4004 D  
  set1838:   4004 D  
  set1839:   4004 D  4003 D  
  set1840:   4003 D  4004 D  
  set1841:   4003 D  4004 D  
  set1842:   4003 D  4004 D  
  set1843:   4003 D  4004 D  
  set1844:   4003 D  4004 D  
  set1845:   4004 D  
  set1846:   4004 D  
  set1847:   4004 D  
  set1848:   4004 D  
  set1849:   4004 D  
  set1850:   4004 D  
  set1851:   4004 D  
  set1852:   4004 D  
  set1853:   4004 D  
  set1854:   4004 D  
  set1855:   4004 D  
  set1856:   4003 D  4004 D  
  set1857:   4003 D  4004 D  
  set1858:   4004 D  
  set1859:   4004 D  
  set1860:   4004 D  
  set1861:   4004 D  
  set1862:   4004 D  
  set1863:   4004 D  
  set1864:   4004 D  
  set1865:   4004 D  
  set1866:   4004 D  
  set1867:   4004 D  
  set1868:   4003 D  4004 D  
  set1869:   4004 D  
  set1870:   4004 D  
  set1871:   4004 D  
  set1872:   4004 D  
  set1873:   4004 D  
  set1874:   4004 D  
  set1875:   4004 D  
  set1876:   4004 D  
  set1877:   4004 D  
  set1878:   4004 D  
  set1879:   4004 D  
  set1880:   4004 D  
  set1881:   4004 D  
  set1882:   4004 D  
  set1883:   4004 D  423a    
  set1884:   4004 D  4003 D  423a D  
  set1885:   4003 D  4004 D  423a D  
  set1886:   4003 D  4004 D  
  set1887:   4003 D  4004 D  423a    
  set1888:   4004 D  4003 D  423a D  
  set1889:   4004 D  4003 D  423a D  
  set1890:   4003 D  4004 D  423a D  
  set1891:   4004 D  4003 D  423a D  
  set1892:   4003 D  4004 D  423a    
  set1893:   4004 D  4003 D  
  set1894:   4003 D  4004 D  
  set1895:   4003 D  4004 D  
  set1896:   4004 D  
  set1897:   4004 D  
  set1898:   4004 D  
  set1899:   4004 D  
  set1900:   4004 D  
  set1901:   4004 D  
  set1902:   4004 D  
  set1903:   4004 D  
  set1904:   4004 D  
  set1905:   4004 D  
  set1906:   4003 D  4004 D  
  set1907:   4004 D  
  set1908:   4004 D  
  set1909:   4004 D  
  set1910:   4004 D  
  set1911:   4004 D  
  set1912:   4003 D  4004 D  
  set1913:   4001    4004 D  
  set1914:   4001    4004 D  
  set1915:   4004 D  
  set1916:   4004 D  
  set1917:   4001    4004 D  
  set1918:   4001    4004 D  
  set1919:   4004 D  
  set1920:   4004 D  
  set1921:   4003 D  4004 D  
  set1922:   4004 D  
  set1923:   4004 D  
  set1924:   4001    4004 D  
  set1925:   4001    4004 D  
  set1926:   4004 D  4001    
  set1927:   4004 D  4001    
  set1928:   4001    4004 D  
  set1929:   4004 D  
  set1930:   4004 D  4001    
  set1931:   4004 D  
  set1932:   4001    4004 D  
  set1933:   4004 D  4001    
  set1934:   4004 D  4001    
  set1935:   4003    4004 D  
  set1936:   4004 D  
  set1937:   4004 D  
  set1938:   4004 D  423a    
  set1939:   4004 D  423a    
  set1940:   4001    4004 D  423a    
  set1941:   4004 D  
  set1942:   4001    4004 D  423a    
  set1943:   4001    4004 D  
  set1944:   4001    4002 D  4004 D  
  set1945:   4001    4004 D  
  set1946:   4004 D  
  set1947:   4004 D  
  set1948:   4002 D  4004 D  
  set1949:   4004 D  
  set1950:   4004 D  
  set1951:   4004 D  
  set1952:   4002 D  4004 D  
  set1953:   4004 D  
  set1954:   4004 D  
  set1955:   4002 D  4004 D  
  set1956:   4002 D  4004 D  
  set1957:   4002    4001    4004 D  
  set1958:   4004 D  
  set1959:   4001    4002 D  4004 D  
  set1960:   4001    4004 D  
  set1961:   4001    4004 D  
  set1962:   4001    4004 D  
  set1963:   4004 D  
  set1964:   4004 D  
  set1965:   4004 D  
  set1966:   4004 D  
  set1967:   4002    4004 D  
  set1968:   4004 D  
  set1969:   4001    4004 D  
  set1970:   4004 D  
  set1971:   4004 D  
  set1972:   4004 D  
  set1973:   4004 D  
  set1974:   4004 D  
  set1975:   4002 D  4004 D  
  set1976:   4002 D  4004 D  
  set1977:   4002 D  4004 D  
  set1978:   4004 D  
  set1979:   4002 D  4004 D  
  set1980:   4002 D  4004 D  
  set1981:   4002 D  4004 D  
  set1982:   4002 D  4004 D  
  set1983:   4002 D  4004 D  
  set1984:   4002 D  4004 D  
  set1985:   4002 D  4004 D  
  set1986:   4002 D  4004 D  
  set1987:   4002 D  4004 D  
  set1988:   4002 D  4004 D  
  set1989:   4002 D  4004 D  
  set1990:   4002 D  4004 D  
  set1991:   4002 D  4004 D  
  set1992:   4003 D  4002 D  4004 D  
  set1993:   4002 D  4004 D  4003 D  
  set1994:   4003 D  4002 D  4004 D  
  set1995:   4002 D  4004 D  
  set1996:   4002 D  4004 D  
  set1997:   4002 D  4004 D  
  set1998:   4003 D  4002 D  4004 D  
  set1999:   4003 D  4002 D  4004 D  
  set2000:   4003 D  4002 D  4004 D  
  set2001:   4003 D  4002 D  4004 D  
  set2002:   4003 D  4002 D  4004 D  
  set2003:   4003 D  4002 D  4004 D  
  set2004:   4003 D  4002 D  4004 D  
  set2005:   4002 D  4004 D  
  set2006:   4002 D  4003    4004 D  
  set2007:   4002 D  4004 D  
  set2008:   4002 D  4004 D  
  set2009:   4003 D  4002 D  4004 D  
  set2010:   4002 D  4004 D  423a    
  set2011:   4002 D  4004 D  
  set2012:   4003 D  4002 D  4004 D  
  set2013:   4002 D  4003 D  4004 D  
  set2014:   4003 D  4002 D  4004 D  423a    
  set2015:   4002 D  4004 D  423a    
  set2016:   4002 D  4004 D  
  set2017:   4002 D  4004 D  
  set2018:   4002 D  4004 D  
  set2019:   4002 D  4004 D  
  set2020:   4002 D  4004 D  
  set2021:   4002 D  4004 D  423a    
  set2022:   4003 D  4002 D  4004 D  423a    
  set2023:   4003 D  4002 D  4004 D  423a D  
  set2024:   4003 D  4002 D  423a    
  set2025:   4003 D  4002 D  4004 D  423a    
  set2026:   4002 D  4004 D  423a D  
  set2027:   4002 D  4004 D  423a D  
  set2028:   4003 D  4002 D  4004 D  423a D  
  set2029:   4003 D  4002 D  4004 D  423a    
  set2030:   4002 D  4004 D  4239    
  set2031:   4002 D  4004 D  
  set2032:   4002 D  4004 D  
  set2033:   4002 D  4004 D  
  set2034:   4002 D  4004 D  
  set2035:   4002 D  4004 D  
  set2036:   4002 D  4004 D  423a    
  set2037:   4002 D  4004 D  423a D  
  set2038:   4003 D  4002 D  4004 D  423a    
  set2039:   4002 D  4004 D  423a    
  set2040:   4002 D  4004 D  
  set2041:   4002 D  4004 D  
  set2042:   4002 D  4004 D  423a    
  set2043:   4002 D  4004 D  423a    
  set2044:   4002 D  4004 D  
  set2045:   4002 D  4004 D  
  set2046:   4002 D  4004 D  
  set2047:   4002 D  4004 D  

===== Simulation results =====
  a. number of L1 reads:                       63640
  b. number of L1 read misses:                  4744
  c. number of L1 writes:                      36360
  d. number of L1 write misses:                 4325
  e. number of swap requests:                      0
  f. swap request rate:                       0.0000
  g. number of swaps:                              0
  h. combined L1+VC miss rate:                0.0907
  i. number writebacks from L1/VC:              4788
  j. number of L2 reads:                        9069
  k. number of L2 read misses:                  2582
  l. number of L2 writes:                       4788
  m. number of L2 write misses:                    0
  n. L2 miss rate:                            0.2847
  o. number of writebacks from L2:                 0
  p. total memory traffic:                      2582
