===== Simulator configuration =====
  BLOCKSIZE:                  32
  L1_SIZE:                  8192
  L1_ASSOC:                    4
  VC_NUM_BLOCKS:               0
  L2_SIZE:                 32768
  L2_ASSOC:                    8
  trace_file:      gcc_trace.txt

===== L1 contents =====
  set   0:   80066 D  8007d D  800a3 D  800ac D  
  set   1:   80066 D  8007e D  8006d D  800a3 D  
  set   2:   80066 D  800a3 D  800aa D  800ac D  
  set   3:   8006b D  8006c D  800a3 D  800ac D  
  set   4:   800a3 D  8006b D  8003e    800ac D  
  set   5:   800a3 D  800ac D  800ab D  800aa D  
  set   6:   8006b D  800a3 D  80079 D  8006f D  
  set   7:   8006b    800a3 D  800ac D  800ab D  
  set   8:   f6067 D  800a3 D  8007f D  800ac D  
  set   9:   f6067 D  800a3 D  800ac D  800a8 D  
  set  10:   80085 D  8007f D  800a3 D  800ac D  
  set  11:   80085 D  800a3 D  f6067 D  800ac D  
  set  12:   800a3 D  8007d D  8003e    800ac D  
  set  13:   800a3 D  800ac D  800ab D  800aa D  
  set  14:   800a3 D  8006a D  80074    800ac D  
  set  15:   8007e D  800a3 D  800ac D  800ab D  
  set  16:   800a3 D  80074 D  f6067 D  800ac D  
  set  17:   80070 D  800a3 D  80074 D  800ac D  
  set  18:   800a3 D  80090    80070 D  80052    
  set  19:   800a3 D  80070 D  8006f D  8007f D  
  set  20:   8003e    800a3 D  80052    800ac D  
  set  21:   80002    800a3 D  8006b    800ab D  
  set  22:   80002    8003e    800a3 D  8006b D  
  set  23:   80002    80052    800a3 D  8003e    
  set  24:   80002    8003e    80052    800a3 D  
  set  25:   80002    8003e    800a3 D  8007f D  
  set  26:   80002    800a3 D  800a9 D  800a8 D  
  set  27:   80002    800a3 D  80063 D  800ab D  
  set  28:   800a3 D  80063 D  80062 D  8006b D  
  set  29:   800a3 D  80063 D  80074 D  8007d D  
  set  30:   80063 D  800a3 D  8006b D  8007f D  
  set  31:   80063 D  800a3 D  8006a D  80074 D  
  set  32:   80062    800a3 D  8005e D  800ab D  
  set  33:   800a3 D  800a8 D  800ab D  800a7 D  
  set  34:   80062    800a3 D  800a8 D  800ab D  
  set  35:   80062    800a3 D  8005e D  800a8 D  
  set  36:   8005e D  80062    800a3 D  800a8 D  
  set  37:   8005e    8003e    80062    800a3 D  
  set  38:   80062    8006c D  800ab D  800a2 D  
  set  39:   8003e    8006c D  8007d D  8005e    
  set  40:   8003e    8006c D  8006a    800ab D  
  set  41:   8003e    8006c D  8006a    800a6 D  
  set  42:   8003e    8006a    8006c D  8006b    
  set  43:   8004e    8006a    800a9 D  800a8 D  
  set  44:   8007c    8006a    80062 D  8004e    
  set  45:   8004e    8006c D  8007f D  80088 D  
  set  46:   8004e    8006c D  800a2 D  800ab D  
  set  47:   8004e    80088 D  800a2 D  800ab D  
  set  48:   8006a    80073    80088 D  800a2 D  
  set  49:   80054 D  8004e    8003e    800a2 D  
  set  50:   80088 D  8004e    8007d D  800a2 D  
  set  51:   800a2 D  800ab D  800aa D  800a5 D  
  set  52:   80063 D  8008f    8007c D  800a9 D  
  set  53:   8008f    80063 D  800a2 D  800ab D  
  set  54:   8008f    80088 D  800a2 D  8007f D  
  set  55:   8008f    8006e D  8005e D  8006b D  
  set  56:   8005e D  8008f    8007d D  8006e D  
  set  57:   8008f    8005e D  800a6 D  800a2 D  
  set  58:   8008f    8006a D  80063 D  800a2 D  
  set  59:   8006a    8008f    800a2 D  800ab D  
  set  60:   80063 D  8006a    8008f    8006b D  
  set  61:   8006c D  8006a D  8006b D  800a2 D  
  set  62:   80069 D  800a2 D  8006c D  8003d    
  set  63:   80065 D  80069 D  800a2 D  80039    

===== L2 contents =====
  set   0:   40033    40056    40055 D  40054 D  40053 D  40031 D  40030 D  40044 D  
  set   1:   40033    40055 D  4003f    40053 D  40056 D  40054 D  40031 D  40030 D  
  set   2:   40033    40054 D  40055 D  40056    40053 D  40031 D  40030 D  40044 D  
  set   3:   40036    40053 D  40056    40055 D  40054 D  40031 D  40030 D  40044 D  
  set   4:   40053 D  4001f    40056    40055 D  40054 D  40031 D  40030 D  40044 D  
  set   5:   40056    40054 D  40055    40053 D  40031 D  40030 D  40044 D  40043 D  
  set   6:   40056 D  40055 D  40054 D  40053 D  40031 D  40030 D  40044 D  40043 D  
  set   7:   40055 D  40056    40054 D  40053 D  40031 D  40030 D  40044 D  40043 D  
  set   8:   40055 D  40056    40054 D  40053 D  40031 D  40030 D  40044 D  40043 D  
  set   9:   40055 D  40056    40053 D  40031 D  40054    40030 D  40044 D  40043 D  
  set  10:   40054 D  40056    40055 D  40053 D  40031 D  40030 D  40044 D  40043 D  
  set  11:   40056    40055 D  40054 D  40053 D  40031 D  40030 D  40044 D  40043 D  
  set  12:   4001f    40056    40055 D  40054 D  40053 D  40031 D  40030 D  40044 D  
  set  13:   40056    40054 D  40055    40053 D  40031 D  40030 D  40044 D  40043 D  
  set  14:   4003a D  40056    40055 D  40035 D  40054 D  40053 D  40031 D  40030 D  
  set  15:   4003f    40055 D  40056    40054 D  40053 D  40031 D  40030 D  40044 D  
  set  16:   4003a    40056    40055 D  40054 D  40053 D  40031 D  40030 D  40044 D  
  set  17:   40038    40054 D  4003a    40056    40055 D  40053 D  40031 D  40030 D  
  set  18:   40048    40029    40056 D  40054 D  40055 D  40038    40053 D  40031 D  
  set  19:   40056 D  40038    40055 D  40054 D  40053 D  40031 D  40030 D  40044 D  
  set  20:   40029    4002d D  4001f    40056    40055 D  40054 D  40053 D  40031 D  
  set  21:   40001    40055 D  40038 D  40054 D  40053 D  40031 D  40030 D  40044 D  
  set  22:   40001    4001f    40051 D  40055 D  40054 D  40053 D  40031 D  40030 D  
  set  23:   40001    40029    40051 D  40030 D  40055 D  4001f    40054 D  40053 D  
  set  24:   40001    4002f D  40029    40051 D  4001f    40055 D  40054 D  40053 D  
  set  25:   40001    40053 D  4001f    40054 D  40051 D  40055 D  40031 D  40030 D  
  set  26:   40001    40053 D  40054 D  40051 D  40055 D  40031 D  40030 D  40044 D  
  set  27:   40001    40051 D  40055 D  40054 D  40053 D  40031 D  40030 D  40044 D  
  set  28:   40031 D  40051 D  40055 D  4002f D  40054 D  40053 D  40030 D  40044 D  
  set  29:   40051 D  4003a    40055 D  40054 D  40053 D  40030 D  40044 D  40043 D  
  set  30:   40051 D  40038    40055 D  40054 D  40053 D  40030 D  40044 D  40043 D  
  set  31:   40035    40051 D  4003a    40043 D  40055 D  40054 D  40053 D  40030 D  
  set  32:   40051 D  40031    40055 D  4002f    40054 D  40053 D  40030 D  40044 D  
  set  33:   40051 D  40054 D  40053 D  40055 D  40030 D  40044 D  40043 D  40034 D  
  set  34:   40031    40051 D  40054 D  40053 D  40055 D  40030 D  40044 D  40043 D  
  set  35:   40031    40051 D  4002f    40055 D  40054 D  40053 D  40030 D  40044 D  
  set  36:   4002f D  40051 D  40054 D  40055 D  40039 D  40031    40053 D  40030 D  
  set  37:   4002f    40036 D  40051 D  4001f    40055 D  40031    40054 D  40053 D  
  set  38:   40036    40030 D  40031    40055 D  40051    40054 D  40053 D  40044 D  
  set  39:   40036    40051 D  40043 D  40030 D  4002f D  40055 D  4001f    40054 D  
  set  40:   40036    40051 D  40035    40055 D  4001f    40054 D  40053 D  40030 D  
  set  41:   4001f    40036    40054 D  40035    40053 D  40051 D  40055 D  40030 D  
  set  42:   40035    4001f    40054 D  40036    40051 D  40053 D  40055 D  40030 D  
  set  43:   40035    40027    40051 D  40055 D  40054 D  40053 D  40030 D  40044 D  
  set  44:   40031    40035    40054 D  40027    4003e D  40051 D  40055 D  40053 D  
  set  45:   40027    40051 D  40036 D  40055 D  40044    40054 D  40053 D  40030 D  
  set  46:   40027    40055 D  40036    40051    40054 D  40053 D  40030 D  40043 D  
  set  47:   40027    40055 D  40044    40051    40054 D  40053 D  40030 D  40043 D  
  set  48:   40035    40055 D  40044    4003e D  40051    40054 D  40053 D  40030 D  
  set  49:   4001f    40054 D  40027    4002a    40051    40053 D  40055 D  4003e D  
  set  50:   40044    40054 D  40027    40051    40053 D  40055 D  4003e D  40030 D  
  set  51:   40051    4003e D  40055    40054 D  40053 D  40030 D  40043 D  40034 D  
  set  52:   40051 D  4003e    40055 D  40054 D  40053 D  40031 D  40030 D  40043 D  
  set  53:   40055 D  40051    40054 D  40053 D  40031 D  40030 D  40043 D  40034 D  
  set  54:   40044    40051    40055 D  40043 D  40054 D  40053 D  40031 D  40030 D  
  set  55:   40051 D  40037    4002f    40055 D  40054 D  40053 D  40031 D  40030 D  
  set  56:   40051 D  4002f    40055 D  40037 D  40054 D  40053 D  40031 D  40030 D  
  set  57:   4002f    40053 D  40054 D  40051    40055 D  40031 D  40030 D  40043 D  
  set  58:   40035    40054 D  40051    40053 D  40055 D  40031 D  40030 D  40043 D  
  set  59:   40051    40055 D  40054 D  40035 D  40053 D  40031 D  40030 D  4002f D  
  set  60:   40051 D  40035    40055 D  40054 D  40053 D  40031 D  40030 D  4002f D  
  set  61:   40035    40036    40051    40055 D  40054 D  40053 D  40031 D  40030 D  
  set  62:   40051    40036 D  40055 D  40054 D  40053 D  40031 D  40030 D  4002f D  
  set  63:   40055 D  40051    40031 D  40054 D  40053 D  40030 D  4002f D  40043 D  
  set  64:   40055 D  4003e    40054 D  40051    40031 D  40053 D  40030 D  4002f D  
  set  65:   40053 D  40051    40036 D  40055 D  40054 D  4003e D  40031 D  40030 D  
  set  66:   40051    40053 D  40055 D  40031 D  40054 D  40030 D  4002f D  40043 D  
  set  67:   40035    40055 D  40051    40054 D  40037 D  40053 D  40030 D  4002f D  
  set  68:   40051    40055 D  40035    40054 D  40053 D  40030 D  4002f D  40043 D  
  set  69:   40051    40054 D  40055    40053 D  40030 D  4002f D  40043 D  40034 D  
  set  70:   40035 D  40051    4003c    40055 D  40054 D  40037    40053 D  40030 D  
  set  71:   40035    40051    40054 D  40055    40053 D  40030 D  4002f D  40043 D  
  set  72:   40051    40055 D  4003f    7b033    40054 D  40053 D  40030 D  4002f D  
  set  73:   7b033    40055 D  40051    40054 D  40053 D  40030 D  4002f D  40043 D  
  set  74:   4003f    40042    40055 D  40051    4002f D  40054 D  40053 D  40030 D  
  set  75:   40042    40053 D  40051    40055 D  40054 D  7b033    40030 D  4002f D  
  set  76:   40051    40053 D  4003e D  40055 D  40054 D  40030 D  4002f D  40043 D  
  set  77:   40051    40054 D  40055    40053 D  40030 D  4002f D  40043 D  40042 D  
  set  78:   40051    40055 D  4003f D  40054 D  40053 D  40030 D  4002f D  40043 D  
  set  79:   4003f D  40051    40054 D  40055    40053 D  40030 D  4002f D  40043 D  
  set  80:   40051    40055 D  4003f D  40054 D  7b033    40053 D  40030 D  4002f D  
  set  81:   40054 D  40051    40055 D  4003f D  40053 D  40030 D  4002f D  40043 D  
  set  82:   4003f D  40051    40054 D  40055 D  40053 D  40030 D  4002f D  40043 D  
  set  83:   40051    40054 D  40037    40055 D  4003f    40053 D  40030 D  4002f D  
  set  84:   40051    40035 D  40054 D  40055 D  40053 D  4003f D  40030 D  4002f D  
  set  85:   40051    40035 D  40054 D  40055    40053 D  40030 D  4002f D  40043 D  
  set  86:   40055 D  40051    40035    40054 D  40053 D  40030 D  4002f D  40043 D  
  set  87:   40055 D  40051    40054 D  40053 D  40030 D  4002f D  40043 D  40042 D  
  set  88:   40051    40055 D  40054 D  40053 D  40030 D  4002f D  40043 D  40042 D  
  set  89:   40051    40054 D  4003f    40036 D  40055 D  40053 D  4002f D  40030 D  
  set  90:   40055 D  40051    40053 D  40054 D  40036 D  40030 D  4002f D  40043 D  
  set  91:   40051    40036 D  40031    40055    40054 D  40053 D  40030 D  4002f D  
  set  92:   40051    40055 D  40031    40035    40037 D  40036 D  40054 D  40053 D  
  set  93:   40051    40037 D  40031    40055 D  4003e    40036 D  40054 D  40053 D  
  set  94:   40051    4003e D  40031    4003f    40055 D  40035    40054 D  40053 D  
  set  95:   40031    40035 D  40051    40055 D  40054 D  40053 D  40030 D  4002f D  
  set  96:   40051    40054 D  40055    40053 D  40030 D  4002f D  40043 D  40042 D  
  set  97:   40051    40055    40033 D  40035 D  40053 D  40054 D  40030 D  4002f D  
  set  98:   40051    40053 D  40055    40054 D  40030 D  4002f D  40043 D  40042 D  
  set  99:   40051    40055 D  40054 D  40053 D  40030 D  4002f D  40043 D  40042 D  
  set 100:   40051    40055 D  40054 D  40053 D  40030 D  4002f D  40043 D  40042 D  
  set 101:   40051    40055 D  40054 D  40053 D  40030 D  4002f D  40043 D  40042 D  
  set 102:   40055    4003f D  40054 D  40053 D  40030 D  4002f D  40043 D  40042 D  
  set 103:   40055 D  4003e    40054 D  4003f D  40053 D  40030 D  4002f D  40043 D  
  set 104:   4003f D  40055    40054 D  40053 D  40030 D  4002f D  40043 D  40042 D  
  set 105:   40054 D  40055 D  40053 D  40033 D  4003f D  40030 D  4002f D  40043 D  
  set 106:   40054 D  40055 D  40035 D  40053 D  40030 D  4002f D  40043 D  40042 D  
  set 107:   40055 D  40054 D  40053 D  40030 D  4002f D  40043 D  40042 D  40034 D  
  set 108:   40054 D  40055 D  4003f D  40053 D  40030 D  4002f D  40043 D  40042 D  
  set 109:   40055 D  4003f    40054 D  40053 D  40030 D  4002f D  40043 D  40042 D  
  set 110:   40036 D  40054 D  40055    40053 D  40030 D  4002f D  40043 D  40042 D  
  set 111:   40036 D  40054 D  40055    40053 D  40030 D  4002f D  40043 D  40042 D  
  set 112:   40055 D  40039    40054 D  40053 D  40052 D  40030 D  4002f D  40043 D  
  set 113:   40055 D  40053 D  40036 D  40052 D  40054 D  40030 D  4002f D  40043 D  
  set 114:   40055 D  4003e    40053 D  40052 D  40054 D  40030 D  4002f D  40043 D  
  set 115:   40054 D  40055    40052 D  40053 D  40030 D  4002f D  40043 D  40042 D  
  set 116:   40047    40055 D  40054 D  40052 D  40031    40053 D  40030 D  4002f D  
  set 117:   40047    40031    40054 D  40055    40053 D  40052 D  40030 D  4002f D  
  set 118:   40047    40055 D  40039 D  40054 D  4003f    40053 D  40052 D  40030 D  
  set 119:   40047    40055 D  40035    40054 D  40053 D  40052 D  40030 D  4002f D  
  set 120:   40047    40055 D  4003e    40033 D  40054 D  40053 D  40052 D  40030 D  
  set 121:   40047    40054 D  40055 D  40053 D  40052 D  4001c    4001e    40030 D  
  set 122:   40047    40031    40054 D  40055 D  40053 D  40052 D  4001c    4001e    
  set 123:   40047    40055    40052 D  4001c    40054 D  40053 D  40030 D  4002f D  
  set 124:   40047    40055 D  40031    40052 D  40035 D  4001c    40054 D  40053 D  
  set 125:   40035    40055 D  40054 D  4001c    40053 D  4001e    40052 D  40030 D  
  set 126:   40034    40055 D  4001c    40054 D  4001e    40053 D  40052 D  40030 D  
  set 127:   40032    40055 D  40034    4001c    40054 D  40053 D  40052 D  40030 D  

===== Simulation results =====
  a. number of L1 reads:                       63640
  b. number of L1 read misses:                  1844
  c. number of L1 writes:                      36360
  d. number of L1 write misses:                 2403
  e. number of swap requests:                      0
  f. swap request rate:                       0.0000
  g. number of swaps:                              0
  h. combined L1+VC miss rate:                0.0425
  i. number writebacks from L1/VC:              2496
  j. number of L2 reads:                        4247
  k. number of L2 read misses:                  2625
  l. number of L2 writes:                       2496
  m. number of L2 write misses:                    2
  n. L2 miss rate:                            0.6181
  o. number of writebacks from L2:              1234
  p. total memory traffic:                      3861
